\relax 
\providecommand\hyper@newdestlabel[2]{}
\providecommand\HyperFirstAtBeginDocument{\AtBeginDocument}
\HyperFirstAtBeginDocument{\ifx\hyper@anchor\@undefined
\global\let\oldcontentsline\contentsline
\gdef\contentsline#1#2#3#4{\oldcontentsline{#1}{#2}{#3}}
\global\let\oldnewlabel\newlabel
\gdef\newlabel#1#2{\newlabelxx{#1}#2}
\gdef\newlabelxx#1#2#3#4#5#6{\oldnewlabel{#1}{{#2}{#3}}}
\AtEndDocument{\ifx\hyper@anchor\@undefined
\let\contentsline\oldcontentsline
\let\newlabel\oldnewlabel
\fi}
\fi}
\global\let\hyper@last\relax 
\gdef\HyperFirstAtBeginDocument#1{#1}
\providecommand\HyField@AuxAddToFields[1]{}
\providecommand\HyField@AuxAddToCoFields[2]{}
\citation{user}
\citation{target}
\citation{arTracking}
\citation{medical}
\citation{cvprBenchmark}
\citation{vot}
\citation{vot14}
\citation{cvprBenchmark}
\citation{vot}
\citation{vot14}
\citation{mubarakSummary}
\citation{vot}
\citation{vot14}
\citation{mubarakSummary}
\citation{cvprBenchmark}
\citation{uofa}
\citation{hager}
\citation{esm}
\citation{ic}
\citation{lk}
\citation{MIIC}
\citation{ncc2012}
\citation{lk}
\citation{nccLK}
\@writefile{toc}{\contentsline {section}{\numberline {I}Introduction}{1}{section.1}}
\newlabel{introduction}{{I}{1}{Introduction}{section.1}{}}
\@writefile{lof}{\contentsline {figure}{\numberline {1}{\ignorespaces Modular breakdown of a tracking algorithm assuming there is no dynamic update to the appearance model. This shows how different components work, as formulated in Eq \ref  {tracking}. The state vector $\pi $ parameterizes the pose of the object.}}{1}{figure.1}}
\newlabel{flow}{{1}{1}{Modular breakdown of a tracking algorithm assuming there is no dynamic update to the appearance model. This shows how different components work, as formulated in Eq \ref {tracking}. The state vector $\pi $ parameterizes the pose of the object}{figure.1}{}}
\newlabel{tracking}{{1}{1}{Introduction}{equation.1.1}{}}
\citation{cvprBenchmark}
\citation{Hartley:2003:MVG:861369}
\citation{lk}
\citation{ic}
\citation{esm}
\citation{esm}
\citation{szeliski}
\citation{ic}
\citation{nnic}
\citation{flann}
\citation{hager1998}
\citation{lk}
\citation{szeliski}
\citation{ic}
\citation{esm}
\citation{nnic}
\@writefile{toc}{\contentsline {section}{\numberline {II}Descriptions of submodules}{2}{section.2}}
\@writefile{toc}{\contentsline {subsection}{\numberline {II-A}Search Method}{2}{subsection.2.1}}
\newlabel{searchMethod}{{II-A}{2}{Search Method}{subsection.2.1}{}}
\@writefile{lot}{\contentsline {table}{\numberline {I}{\ignorespaces Search Methods for Tracking}}{2}{table.1}}
\newlabel{search}{{I}{2}{Search Methods for Tracking}{table.1}{}}
\@writefile{toc}{\contentsline {subsection}{\numberline {II-B}Appearance Model}{2}{subsection.2.2}}
\newlabel{appearanceModel}{{II-B}{2}{Appearance Model}{subsection.2.2}{}}
\citation{ncc}
\citation{scv}
\citation{nnic}
\citation{hager}
\citation{nccEq}
\citation{Zscore}
\citation{ic}
\citation{lk}
\citation{scv}
\citation{esm}
\citation{nnic}
\citation{ncc}
\citation{esm}
\citation{lk}
\citation{ic}
\citation{Hartley:2003:MVG:861369}
\citation{szeliski}
\citation{uofa}
\citation{gauglitz}
\citation{nnic}
\citation{metaio}
\citation{bakerMatthews}
\@writefile{lot}{\contentsline {table}{\numberline {II}{\ignorespaces Appearance Models for Tracking}}{3}{table.2}}
\newlabel{appearance}{{II}{3}{Appearance Models for Tracking}{table.2}{}}
\@writefile{toc}{\contentsline {subsection}{\numberline {II-C}State Space Model}{3}{subsection.2.3}}
\newlabel{stateSpace}{{II-C}{3}{State Space Model}{subsection.2.3}{}}
\@writefile{toc}{\contentsline {section}{\numberline {III}Experimental Results and Analysis}{3}{section.3}}
\newlabel{experiments}{{III}{3}{Experimental Results and Analysis}{section.3}{}}
\@writefile{toc}{\contentsline {subsection}{\numberline {III-A}Dataset and Error Metric}{3}{subsection.3.1}}
\@writefile{toc}{\contentsline {subsection}{\numberline {III-B}Evaluation Measures}{3}{subsection.3.2}}
\@writefile{toc}{\contentsline {subsection}{\numberline {III-C}Parameters Used}{3}{subsection.3.3}}
\@writefile{toc}{\contentsline {subsection}{\numberline {III-D}Results}{3}{subsection.3.4}}
\newlabel{results}{{III-D}{3}{Results}{subsection.3.4}{}}
\newlabel{res_sm}{{III-D.1}{3}{Search Methods}{subsubsection.3.4.1}{}}
\@writefile{toc}{\contentsline {subsubsection}{\numberline {III-D.1}Search Methods}{3}{figure.3}}
\@writefile{lof}{\contentsline {figure}{\numberline {2}{\ignorespaces Success Rates for all search methods in the TMT dataset plotted against the error threshold.}}{4}{figure.2}}
\newlabel{fig:sm_rscv_8_tmt}{{2}{4}{Success Rates for all search methods in the TMT dataset plotted against the error threshold}{figure.2}{}}
\@writefile{lof}{\contentsline {figure}{\numberline {3}{\ignorespaces Success Rates for all search methods in the UCSB dataset plotted against the error threshold.}}{4}{figure.3}}
\newlabel{fig:sm_rscv_8_ucsb}{{3}{4}{Success Rates for all search methods in the UCSB dataset plotted against the error threshold}{figure.3}{}}
\@writefile{lof}{\contentsline {figure}{\numberline {4}{\ignorespaces Success rates for different search methods in the TMT dataset using RSCV/8DOF with respect to following challenges: \textbf  {TR}: in plane translation \textbf  {RO}: in plane rotation \textbf  {PR}: perspective distortion \textbf  {SR}: specular reflection \textbf  {OC}: partial occlusion \textbf  {TX}: changing texture \textbf  {BL}: motion blur \textbf  {SC}: scaling}}{4}{figure.4}}
\newlabel{fig:tags_rscv_8}{{4}{4}{Success rates for different search methods in the TMT dataset using RSCV/8DOF with respect to following challenges: \textbf {TR}: in plane translation \textbf {RO}: in plane rotation \textbf {PR}: perspective distortion \textbf {SR}: specular reflection \textbf {OC}: partial occlusion \textbf {TX}: changing texture \textbf {BL}: motion blur \textbf {SC}: scaling}{figure.4}{}}
\newlabel{res_am}{{III-D.2}{4}{Appearance Models}{subsubsection.3.4.2}{}}
\@writefile{toc}{\contentsline {subsubsection}{\numberline {III-D.2}Appearance Models}{4}{figure.5}}
\citation{vot14}
\@writefile{lof}{\contentsline {figure}{\numberline {5}{\ignorespaces Success Rates for all appearance models in both TMT and UCSB datasets plotted against the error threshold. Results for TMT are shown with \textbf  {solid} lines while those for UCSB are shown with \textbf  {dashed} lines}}{5}{figure.5}}
\newlabel{fig:am_8}{{5}{5}{Success Rates for all appearance models in both TMT and UCSB datasets plotted against the error threshold. Results for TMT are shown with \textbf {solid} lines while those for UCSB are shown with \textbf {dashed} lines}{figure.5}{}}
\@writefile{lof}{\contentsline {figure}{\numberline {6}{\ignorespaces Success Rates for all search methods in the TMT dataset plotted against the error threshold using NCC AM and 8DOF SSM.}}{5}{figure.6}}
\newlabel{fig:sm_ncc_8_ucsb}{{6}{5}{Success Rates for all search methods in the TMT dataset plotted against the error threshold using NCC AM and 8DOF SSM}{figure.6}{}}
\newlabel{res_ssm}{{III-D.3}{5}{State Space Models}{subsubsection.3.4.3}{}}
\@writefile{toc}{\contentsline {subsubsection}{\numberline {III-D.3}State Space Models}{5}{figure.9}}
\@writefile{lof}{\contentsline {figure}{\numberline {7}{\ignorespaces Success Rates for 8 search methods using 2DOF SSM as well as for 3 learning based trackers on (a)TMT and (b)UCSB dataset. The former are shown with \textbf  {solid} lines and the latter in \textbf  {dashed} lines. 2DOF ground truth was used for all evaluations.}}{6}{figure.7}}
\newlabel{fig:sm_rscv_2_gt2_speed}{{7}{6}{Success Rates for 8 search methods using 2DOF SSM as well as for 3 learning based trackers on (a)TMT and (b)UCSB dataset. The former are shown with \textbf {solid} lines and the latter in \textbf {dashed} lines. 2DOF ground truth was used for all evaluations}{figure.7}{}}
\@writefile{lof}{\contentsline {figure}{\numberline {8}{\ignorespaces Success Rates for all state space models in both TMT and UCSB datasets plotted against the error threshold. Note that 8DOF homography has three different parameterizations whose plots overlap perfectly.}}{6}{figure.8}}
\newlabel{fig:ssm_nesm_rscv}{{8}{6}{Success Rates for all state space models in both TMT and UCSB datasets plotted against the error threshold. Note that 8DOF homography has three different parameterizations whose plots overlap perfectly}{figure.8}{}}
\@writefile{lof}{\contentsline {figure}{\numberline {9}{\ignorespaces Speeds in FPS for the different submodules}}{6}{figure.9}}
\newlabel{fig:speed_plots}{{9}{6}{Speeds in FPS for the different submodules}{figure.9}{}}
\citation{vot}
\citation{esm}
\citation{esm}
\newlabel{speeds}{{III-D.4}{7}{Speed Comparisons}{subsubsection.3.4.4}{}}
\@writefile{toc}{\contentsline {subsubsection}{\numberline {III-D.4}Speed Comparisons}{7}{subsubsection.3.4.4}}
\bibstyle{ieee}
\bibdata{egbib}
\bibcite{bakerMatthews}{1}
\bibcite{ic}{2}
\bibcite{esm}{3}
\bibcite{nccLK}{4}
\bibcite{MIIC}{5}
\bibcite{nnic}{6}
\bibcite{gauglitz}{7}
\bibcite{hager1998}{8}
\bibcite{Hartley:2003:MVG:861369}{9}
\bibcite{Zscore}{10}
\bibcite{user}{11}
\bibcite{vot14}{12}
\bibcite{vot}{13}
\bibcite{metaio}{14}
\bibcite{arTracking}{15}
\bibcite{lk}{16}
\bibcite{target}{17}
\bibcite{flann}{18}
\bibcite{scv}{19}
\bibcite{hager}{20}
\bibcite{uofa}{21}
\bibcite{nccEq}{22}
\bibcite{ncc}{23}
\bibcite{ncc2012}{24}
\bibcite{medical}{25}
\bibcite{mubarakSummary}{26}
\bibcite{szeliski}{27}
\bibcite{cvprBenchmark}{28}
\@writefile{toc}{\contentsline {section}{\numberline {IV}Conclusions and Future Work}{8}{section.4}}
\@writefile{toc}{\contentsline {section}{References}{8}{section*.1}}
