%!PS-Adobe-3.0 EPSF-3.0
%%Creator: MATLAB, The MathWorks, Inc. Version 8.1.0.604 (R2013a). Operating System: Microsoft Windows 8.
%%Title: E:\UofA\Thesis\ICRA 2016\sm_ncc_2_ucsb_gt2.eps
%%CreationDate: 09/15/2015  01:55:01
%%DocumentNeededFonts: Times-Roman
%%+ Helvetica
%%DocumentProcessColors: Cyan Magenta Yellow Black
%%LanguageLevel: 2
%%Pages: 1
%%BoundingBox:    96   207   515   584
%%EndComments

%%BeginProlog
% MathWorks dictionary
/MathWorks 160 dict begin
% definition operators
/bdef {bind def} bind def
/ldef {load def} bind def
/xdef {exch def} bdef
/xstore {exch store} bdef
% operator abbreviations
/c  /clip ldef
/cc /concat ldef
/cp /closepath ldef
/gr /grestore ldef
/gs /gsave ldef
/mt /moveto ldef
/np /newpath ldef
/cm /currentmatrix ldef
/sm /setmatrix ldef
/rm /rmoveto ldef
/rl /rlineto ldef
/s {show newpath} bdef
/sc {setcmykcolor} bdef
/sr /setrgbcolor ldef
/sg /setgray ldef
/w /setlinewidth ldef
/j /setlinejoin ldef
/cap /setlinecap ldef
/rc {rectclip} bdef
/rf {rectfill} bdef
% page state control
/pgsv () def
/bpage {/pgsv save def} bdef
/epage {pgsv restore} bdef
/bplot /gsave ldef
/eplot {stroke grestore} bdef
% orientation switch
/portraitMode 0 def /landscapeMode 1 def /rotateMode 2 def
% coordinate system mappings
/dpi2point 0 def
% font control
/FontSize 0 def
/FMS {/FontSize xstore findfont [FontSize 0 0 FontSize neg 0 0]
  makefont setfont} bdef
/ISOLatin1Encoding where {pop /WindowsLatin1Encoding 256 array bdef
ISOLatin1Encoding WindowsLatin1Encoding copy pop
/.notdef/.notdef/quotesinglbase/florin/quotedblbase/ellipsis/dagger
/daggerdbl/circumflex/perthousand/Scaron/guilsinglleft/OE/.notdef/.notdef
/.notdef/.notdef/quoteleft/quoteright/quotedblleft/quotedblright/bullet
/endash/emdash/tilde/trademark/scaron/guilsinglright/oe/.notdef/.notdef
/Ydieresis WindowsLatin1Encoding 128 32 getinterval astore pop}
{/WindowsLatin1Encoding StandardEncoding bdef} ifelse
/reencode {exch dup where {pop load} {pop StandardEncoding} ifelse
  exch dup 3 1 roll findfont dup length dict begin
  { 1 index /FID ne {def}{pop pop} ifelse } forall
  /Encoding exch def currentdict end definefont pop} bdef
/isroman {findfont /CharStrings get /Agrave known} bdef
/FMSR {3 1 roll 1 index dup isroman {reencode} {pop pop} ifelse
  exch FMS} bdef
/csm {1 dpi2point div -1 dpi2point div scale neg translate
 dup landscapeMode eq {pop -90 rotate}
  {rotateMode eq {90 rotate} if} ifelse} bdef
% line types: solid, dotted, dashed, dotdash
/SO { [] 0 setdash } bdef
/DO { [.5 dpi2point mul 4 dpi2point mul] 0 setdash } bdef
/DA { [6 dpi2point mul] 0 setdash } bdef
/DD { [.5 dpi2point mul 4 dpi2point mul 6 dpi2point mul 4
  dpi2point mul] 0 setdash } bdef
% macros for lines and objects
/L {lineto stroke} bdef
/MP {3 1 roll moveto 1 sub {rlineto} repeat} bdef
/AP {{rlineto} repeat} bdef
/PDlw -1 def
/W {/PDlw currentlinewidth def setlinewidth} def
/PP {closepath eofill} bdef
/DP {closepath stroke} bdef
/MR {4 -2 roll moveto dup  0 exch rlineto exch 0 rlineto
  neg 0 exch rlineto closepath} bdef
/FR {MR stroke} bdef
/PR {MR fill} bdef
/L1i {{currentfile picstr readhexstring pop} image} bdef
/tMatrix matrix def
/MakeOval {newpath tMatrix currentmatrix pop translate scale
0 0 1 0 360 arc tMatrix setmatrix} bdef
/FO {MakeOval stroke} bdef
/PO {MakeOval fill} bdef
/PD {currentlinewidth 2 div 0 360 arc fill
   PDlw -1 eq not {PDlw w /PDlw -1 def} if} def
/FA {newpath tMatrix currentmatrix pop translate scale
  0 0 1 5 -2 roll arc tMatrix setmatrix stroke} bdef
/PA {newpath tMatrix currentmatrix pop	translate 0 0 moveto scale
  0 0 1 5 -2 roll arc closepath tMatrix setmatrix fill} bdef
/FAn {newpath tMatrix currentmatrix pop translate scale
  0 0 1 5 -2 roll arcn tMatrix setmatrix stroke} bdef
/PAn {newpath tMatrix currentmatrix pop translate 0 0 moveto scale
  0 0 1 5 -2 roll arcn closepath tMatrix setmatrix fill} bdef
/vradius 0 def /hradius 0 def /lry 0 def
/lrx 0 def /uly 0 def /ulx 0 def /rad 0 def
/MRR {/vradius xdef /hradius xdef /lry xdef /lrx xdef /uly xdef
  /ulx xdef newpath tMatrix currentmatrix pop ulx hradius add uly
  vradius add translate hradius vradius scale 0 0 1 180 270 arc 
  tMatrix setmatrix lrx hradius sub uly vradius add translate
  hradius vradius scale 0 0 1 270 360 arc tMatrix setmatrix
  lrx hradius sub lry vradius sub translate hradius vradius scale
  0 0 1 0 90 arc tMatrix setmatrix ulx hradius add lry vradius sub
  translate hradius vradius scale 0 0 1 90 180 arc tMatrix setmatrix
  closepath} bdef
/FRR {MRR stroke } bdef
/PRR {MRR fill } bdef
/MlrRR {/lry xdef /lrx xdef /uly xdef /ulx xdef /rad lry uly sub 2 div def
  newpath tMatrix currentmatrix pop ulx rad add uly rad add translate
  rad rad scale 0 0 1 90 270 arc tMatrix setmatrix lrx rad sub lry rad
  sub translate rad rad scale 0 0 1 270 90 arc tMatrix setmatrix
  closepath} bdef
/FlrRR {MlrRR stroke } bdef
/PlrRR {MlrRR fill } bdef
/MtbRR {/lry xdef /lrx xdef /uly xdef /ulx xdef /rad lrx ulx sub 2 div def
  newpath tMatrix currentmatrix pop ulx rad add uly rad add translate
  rad rad scale 0 0 1 180 360 arc tMatrix setmatrix lrx rad sub lry rad
  sub translate rad rad scale 0 0 1 0 180 arc tMatrix setmatrix
  closepath} bdef
/FtbRR {MtbRR stroke } bdef
/PtbRR {MtbRR fill } bdef
/stri 6 array def /dtri 6 array def
/smat 6 array def /dmat 6 array def
/tmat1 6 array def /tmat2 6 array def /dif 3 array def
/asub {/ind2 exch def /ind1 exch def dup dup
  ind1 get exch ind2 get sub exch } bdef
/tri_to_matrix {
  2 0 asub 3 1 asub 4 0 asub 5 1 asub
  dup 0 get exch 1 get 7 -1 roll astore } bdef
/compute_transform {
  dmat dtri tri_to_matrix tmat1 invertmatrix 
  smat stri tri_to_matrix tmat2 concatmatrix } bdef
/ds {stri astore pop} bdef
/dt {dtri astore pop} bdef
/db {2 copy /cols xdef /rows xdef mul dup 3 mul string
  currentfile 
  3 index 0 eq {/ASCIIHexDecode filter}
  {/ASCII85Decode filter 3 index 2 eq {/RunLengthDecode filter} if }
  ifelse exch readstring pop
  dup 0 3 index getinterval /rbmap xdef
  dup 2 index dup getinterval /gbmap xdef
  1 index dup 2 mul exch getinterval /bbmap xdef pop pop}bdef
/it {gs np dtri aload pop moveto lineto lineto cp c
  cols rows 8 compute_transform 
  rbmap gbmap bbmap true 3 colorimage gr}bdef
/il {newpath moveto lineto stroke}bdef
currentdict end def
%%EndProlog

%%BeginSetup
MathWorks begin

0 cap

end
%%EndSetup

%%Page: 1 1
%%BeginPageSetup
%%PageBoundingBox:    96   207   515   584
MathWorks begin
bpage
%%EndPageSetup

%%BeginObject: obj1
bplot

/dpi2point 12 def
portraitMode 1152 7008 csm

    0     0  5039  4518 rc
92 dict begin %Colortable dictionary
/c0 { 0.000000 0.000000 0.000000 sr} bdef
/c1 { 1.000000 1.000000 1.000000 sr} bdef
/c2 { 0.900000 0.000000 0.000000 sr} bdef
/c3 { 0.000000 0.820000 0.000000 sr} bdef
/c4 { 0.000000 0.000000 0.800000 sr} bdef
/c5 { 0.910000 0.820000 0.320000 sr} bdef
/c6 { 1.000000 0.260000 0.820000 sr} bdef
/c7 { 0.000000 0.820000 0.820000 sr} bdef
c0
1 j
1 sg
   0    0 5040 4519 rf
6 w
0 3683 3905 0 0 -3683 655 4021 4 MP
PP
-3905 0 0 3683 3905 0 0 -3683 655 4021 5 MP stroke
4 w
DO
0 sg
 655 4021 mt  655  338 L
 655  338 mt  655  338 L
1631 4021 mt 1631  338 L
1631  338 mt 1631  338 L
2607 4021 mt 2607  338 L
2607  338 mt 2607  338 L
3583 4021 mt 3583  338 L
3583  338 mt 3583  338 L
4560 4021 mt 4560  338 L
4560  338 mt 4560  338 L
 655 4021 mt 4560 4021 L
4560 4021 mt 4560 4021 L
 655 3611 mt 4560 3611 L
4560 3611 mt 4560 3611 L
 655 3202 mt 4560 3202 L
4560 3202 mt 4560 3202 L
 655 2793 mt 4560 2793 L
4560 2793 mt 4560 2793 L
 655 2384 mt 4560 2384 L
4560 2384 mt 4560 2384 L
 655 1975 mt 4560 1975 L
4560 1975 mt 4560 1975 L
 655 1566 mt 4560 1566 L
4560 1566 mt 4560 1566 L
 655 1157 mt 4560 1157 L
4560 1157 mt 4560 1157 L
 655  748 mt 4560  748 L
4560  748 mt 4560  748 L
 655  338 mt 4560  338 L
4560  338 mt 4560  338 L
SO
6 w
 655 4021 mt 4560 4021 L
 655 4021 mt  655  338 L
 655 4021 mt  655 3981 L
%%IncludeResource: font Times-Roman
/Times-Roman /WindowsLatin1Encoding 168 FMSR

 613 4205 mt 
(0) s
1631 4021 mt 1631 3981 L
1589 4205 mt 
(5) s
2607 4021 mt 2607 3981 L
2523 4205 mt 
(10) s
3583 4021 mt 3583 3981 L
3499 4205 mt 
(15) s
4560 4021 mt 4560 3981 L
4476 4205 mt 
(20) s
 655 4021 mt  694 4021 L
 536 4081 mt 
(0) s
 655 3611 mt  694 3611 L
 410 3671 mt 
(0.1) s
 655 3202 mt  694 3202 L
 410 3262 mt 
(0.2) s
 655 2793 mt  694 2793 L
 410 2853 mt 
(0.3) s
 655 2384 mt  694 2384 L
 410 2444 mt 
(0.4) s
 655 1975 mt  694 1975 L
 410 2035 mt 
(0.5) s
 655 1566 mt  694 1566 L
 410 1626 mt 
(0.6) s
 655 1157 mt  694 1157 L
 410 1217 mt 
(0.7) s
 655  748 mt  694  748 L
 410  808 mt 
(0.8) s
 655  338 mt  694  338 L
 410  398 mt 
(0.9) s
 218  211 mt 
(SM Success Rates for NCC/2DOF SSM on UCSB Dataset \(2DOF GT\)) s
gs 655 339 3906 3683 rc
36 w
/c8 { 1.000000 0.647059 0.000000 sr} bdef
c8
38 -4 37 -2 38 -12 37 -5 38 0 37 -4 38 0 37 -7 
38 -3 37 -1 38 -1 37 -2 38 -6 37 -2 38 -2 37 -4 
38 -2 37 -2 37 -1 38 -3 37 -1 38 0 37 -1 38 -1 
37 -1 38 -1 37 -2 38 -1 37 -2 38 -4 37 -2 38 -2 
37 0 38 -1 37 -1 38 -1 37 -2 37 -2 38 -4 37 -1 
38 -2 37 -2 38 -2 37 -2 38 -1 37 -2 38 0 37 -4 
38 0 37 -1 38 -1 37 -1 38 -1 37 -2 37 -2 38 -2 
37 -2 38 -2 37 -3 38 -3 37 -2 38 -5 37 -2 38 -5 
37 0 38 -2 37 0 38 -1 37 -1 38 -4 37 -1 38 -3 
37 -5 37 -1 38 -2 37 -1 38 -4 37 -1 38 -2 37 -2 
38 -5 37 -1 38 -2 37 -3 38 -23 37 -21 38 -15 37 -10 
38 -7 37 -18 37 -37 38 -98 37 -134 38 -197 37 -162 38 -66 
37 -76 38 -59 37 -83 850 2981 100 MP stroke
/c9 { 0.000000 1.000000 0.000000 sr} bdef
c9
38 -2 37 -3 38 -2 37 -2 38 -3 37 0 38 -5 37 0 
38 -3 37 -3 38 -2 37 -1 38 -1 37 -1 38 -1 37 -2 
38 -3 37 -1 37 -2 38 -1 37 -12 38 -1 37 -6 38 -4 
37 -3 38 -5 37 -8 38 -1 37 -5 38 -2 37 -3 38 -3 
37 -6 38 -3 37 -1 38 -4 37 -1 37 -5 38 0 37 -1 
38 -2 37 -4 38 -2 37 -2 38 -1 37 -5 38 -1 37 -2 
38 0 37 -3 38 0 37 -2 38 -3 37 -19 37 -22 38 -3 
37 -4 38 -4 37 -1 38 0 37 -3 38 -14 37 -25 38 -4 
37 -10 38 -1 37 -1 38 -8 37 -7 38 -2 37 -6 38 -6 
37 -8 37 -16 38 -4 37 -14 38 -9 37 -15 38 -16 37 -19 
38 -16 37 -10 38 -39 37 -48 38 -46 37 -39 38 -60 37 -58 
38 -53 37 -75 37 -145 38 -158 37 -183 38 -187 37 -200 38 -125 
37 -95 38 -55 37 -51 850 3637 100 MP stroke
/c10 { 0.000000 0.000000 1.000000 sr} bdef
c10
38 -10 37 -17 38 -9 37 -7 38 -11 37 -3 38 -1 37 -22 
38 -5 37 -4 38 -3 37 -3 38 -2 37 -6 38 -4 37 -5 
38 -1 37 -3 37 -2 38 -2 37 -1 38 -1 37 -4 38 -3 
37 -1 38 -3 37 -4 38 0 37 -2 38 -1 37 -1 38 -6 
37 -5 38 -2 37 -3 38 -3 37 -3 37 -6 38 -1 37 -3 
38 -3 37 -1 38 -3 37 -2 38 -3 37 -5 38 -4 37 -5 
38 -5 37 -6 38 -2 37 -6 38 -2 37 -4 37 -2 38 -5 
37 -9 38 -9 37 -6 38 0 37 -8 38 -5 37 -8 38 -5 
37 -3 38 -1 37 -3 38 -2 37 -4 38 -2 37 -5 38 -2 
37 -4 37 -2 38 -2 37 -2 38 -3 37 -1 38 -4 37 -3 
38 -5 37 0 38 -4 37 -6 38 -2 37 -2 38 -43 37 -52 
38 -51 37 -67 37 -74 38 -82 37 -55 38 -45 37 -34 38 -31 
37 -27 38 -21 37 -33 850 2918 100 MP stroke
/c11 { 1.000000 0.000000 0.000000 sr} bdef
c11
38 -1 37 -1 38 -2 37 -4 38 0 37 -1 38 -1 37 -3 
38 -1 37 -1 38 -5 37 -3 38 -3 37 -2 38 -3 37 0 
38 -1 37 -4 37 -1 38 -1 37 0 38 -1 37 -3 38 -5 
37 -2 38 -6 37 -2 38 -5 37 -2 38 -3 37 0 38 -4 
37 -6 38 0 37 -1 38 0 37 0 37 -4 38 -2 37 -1 
38 -1 37 0 38 -8 37 -3 38 -1 37 0 38 -1 37 -1 
38 -1 37 0 38 -1 37 -4 38 0 37 0 37 -4 38 -4 
37 -4 38 -4 37 -5 38 -6 37 -5 38 0 37 -4 38 -4 
37 0 38 -7 37 -8 38 -1 37 -2 38 -2 37 -11 38 -3 
37 -8 37 -5 38 -5 37 -5 38 -1 37 -2 38 -4 37 -1 
38 -3 37 -2 38 -11 37 -30 38 -49 37 -39 38 -116 37 -130 
38 -115 37 -115 37 -109 38 -105 37 -77 38 -67 37 -48 38 -45 
37 -44 38 -48 37 -41 850 2901 100 MP stroke
/c12 { 1.000000 0.000000 1.000000 sr} bdef
c12
38 -1 37 -2 38 -6 37 -8 38 -6 37 -3 38 -10 37 -7 
38 -6 37 -14 38 -6 37 -5 38 -15 37 -4 38 -2 37 -3 
38 -3 37 -1 37 -2 38 -1 37 -2 38 -1 37 0 38 -6 
37 -6 38 -2 37 -1 38 -5 37 -3 38 0 37 -1 38 0 
37 -1 38 -5 37 -4 38 -3 37 -2 37 -3 38 0 37 0 
38 -3 37 -3 38 -2 37 -1 38 -1 37 -2 38 -3 37 -1 
38 -2 37 -1 38 -1 37 -1 38 -3 37 -1 37 -2 38 -1 
37 -2 38 -2 37 -1 38 -1 37 -3 38 -3 37 -2 38 -4 
37 -9 38 -1 37 -4 38 -5 37 -5 38 -5 37 -16 38 -8 
37 -6 37 -14 38 -8 37 -8 38 -17 37 -15 38 -16 37 -16 
38 -25 37 -21 38 -10 37 -28 38 -30 37 -38 38 -41 37 -49 
38 -47 37 -66 37 -66 38 -187 37 -143 38 -231 37 -221 38 -109 
37 -127 38 -98 37 -159 850 3151 100 MP stroke
/c13 { 0.627451 0.125490 0.941176 sr} bdef
c13
38 -6 37 -1 38 -1 37 -4 38 -11 37 -12 38 -11 37 -4 
38 -9 37 -6 38 -8 37 -17 38 -10 37 -7 38 -11 37 -5 
38 -8 37 0 37 0 38 -11 37 -6 38 -6 37 -8 38 0 
37 -3 38 -3 37 0 38 -3 37 -7 38 -1 37 -4 38 -3 
37 -3 38 -4 37 -4 38 -1 37 -6 37 -6 38 0 37 -5 
38 -3 37 -2 38 -2 37 -2 38 0 37 -3 38 -2 37 -4 
38 -4 37 -1 38 -3 37 0 38 -2 37 -4 37 -4 38 -3 
37 -5 38 -5 37 -2 38 -1 37 -14 38 -2 37 -9 38 -8 
37 -14 38 -22 37 -14 38 -9 37 -6 38 -16 37 -10 38 -12 
37 -14 37 -21 38 -14 37 -21 38 -27 37 -25 38 -15 37 -19 
38 -35 37 -28 38 -13 37 -24 38 -40 37 -44 38 -117 37 -126 
38 -128 37 -121 37 -124 38 -112 37 -89 38 -69 37 -56 38 -55 
37 -37 38 -54 37 -53 850 2887 100 MP stroke
/c14 { 0.000000 0.392157 0.000000 sr} bdef
c14
38 -3 37 -2 38 -5 37 -5 38 -3 37 -6 38 -2 37 -1 
38 -1 37 -2 38 -2 37 -2 38 -3 37 -2 38 -5 37 0 
38 -6 37 0 37 -1 38 -1 37 -4 38 -1 37 -3 38 -6 
37 -4 38 -3 37 -7 38 -2 37 0 38 -4 37 -4 38 -3 
37 -3 38 -1 37 -2 38 -4 37 -1 37 -4 38 -4 37 -5 
38 -3 37 -4 38 -2 37 -3 38 -4 37 -9 38 -1 37 -1 
38 0 37 -1 38 -5 37 -7 38 -1 37 -12 37 -24 38 -7 
37 -7 38 -2 37 -2 38 -1 37 -2 38 -3 37 -3 38 -3 
37 -24 38 -13 37 -8 38 -8 37 -8 38 -7 37 -3 38 -4 
37 -5 37 -5 38 -16 37 -9 38 -17 37 -13 38 -17 37 -14 
38 -18 37 -14 38 -31 37 -44 38 -43 37 -51 38 -32 37 -50 
38 -73 37 -69 37 -115 38 -182 37 -209 38 -182 37 -192 38 -136 
37 -92 38 -50 37 -63 850 3637 100 MP stroke
DA
/c15 { 0.956863 0.643137 0.376471 sr} bdef
c15
38 0 37 0 38 0 37 -1 38 0 37 0 38 -1 37 0 
38 -2 37 -1 38 -3 37 0 38 -4 37 0 38 -2 37 0 
38 -4 37 -2 37 -1 38 -1 37 -2 38 0 37 -1 38 -3 
37 -3 38 -1 37 -3 38 -4 37 -3 38 -5 37 -4 38 -4 
37 -4 38 -3 37 -5 38 -5 37 -5 37 -7 38 -10 37 -10 
38 -8 37 -11 38 -8 37 -11 38 -19 37 -12 38 -15 37 -12 
38 -13 37 -17 38 -9 37 -15 38 -13 37 -19 37 -11 38 -32 
37 -20 38 -12 37 -15 38 -15 37 -21 38 -18 37 -26 38 -21 
37 -22 38 -38 37 -21 38 -28 37 -32 38 -56 37 -35 38 -48 
37 -57 37 -57 38 -56 37 -94 38 -71 37 -110 38 -54 37 -65 
38 -129 37 -109 38 -115 37 -82 38 -67 37 -68 38 -61 37 -63 
38 -71 37 -77 37 -84 38 -79 37 -99 38 -84 37 -56 38 -49 
37 -32 38 -29 37 -36 850 3948 100 MP stroke
/c16 { 0.419608 0.556863 0.137255 sr} bdef
c16
38 -5 37 -2 38 -5 37 -3 38 -2 37 -5 38 -1 37 -7 
38 -3 37 -8 38 -3 37 -5 38 -3 37 -3 38 -3 37 -3 
38 -4 37 -1 37 -5 38 -2 37 -4 38 -2 37 -4 38 -7 
37 -1 38 -5 37 -1 38 -7 37 -3 38 -1 37 -6 38 -1 
37 -7 38 -1 37 -7 38 -9 37 -7 37 -7 38 -4 37 -11 
38 -5 37 -6 38 -13 37 -2 38 -5 37 -15 38 -8 37 -10 
38 -12 37 -14 38 -11 37 -10 38 -10 37 -19 37 -8 38 -6 
37 -31 38 -31 37 -17 38 -26 37 -16 38 -20 37 -17 38 -19 
37 -38 38 -32 37 -31 38 -29 37 -17 38 -29 37 -31 38 -42 
37 -39 37 -37 38 -170 37 -76 38 -53 37 -30 38 -46 37 -40 
38 -41 37 -44 38 -38 37 -46 38 -63 37 -65 38 -59 37 -46 
38 -55 37 -51 37 -74 38 -42 37 -39 38 -56 37 -31 38 -43 
37 -35 38 -30 37 -29 850 3828 100 MP stroke
0 sg
38 -2 37 -1 38 -1 37 -4 38 -6 37 -4 38 -1 37 -3 
38 -2 37 -3 38 -3 37 -2 38 -2 37 -1 38 -7 37 -7 
38 -7 37 -9 37 -5 38 -6 37 -4 38 -11 37 -7 38 -7 
37 -7 38 -6 37 -8 38 -7 37 -9 38 -11 37 -13 38 -11 
37 -16 38 -9 37 -20 38 -13 37 -14 37 -17 38 -21 37 -14 
38 -15 37 -16 38 -20 37 -25 38 -15 37 -19 38 -19 37 -14 
38 -19 37 -33 38 -25 37 -19 38 -26 37 -22 37 -35 38 -21 
37 -30 38 -35 37 -35 38 -44 37 -29 38 -30 37 -36 38 -41 
37 -41 38 -38 37 -54 38 -45 37 -66 38 -46 37 -63 38 -70 
37 -54 37 -68 38 -56 37 -94 38 -62 37 -74 38 -112 37 -113 
38 -92 37 -97 38 -66 37 -111 38 -64 37 -98 38 -104 37 -63 
38 -186 37 -136 37 -91 38 -53 37 -47 38 -49 37 -44 38 -31 
37 -30 38 -25 37 -32 850 3829 100 MP stroke
gr

36 w
DA
2069 4373 mt 
(Error Threshold) s
 319 2622 mt  -90 rotate
(Success Rate) s
90 rotate
%%IncludeResource: font Helvetica
/Helvetica /WindowsLatin1Encoding 120 FMSR

 638 4064 mt 
( ) s
4544  381 mt 
( ) s
SO
6 w
1 sg
0 1542 792 0 0 -1542 3674 3888 4 MP
PP
-792 0 0 1542 792 0 0 -1542 3674 3888 5 MP stroke
4 w
DO
SO
6 w
0 sg
3674 2346 mt 4466 2346 L
3674 3888 mt 4466 3888 L
4466 3888 mt 4466 2346 L
3674 3888 mt 3674 2346 L
3674 3888 mt 4466 3888 L
3674 3888 mt 3674 2346 L
3674 2346 mt 4466 2346 L
3674 3888 mt 4466 3888 L
4466 3888 mt 4466 2346 L
3674 3888 mt 3674 2346 L
%%IncludeResource: font Times-Roman
/Times-Roman /WindowsLatin1Encoding 96 FMSR

4143 2475 mt 
(FCLK) s
gs 3674 2346 793 1543 rc
36 w
c8
360 0 3746 2442 2 MP stroke
gr

36 w
c8
0 sg
4143 2625 mt 
(ICLK) s
gs 3674 2346 793 1543 rc
c9
360 0 3746 2592 2 MP stroke
gr

c9
0 sg
4143 2775 mt 
(FALK) s
gs 3674 2346 793 1543 rc
c10
360 0 3746 2742 2 MP stroke
gr

c10
0 sg
4143 2925 mt 
(IALK) s
gs 3674 2346 793 1543 rc
c11
360 0 3746 2892 2 MP stroke
gr

c11
0 sg
4143 3075 mt 
(ESM) s
gs 3674 2346 793 1543 rc
c12
360 0 3746 3042 2 MP stroke
gr

c12
0 sg
4143 3226 mt 
(AESM) s
gs 3674 2346 793 1543 rc
c13
360 0 3746 3192 2 MP stroke
gr

c13
0 sg
4143 3376 mt 
(NNIC) s
gs 3674 2346 793 1543 rc
c14
360 0 3746 3342 2 MP stroke
gr

c14
0 sg
4143 3526 mt 
(TLD) s
gs 3674 2346 793 1543 rc
DA
c15
360 0 3746 3492 2 MP stroke
SO
gr

c15
0 sg
4143 3676 mt 
(KCF) s
gs 3674 2346 793 1543 rc
DA
c16
360 0 3746 3642 2 MP stroke
SO
gr

c16
0 sg
4143 3826 mt 
(DSST) s
gs 3674 2346 793 1543 rc
DA
360 0 3746 3792 2 MP stroke
SO
6 w
gr

6 w

end %%Color Dict

eplot
%%EndObject

epage
end

showpage

%%Trailer
%%EOF
