%!PS-Adobe-3.0 EPSF-3.0
%%Creator: MATLAB, The MathWorks, Inc. Version 8.1.0.604 (R2013a). Operating System: Microsoft Windows 8.
%%Title: E:\UofA\Thesis\ICRA 2016\sm_ncc_8_ucsb.eps
%%CreationDate: 09/15/2015  16:31:11
%%DocumentNeededFonts: Times-Bold
%%+ Helvetica
%%DocumentProcessColors: Cyan Magenta Yellow Black
%%LanguageLevel: 2
%%Pages: 1
%%BoundingBox:    63   192   547   599
%%EndComments

%%BeginProlog
% MathWorks dictionary
/MathWorks 160 dict begin
% definition operators
/bdef {bind def} bind def
/ldef {load def} bind def
/xdef {exch def} bdef
/xstore {exch store} bdef
% operator abbreviations
/c  /clip ldef
/cc /concat ldef
/cp /closepath ldef
/gr /grestore ldef
/gs /gsave ldef
/mt /moveto ldef
/np /newpath ldef
/cm /currentmatrix ldef
/sm /setmatrix ldef
/rm /rmoveto ldef
/rl /rlineto ldef
/s {show newpath} bdef
/sc {setcmykcolor} bdef
/sr /setrgbcolor ldef
/sg /setgray ldef
/w /setlinewidth ldef
/j /setlinejoin ldef
/cap /setlinecap ldef
/rc {rectclip} bdef
/rf {rectfill} bdef
% page state control
/pgsv () def
/bpage {/pgsv save def} bdef
/epage {pgsv restore} bdef
/bplot /gsave ldef
/eplot {stroke grestore} bdef
% orientation switch
/portraitMode 0 def /landscapeMode 1 def /rotateMode 2 def
% coordinate system mappings
/dpi2point 0 def
% font control
/FontSize 0 def
/FMS {/FontSize xstore findfont [FontSize 0 0 FontSize neg 0 0]
  makefont setfont} bdef
/ISOLatin1Encoding where {pop /WindowsLatin1Encoding 256 array bdef
ISOLatin1Encoding WindowsLatin1Encoding copy pop
/.notdef/.notdef/quotesinglbase/florin/quotedblbase/ellipsis/dagger
/daggerdbl/circumflex/perthousand/Scaron/guilsinglleft/OE/.notdef/.notdef
/.notdef/.notdef/quoteleft/quoteright/quotedblleft/quotedblright/bullet
/endash/emdash/tilde/trademark/scaron/guilsinglright/oe/.notdef/.notdef
/Ydieresis WindowsLatin1Encoding 128 32 getinterval astore pop}
{/WindowsLatin1Encoding StandardEncoding bdef} ifelse
/reencode {exch dup where {pop load} {pop StandardEncoding} ifelse
  exch dup 3 1 roll findfont dup length dict begin
  { 1 index /FID ne {def}{pop pop} ifelse } forall
  /Encoding exch def currentdict end definefont pop} bdef
/isroman {findfont /CharStrings get /Agrave known} bdef
/FMSR {3 1 roll 1 index dup isroman {reencode} {pop pop} ifelse
  exch FMS} bdef
/csm {1 dpi2point div -1 dpi2point div scale neg translate
 dup landscapeMode eq {pop -90 rotate}
  {rotateMode eq {90 rotate} if} ifelse} bdef
% line types: solid, dotted, dashed, dotdash
/SO { [] 0 setdash } bdef
/DO { [.5 dpi2point mul 4 dpi2point mul] 0 setdash } bdef
/DA { [6 dpi2point mul] 0 setdash } bdef
/DD { [.5 dpi2point mul 4 dpi2point mul 6 dpi2point mul 4
  dpi2point mul] 0 setdash } bdef
% macros for lines and objects
/L {lineto stroke} bdef
/MP {3 1 roll moveto 1 sub {rlineto} repeat} bdef
/AP {{rlineto} repeat} bdef
/PDlw -1 def
/W {/PDlw currentlinewidth def setlinewidth} def
/PP {closepath eofill} bdef
/DP {closepath stroke} bdef
/MR {4 -2 roll moveto dup  0 exch rlineto exch 0 rlineto
  neg 0 exch rlineto closepath} bdef
/FR {MR stroke} bdef
/PR {MR fill} bdef
/L1i {{currentfile picstr readhexstring pop} image} bdef
/tMatrix matrix def
/MakeOval {newpath tMatrix currentmatrix pop translate scale
0 0 1 0 360 arc tMatrix setmatrix} bdef
/FO {MakeOval stroke} bdef
/PO {MakeOval fill} bdef
/PD {currentlinewidth 2 div 0 360 arc fill
   PDlw -1 eq not {PDlw w /PDlw -1 def} if} def
/FA {newpath tMatrix currentmatrix pop translate scale
  0 0 1 5 -2 roll arc tMatrix setmatrix stroke} bdef
/PA {newpath tMatrix currentmatrix pop	translate 0 0 moveto scale
  0 0 1 5 -2 roll arc closepath tMatrix setmatrix fill} bdef
/FAn {newpath tMatrix currentmatrix pop translate scale
  0 0 1 5 -2 roll arcn tMatrix setmatrix stroke} bdef
/PAn {newpath tMatrix currentmatrix pop translate 0 0 moveto scale
  0 0 1 5 -2 roll arcn closepath tMatrix setmatrix fill} bdef
/vradius 0 def /hradius 0 def /lry 0 def
/lrx 0 def /uly 0 def /ulx 0 def /rad 0 def
/MRR {/vradius xdef /hradius xdef /lry xdef /lrx xdef /uly xdef
  /ulx xdef newpath tMatrix currentmatrix pop ulx hradius add uly
  vradius add translate hradius vradius scale 0 0 1 180 270 arc 
  tMatrix setmatrix lrx hradius sub uly vradius add translate
  hradius vradius scale 0 0 1 270 360 arc tMatrix setmatrix
  lrx hradius sub lry vradius sub translate hradius vradius scale
  0 0 1 0 90 arc tMatrix setmatrix ulx hradius add lry vradius sub
  translate hradius vradius scale 0 0 1 90 180 arc tMatrix setmatrix
  closepath} bdef
/FRR {MRR stroke } bdef
/PRR {MRR fill } bdef
/MlrRR {/lry xdef /lrx xdef /uly xdef /ulx xdef /rad lry uly sub 2 div def
  newpath tMatrix currentmatrix pop ulx rad add uly rad add translate
  rad rad scale 0 0 1 90 270 arc tMatrix setmatrix lrx rad sub lry rad
  sub translate rad rad scale 0 0 1 270 90 arc tMatrix setmatrix
  closepath} bdef
/FlrRR {MlrRR stroke } bdef
/PlrRR {MlrRR fill } bdef
/MtbRR {/lry xdef /lrx xdef /uly xdef /ulx xdef /rad lrx ulx sub 2 div def
  newpath tMatrix currentmatrix pop ulx rad add uly rad add translate
  rad rad scale 0 0 1 180 360 arc tMatrix setmatrix lrx rad sub lry rad
  sub translate rad rad scale 0 0 1 0 180 arc tMatrix setmatrix
  closepath} bdef
/FtbRR {MtbRR stroke } bdef
/PtbRR {MtbRR fill } bdef
/stri 6 array def /dtri 6 array def
/smat 6 array def /dmat 6 array def
/tmat1 6 array def /tmat2 6 array def /dif 3 array def
/asub {/ind2 exch def /ind1 exch def dup dup
  ind1 get exch ind2 get sub exch } bdef
/tri_to_matrix {
  2 0 asub 3 1 asub 4 0 asub 5 1 asub
  dup 0 get exch 1 get 7 -1 roll astore } bdef
/compute_transform {
  dmat dtri tri_to_matrix tmat1 invertmatrix 
  smat stri tri_to_matrix tmat2 concatmatrix } bdef
/ds {stri astore pop} bdef
/dt {dtri astore pop} bdef
/db {2 copy /cols xdef /rows xdef mul dup 3 mul string
  currentfile 
  3 index 0 eq {/ASCIIHexDecode filter}
  {/ASCII85Decode filter 3 index 2 eq {/RunLengthDecode filter} if }
  ifelse exch readstring pop
  dup 0 3 index getinterval /rbmap xdef
  dup 2 index dup getinterval /gbmap xdef
  1 index dup 2 mul exch getinterval /bbmap xdef pop pop}bdef
/it {gs np dtri aload pop moveto lineto lineto cp c
  cols rows 8 compute_transform 
  rbmap gbmap bbmap true 3 colorimage gr}bdef
/il {newpath moveto lineto stroke}bdef
currentdict end def
%%EndProlog

%%BeginSetup
MathWorks begin

0 cap

end
%%EndSetup

%%Page: 1 1
%%BeginPageSetup
%%PageBoundingBox:    63   192   547   599
MathWorks begin
bpage
%%EndPageSetup

%%BeginObject: obj1
bplot

/dpi2point 12 def
portraitMode 0756 7188 csm

    0     0  5813  4878 rc
90 dict begin %Colortable dictionary
/c0 { 0.000000 0.000000 0.000000 sr} bdef
/c1 { 1.000000 1.000000 1.000000 sr} bdef
/c2 { 0.900000 0.000000 0.000000 sr} bdef
/c3 { 0.000000 0.820000 0.000000 sr} bdef
/c4 { 0.000000 0.000000 0.800000 sr} bdef
/c5 { 0.910000 0.820000 0.320000 sr} bdef
/c6 { 1.000000 0.260000 0.820000 sr} bdef
/c7 { 0.000000 0.820000 0.820000 sr} bdef
c0
1 j
1 sg
   0    0 5814 4879 rf
6 w
0 4098 5147 0 0 -4098 531 4464 4 MP
PP
-5147 0 0 4098 5147 0 0 -4098 531 4464 5 MP stroke
4 w
DO
0 sg
 531 4464 mt  531  366 L
 531  366 mt  531  366 L
1045 4464 mt 1045  366 L
1045  366 mt 1045  366 L
1560 4464 mt 1560  366 L
1560  366 mt 1560  366 L
2075 4464 mt 2075  366 L
2075  366 mt 2075  366 L
2589 4464 mt 2589  366 L
2589  366 mt 2589  366 L
3104 4464 mt 3104  366 L
3104  366 mt 3104  366 L
3619 4464 mt 3619  366 L
3619  366 mt 3619  366 L
4133 4464 mt 4133  366 L
4133  366 mt 4133  366 L
4648 4464 mt 4648  366 L
4648  366 mt 4648  366 L
5163 4464 mt 5163  366 L
5163  366 mt 5163  366 L
5678 4464 mt 5678  366 L
5678  366 mt 5678  366 L
 531 4464 mt 5678 4464 L
5678 4464 mt 5678 4464 L
 531 3951 mt 5678 3951 L
5678 3951 mt 5678 3951 L
 531 3439 mt 5678 3439 L
5678 3439 mt 5678 3439 L
 531 2927 mt 5678 2927 L
5678 2927 mt 5678 2927 L
 531 2414 mt 5678 2414 L
5678 2414 mt 5678 2414 L
 531 1902 mt 5678 1902 L
5678 1902 mt 5678 1902 L
 531 1390 mt 5678 1390 L
5678 1390 mt 5678 1390 L
 531  878 mt 5678  878 L
5678  878 mt 5678  878 L
 531  366 mt 5678  366 L
5678  366 mt 5678  366 L
SO
6 w
 531 4464 mt 5678 4464 L
 531 4464 mt  531  366 L
 531 4464 mt  531 4412 L
%%IncludeResource: font Times-Bold
/Times-Bold /WindowsLatin1Encoding 168 FMSR

 489 4655 mt 
(0) s
1045 4464 mt 1045 4412 L
1003 4655 mt 
(2) s
1560 4464 mt 1560 4412 L
1518 4655 mt 
(4) s
2075 4464 mt 2075 4412 L
2033 4655 mt 
(6) s
2589 4464 mt 2589 4412 L
2547 4655 mt 
(8) s
3104 4464 mt 3104 4412 L
3020 4655 mt 
(10) s
3619 4464 mt 3619 4412 L
3535 4655 mt 
(12) s
4133 4464 mt 4133 4412 L
4049 4655 mt 
(14) s
4648 4464 mt 4648 4412 L
4564 4655 mt 
(16) s
5163 4464 mt 5163 4412 L
5079 4655 mt 
(18) s
5678 4464 mt 5678 4412 L
5594 4655 mt 
(20) s
 531 4464 mt  582 4464 L
 286 4526 mt 
(0.2) s
 531 3951 mt  582 3951 L
 286 4013 mt 
(0.3) s
 531 3439 mt  582 3439 L
 286 3501 mt 
(0.4) s
 531 2927 mt  582 2927 L
 286 2989 mt 
(0.5) s
 531 2414 mt  582 2414 L
 286 2476 mt 
(0.6) s
 531 1902 mt  582 1902 L
 286 1964 mt 
(0.7) s
 531 1390 mt  582 1390 L
 286 1452 mt 
(0.8) s
 531  878 mt  582  878 L
 286  940 mt 
(0.9) s
 531  366 mt  582  366 L
 412  428 mt 
(1) s
1247  234 mt 
(SM Success Rates for NCC/8DOF on UCSB Dataset) s
gs 531 365 5148 4100 rc
36 w
/c8 { 1.000000 0.647059 0.000000 sr} bdef
c8
50 0 49 -5 50 0 49 0 49 -1 50 -2 49 0 50 0 
49 -3 49 -8 50 -7 49 -3 50 -8 49 0 49 -8 50 0 
49 -2 50 -4 49 0 49 -8 50 -2 49 0 49 0 50 -1 
49 -8 50 -1 49 -1 49 0 50 -2 49 -5 50 0 49 0 
49 0 50 -2 49 -3 50 -4 49 0 49 -1 50 -3 49 -1 
50 -1 49 -3 49 0 50 -10 49 0 49 -4 50 -4 49 -9 
50 -8 49 -12 49 -10 50 -12 49 -8 50 -19 49 -10 49 -6 
50 -8 49 -5 50 -8 49 -5 49 -10 50 -9 49 -5 49 -4 
50 -9 49 -6 50 -5 49 -6 49 -5 50 -9 49 -4 50 -5 
49 -4 49 -6 50 -7 49 -7 50 -5 49 -5 49 -8 50 -10 
49 -4 50 -9 49 -10 49 -13 50 -12 49 -12 49 -18 50 -18 
49 -20 50 -15 49 -19 49 -14 50 -88 49 -217 50 -126 49 -96 
49 -66 50 -58 49 -68 788 4092 100 MP stroke
/c9 { 0.000000 1.000000 0.000000 sr} bdef
c9
50 -1 49 0 50 0 49 0 49 0 50 -1 49 0 50 0 
49 -2 49 -7 50 -2 49 -1 50 -6 49 -3 49 -7 50 -5 
49 -3 50 -4 49 -6 49 -6 50 -5 49 -1 49 0 50 -1 
49 -4 50 -6 49 -3 49 0 50 -5 49 -6 50 -3 49 0 
49 0 50 -4 49 -9 50 -5 49 0 49 -2 50 -1 49 -1 
50 -1 49 -4 49 0 50 -4 49 -5 49 -4 50 -2 49 -11 
50 -8 49 -5 49 -3 50 -6 49 -4 50 -12 49 -6 49 -6 
50 -6 49 -6 50 -11 49 -3 49 -7 50 -10 49 -8 49 -3 
50 -9 49 -8 50 -7 49 -3 49 -5 50 -7 49 -6 50 -4 
49 -4 49 -7 50 -8 49 -10 50 -7 49 -3 49 -8 50 -6 
49 -7 50 -6 49 -5 49 -9 50 -19 49 -7 49 -10 50 -14 
49 -23 50 -15 49 -22 49 -40 50 -136 49 -229 50 -147 49 -99 
49 -81 50 -62 49 -70 788 4095 100 MP stroke
/c10 { 0.000000 0.000000 1.000000 sr} bdef
c10
50 0 49 -4 50 -2 49 0 49 -1 50 -2 49 -1 50 0 
49 -2 49 -9 50 -3 49 0 50 -6 49 -4 49 -10 50 0 
49 -3 50 -5 49 0 49 -4 50 -1 49 0 49 -4 50 -1 
49 -4 50 -1 49 -1 49 -1 50 -1 49 -6 50 0 49 -4 
49 0 50 -2 49 -3 50 -1 49 0 49 -1 50 -1 49 -1 
50 -1 49 -4 49 0 50 -10 49 0 49 -6 50 -5 49 -8 
50 -9 49 -12 49 -9 50 -14 49 -7 50 -19 49 -12 49 -4 
50 -9 49 -4 50 -8 49 -5 49 -10 50 -9 49 -4 49 -4 
50 -10 49 -5 50 -5 49 -6 49 -6 50 -8 49 -4 50 -5 
49 -4 49 -6 50 -7 49 -8 50 -10 49 -5 49 -8 50 -10 
49 -4 50 -10 49 -10 49 -11 50 -13 49 -12 49 -21 50 -17 
49 -30 50 -40 49 -35 49 -23 50 -82 49 -190 50 -108 49 -80 
49 -68 50 -54 49 -58 788 4092 100 MP stroke
/c11 { 1.000000 0.000000 0.000000 sr} bdef
c11
50 -2 49 -1 50 0 49 -2 49 -6 50 -2 49 0 50 0 
49 -4 49 -8 50 -9 49 0 50 -3 49 -9 49 -3 50 -3 
49 -2 50 -5 49 -1 49 -3 50 -5 49 -1 49 -7 50 -6 
49 -5 50 -5 49 -4 49 -10 50 -5 49 -12 50 -13 49 -9 
49 -1 50 -2 49 -6 50 -2 49 0 49 -1 50 -5 49 -1 
50 -2 49 -10 49 0 50 -5 49 -6 49 -4 50 -5 49 -9 
50 -10 49 -13 49 -7 50 -5 49 -11 50 -11 49 -4 49 -5 
50 -5 49 -7 50 -7 49 -2 49 -4 50 -11 49 -4 49 -3 
50 -9 49 -5 50 -5 49 -3 49 -7 50 -5 49 -5 50 -4 
49 -3 49 -8 50 -12 49 -12 50 -12 49 -15 49 -14 50 -15 
49 -5 50 -5 49 -3 49 -9 50 -11 49 -7 49 -20 50 -26 
49 -54 50 -32 49 -32 49 -37 50 -111 49 -198 50 -82 49 -54 
49 -42 50 -46 49 -55 788 4121 100 MP stroke
/c12 { 1.000000 0.000000 1.000000 sr} bdef
c12
50 0 49 -2 50 0 49 -3 49 0 50 -6 49 0 50 -3 
49 -4 49 -2 50 -11 49 -7 50 -7 49 -7 49 -6 50 -4 
49 -13 50 -3 49 -4 49 -10 50 -2 49 0 49 0 50 -1 
49 -4 50 -5 49 0 49 0 50 -1 49 -5 50 -2 49 0 
49 0 50 -2 49 -4 50 -1 49 -2 49 -8 50 -4 49 -4 
50 -6 49 -8 49 0 50 -7 49 -9 49 -5 50 -5 49 -20 
50 -12 49 -11 49 -20 50 -15 49 -18 50 -12 49 -6 49 -7 
50 -7 49 -5 50 -8 49 -7 49 -6 50 -8 49 -5 49 -3 
50 -20 49 -12 50 -5 49 -5 49 -5 50 -7 49 -9 50 -4 
49 -5 49 -18 50 -15 49 -7 50 -11 49 -3 49 -6 50 -17 
49 -13 50 -12 49 -10 49 -14 50 -16 49 -16 49 -21 50 -21 
49 -38 50 -49 49 -26 49 -24 50 -179 49 -306 50 -170 49 -125 
49 -101 50 -81 49 -85 788 4037 100 MP stroke
/c13 { 0.627451 0.125490 0.941176 sr} bdef
c13
50 -2 49 0 50 -3 49 0 49 0 50 -6 49 -2 50 -7 
49 -13 49 -13 50 -15 49 -11 50 -12 49 -30 49 -15 50 -2 
49 -4 50 -6 49 -5 49 -3 50 -5 49 -3 49 0 50 0 
49 -5 50 -1 49 -1 49 -3 50 0 49 -7 50 0 49 -1 
49 0 50 -2 49 -8 50 -1 49 -1 49 -1 50 -4 49 -2 
50 -2 49 -3 49 -7 50 -8 49 -2 49 -4 50 -2 49 -15 
50 -12 49 -5 49 -8 50 -19 49 -14 50 -16 49 -8 49 -8 
50 -17 49 -7 50 -27 49 -11 49 -24 50 -11 49 -11 49 -19 
50 -12 49 -14 50 -17 49 -10 49 -13 50 -11 49 -10 50 -33 
49 -12 49 -20 50 -21 49 -22 50 -14 49 -11 49 -30 50 -29 
49 -41 50 -36 49 -22 49 -37 50 -29 49 -49 49 -54 50 -50 
49 -28 50 -48 49 -53 49 -59 50 -43 49 -71 50 -136 49 -106 
49 -72 50 -100 49 -65 788 4147 100 MP stroke
/c14 { 0.000000 0.392157 0.000000 sr} bdef
c14
50 -4 49 0 50 0 49 0 49 0 50 -1 49 0 50 -4 
49 -2 49 -2 50 -5 49 -6 50 -4 49 0 49 -4 50 -7 
49 -1 50 -1 49 -1 49 -7 50 -3 49 -4 49 -2 50 -1 
49 -4 50 -1 49 0 49 -1 50 -4 49 -6 50 -4 49 -6 
49 -6 50 -7 49 -9 50 -4 49 0 49 -5 50 -1 49 -5 
50 -1 49 -7 49 -8 50 -2 49 -1 49 -10 50 -6 49 -13 
50 -15 49 -27 49 -17 50 -11 49 -14 50 -11 49 -9 49 -9 
50 -10 49 -6 50 -16 49 -20 49 -15 50 -11 49 -5 49 -5 
50 -11 49 -20 50 -9 49 -6 49 -12 50 -10 49 -17 50 -7 
49 -17 49 -23 50 -17 49 -18 50 -12 49 -16 49 -36 50 -22 
49 -25 50 -34 49 -27 49 -37 50 -26 49 -51 49 -73 50 -61 
49 -64 50 -76 49 -58 49 -87 50 -288 49 -440 50 -228 49 -176 
49 -126 50 -109 49 -110 788 4080 100 MP stroke
gr

36 w
c14
0 sg
2509 4826 mt 
(Error Threshold) s
 195 2876 mt  -90 rotate
(Success Rate) s
90 rotate
%%IncludeResource: font Helvetica
/Helvetica /WindowsLatin1Encoding 120 FMSR

 514 4507 mt 
( ) s
5662  407 mt 
( ) s
6 w
1 sg
0 1281 864 0 0 -1281 4619 4365 4 MP
PP
-864 0 0 1281 864 0 0 -1281 4619 4365 5 MP stroke
4 w
DO
SO
6 w
0 sg
4619 3084 mt 5483 3084 L
4619 4365 mt 5483 4365 L
5483 4365 mt 5483 3084 L
4619 4365 mt 4619 3084 L
4619 4365 mt 5483 4365 L
4619 4365 mt 4619 3084 L
4619 3084 mt 5483 3084 L
4619 4365 mt 5483 4365 L
5483 4365 mt 5483 3084 L
4619 4365 mt 4619 3084 L
%%IncludeResource: font Times-Bold
/Times-Bold /WindowsLatin1Encoding 120 FMSR

5088 3237 mt 
(FCLK) s
gs 4619 3084 865 1282 rc
36 w
c8
360 0 4691 3193 2 MP stroke
gr

36 w
c8
0 sg
5088 3414 mt 
(ICLK) s
gs 4619 3084 865 1282 rc
c9
360 0 4691 3370 2 MP stroke
gr

c9
0 sg
5088 3591 mt 
(FALK) s
gs 4619 3084 865 1282 rc
c10
360 0 4691 3547 2 MP stroke
gr

c10
0 sg
5088 3768 mt 
(IALK) s
gs 4619 3084 865 1282 rc
c11
360 0 4691 3724 2 MP stroke
gr

c11
0 sg
5088 3945 mt 
(ESM) s
gs 4619 3084 865 1282 rc
c12
360 0 4691 3901 2 MP stroke
gr

c12
0 sg
5088 4122 mt 
(AESM) s
gs 4619 3084 865 1282 rc
c13
360 0 4691 4078 2 MP stroke
gr

c13
0 sg
5088 4299 mt 
(NNIC) s
gs 4619 3084 865 1282 rc
c14
360 0 4691 4255 2 MP stroke
6 w
gr

6 w
c14

end %%Color Dict

eplot
%%EndObject

epage
end

showpage

%%Trailer
%%EOF
