%!PS-Adobe-3.0 EPSF-3.0
%%Creator: MATLAB, The MathWorks, Inc. Version 8.1.0.604 (R2013a). Operating System: Microsoft Windows 8.
%%Title: E:\UofA\Thesis\ICRA 2016\sm_rscv_2_ucsb_gt2.eps
%%CreationDate: 09/15/2015  16:14:57
%%DocumentNeededFonts: Times-Bold
%%+ Helvetica
%%DocumentProcessColors: Cyan Magenta Yellow Black
%%LanguageLevel: 2
%%Pages: 1
%%BoundingBox:    53   180   556   611
%%EndComments

%%BeginProlog
% MathWorks dictionary
/MathWorks 160 dict begin
% definition operators
/bdef {bind def} bind def
/ldef {load def} bind def
/xdef {exch def} bdef
/xstore {exch store} bdef
% operator abbreviations
/c  /clip ldef
/cc /concat ldef
/cp /closepath ldef
/gr /grestore ldef
/gs /gsave ldef
/mt /moveto ldef
/np /newpath ldef
/cm /currentmatrix ldef
/sm /setmatrix ldef
/rm /rmoveto ldef
/rl /rlineto ldef
/s {show newpath} bdef
/sc {setcmykcolor} bdef
/sr /setrgbcolor ldef
/sg /setgray ldef
/w /setlinewidth ldef
/j /setlinejoin ldef
/cap /setlinecap ldef
/rc {rectclip} bdef
/rf {rectfill} bdef
% page state control
/pgsv () def
/bpage {/pgsv save def} bdef
/epage {pgsv restore} bdef
/bplot /gsave ldef
/eplot {stroke grestore} bdef
% orientation switch
/portraitMode 0 def /landscapeMode 1 def /rotateMode 2 def
% coordinate system mappings
/dpi2point 0 def
% font control
/FontSize 0 def
/FMS {/FontSize xstore findfont [FontSize 0 0 FontSize neg 0 0]
  makefont setfont} bdef
/ISOLatin1Encoding where {pop /WindowsLatin1Encoding 256 array bdef
ISOLatin1Encoding WindowsLatin1Encoding copy pop
/.notdef/.notdef/quotesinglbase/florin/quotedblbase/ellipsis/dagger
/daggerdbl/circumflex/perthousand/Scaron/guilsinglleft/OE/.notdef/.notdef
/.notdef/.notdef/quoteleft/quoteright/quotedblleft/quotedblright/bullet
/endash/emdash/tilde/trademark/scaron/guilsinglright/oe/.notdef/.notdef
/Ydieresis WindowsLatin1Encoding 128 32 getinterval astore pop}
{/WindowsLatin1Encoding StandardEncoding bdef} ifelse
/reencode {exch dup where {pop load} {pop StandardEncoding} ifelse
  exch dup 3 1 roll findfont dup length dict begin
  { 1 index /FID ne {def}{pop pop} ifelse } forall
  /Encoding exch def currentdict end definefont pop} bdef
/isroman {findfont /CharStrings get /Agrave known} bdef
/FMSR {3 1 roll 1 index dup isroman {reencode} {pop pop} ifelse
  exch FMS} bdef
/csm {1 dpi2point div -1 dpi2point div scale neg translate
 dup landscapeMode eq {pop -90 rotate}
  {rotateMode eq {90 rotate} if} ifelse} bdef
% line types: solid, dotted, dashed, dotdash
/SO { [] 0 setdash } bdef
/DO { [.5 dpi2point mul 4 dpi2point mul] 0 setdash } bdef
/DA { [6 dpi2point mul] 0 setdash } bdef
/DD { [.5 dpi2point mul 4 dpi2point mul 6 dpi2point mul 4
  dpi2point mul] 0 setdash } bdef
% macros for lines and objects
/L {lineto stroke} bdef
/MP {3 1 roll moveto 1 sub {rlineto} repeat} bdef
/AP {{rlineto} repeat} bdef
/PDlw -1 def
/W {/PDlw currentlinewidth def setlinewidth} def
/PP {closepath eofill} bdef
/DP {closepath stroke} bdef
/MR {4 -2 roll moveto dup  0 exch rlineto exch 0 rlineto
  neg 0 exch rlineto closepath} bdef
/FR {MR stroke} bdef
/PR {MR fill} bdef
/L1i {{currentfile picstr readhexstring pop} image} bdef
/tMatrix matrix def
/MakeOval {newpath tMatrix currentmatrix pop translate scale
0 0 1 0 360 arc tMatrix setmatrix} bdef
/FO {MakeOval stroke} bdef
/PO {MakeOval fill} bdef
/PD {currentlinewidth 2 div 0 360 arc fill
   PDlw -1 eq not {PDlw w /PDlw -1 def} if} def
/FA {newpath tMatrix currentmatrix pop translate scale
  0 0 1 5 -2 roll arc tMatrix setmatrix stroke} bdef
/PA {newpath tMatrix currentmatrix pop	translate 0 0 moveto scale
  0 0 1 5 -2 roll arc closepath tMatrix setmatrix fill} bdef
/FAn {newpath tMatrix currentmatrix pop translate scale
  0 0 1 5 -2 roll arcn tMatrix setmatrix stroke} bdef
/PAn {newpath tMatrix currentmatrix pop translate 0 0 moveto scale
  0 0 1 5 -2 roll arcn closepath tMatrix setmatrix fill} bdef
/vradius 0 def /hradius 0 def /lry 0 def
/lrx 0 def /uly 0 def /ulx 0 def /rad 0 def
/MRR {/vradius xdef /hradius xdef /lry xdef /lrx xdef /uly xdef
  /ulx xdef newpath tMatrix currentmatrix pop ulx hradius add uly
  vradius add translate hradius vradius scale 0 0 1 180 270 arc 
  tMatrix setmatrix lrx hradius sub uly vradius add translate
  hradius vradius scale 0 0 1 270 360 arc tMatrix setmatrix
  lrx hradius sub lry vradius sub translate hradius vradius scale
  0 0 1 0 90 arc tMatrix setmatrix ulx hradius add lry vradius sub
  translate hradius vradius scale 0 0 1 90 180 arc tMatrix setmatrix
  closepath} bdef
/FRR {MRR stroke } bdef
/PRR {MRR fill } bdef
/MlrRR {/lry xdef /lrx xdef /uly xdef /ulx xdef /rad lry uly sub 2 div def
  newpath tMatrix currentmatrix pop ulx rad add uly rad add translate
  rad rad scale 0 0 1 90 270 arc tMatrix setmatrix lrx rad sub lry rad
  sub translate rad rad scale 0 0 1 270 90 arc tMatrix setmatrix
  closepath} bdef
/FlrRR {MlrRR stroke } bdef
/PlrRR {MlrRR fill } bdef
/MtbRR {/lry xdef /lrx xdef /uly xdef /ulx xdef /rad lrx ulx sub 2 div def
  newpath tMatrix currentmatrix pop ulx rad add uly rad add translate
  rad rad scale 0 0 1 180 360 arc tMatrix setmatrix lrx rad sub lry rad
  sub translate rad rad scale 0 0 1 0 180 arc tMatrix setmatrix
  closepath} bdef
/FtbRR {MtbRR stroke } bdef
/PtbRR {MtbRR fill } bdef
/stri 6 array def /dtri 6 array def
/smat 6 array def /dmat 6 array def
/tmat1 6 array def /tmat2 6 array def /dif 3 array def
/asub {/ind2 exch def /ind1 exch def dup dup
  ind1 get exch ind2 get sub exch } bdef
/tri_to_matrix {
  2 0 asub 3 1 asub 4 0 asub 5 1 asub
  dup 0 get exch 1 get 7 -1 roll astore } bdef
/compute_transform {
  dmat dtri tri_to_matrix tmat1 invertmatrix 
  smat stri tri_to_matrix tmat2 concatmatrix } bdef
/ds {stri astore pop} bdef
/dt {dtri astore pop} bdef
/db {2 copy /cols xdef /rows xdef mul dup 3 mul string
  currentfile 
  3 index 0 eq {/ASCIIHexDecode filter}
  {/ASCII85Decode filter 3 index 2 eq {/RunLengthDecode filter} if }
  ifelse exch readstring pop
  dup 0 3 index getinterval /rbmap xdef
  dup 2 index dup getinterval /gbmap xdef
  1 index dup 2 mul exch getinterval /bbmap xdef pop pop}bdef
/it {gs np dtri aload pop moveto lineto lineto cp c
  cols rows 8 compute_transform 
  rbmap gbmap bbmap true 3 colorimage gr}bdef
/il {newpath moveto lineto stroke}bdef
currentdict end def
%%EndProlog

%%BeginSetup
MathWorks begin

0 cap

end
%%EndSetup

%%Page: 1 1
%%BeginPageSetup
%%PageBoundingBox:    53   180   556   611
MathWorks begin
bpage
%%EndPageSetup

%%BeginObject: obj1
bplot

/dpi2point 12 def
portraitMode 0636 7332 csm

    0     0  6040  5165 rc
93 dict begin %Colortable dictionary
/c0 { 0.000000 0.000000 0.000000 sr} bdef
/c1 { 1.000000 1.000000 1.000000 sr} bdef
/c2 { 0.900000 0.000000 0.000000 sr} bdef
/c3 { 0.000000 0.820000 0.000000 sr} bdef
/c4 { 0.000000 0.000000 0.800000 sr} bdef
/c5 { 0.910000 0.820000 0.320000 sr} bdef
/c6 { 1.000000 0.260000 0.820000 sr} bdef
/c7 { 0.000000 0.820000 0.820000 sr} bdef
c0
1 j
1 sg
   0    0 6041 5166 rf
6 w
0 4211 4681 0 0 -4211 785 4597 4 MP
PP
-4681 0 0 4211 4681 0 0 -4211 785 4597 5 MP stroke
4 w
DO
0 sg
 785 4597 mt  785  387 L
 785  387 mt  785  387 L
1955 4597 mt 1955  387 L
1955  387 mt 1955  387 L
3125 4597 mt 3125  387 L
3125  387 mt 3125  387 L
4295 4597 mt 4295  387 L
4295  387 mt 4295  387 L
5466 4597 mt 5466  387 L
5466  387 mt 5466  387 L
 785 4597 mt 5466 4597 L
5466 4597 mt 5466 4597 L
 785 4129 mt 5466 4129 L
5466 4129 mt 5466 4129 L
 785 3661 mt 5466 3661 L
5466 3661 mt 5466 3661 L
 785 3193 mt 5466 3193 L
5466 3193 mt 5466 3193 L
 785 2725 mt 5466 2725 L
5466 2725 mt 5466 2725 L
 785 2258 mt 5466 2258 L
5466 2258 mt 5466 2258 L
 785 1790 mt 5466 1790 L
5466 1790 mt 5466 1790 L
 785 1322 mt 5466 1322 L
5466 1322 mt 5466 1322 L
 785  854 mt 5466  854 L
5466  854 mt 5466  854 L
 785  387 mt 5466  387 L
5466  387 mt 5466  387 L
SO
6 w
 785 4597 mt 5466 4597 L
 785 4597 mt  785  386 L
 785 4597 mt  785 4550 L
%%IncludeResource: font Times-Bold
/Times-Bold /WindowsLatin1Encoding 168 FMSR

 743 4788 mt 
(0) s
1955 4597 mt 1955 4550 L
1913 4788 mt 
(5) s
3125 4597 mt 3125 4550 L
3041 4788 mt 
(10) s
4295 4597 mt 4295 4550 L
4211 4788 mt 
(15) s
5466 4597 mt 5466 4550 L
5382 4788 mt 
(20) s
 785 4597 mt  831 4597 L
 666 4659 mt 
(0) s
 785 4129 mt  831 4129 L
 540 4191 mt 
(0.1) s
 785 3661 mt  831 3661 L
 540 3723 mt 
(0.2) s
 785 3193 mt  831 3193 L
 540 3255 mt 
(0.3) s
 785 2725 mt  831 2725 L
 540 2787 mt 
(0.4) s
 785 2258 mt  831 2258 L
 540 2320 mt 
(0.5) s
 785 1790 mt  831 1790 L
 540 1852 mt 
(0.6) s
 785 1322 mt  831 1322 L
 540 1384 mt 
(0.7) s
 785  854 mt  831  854 L
 540  916 mt 
(0.8) s
 785  387 mt  831  387 L
 540  449 mt 
(0.9) s
 777  247 mt 
(SM Success Rates for RSCV/2DOF on UCSB Dataset \(2DOF GT\)) s
gs 785 387 4682 4211 rc
36 w
/c8 { 1.000000 0.647059 0.000000 sr} bdef
c8
45 -2 45 -1 45 -8 45 -3 45 -2 45 -5 45 -2 45 -4 
45 -2 45 -1 45 -6 45 -3 44 -7 45 -2 45 -1 45 0 
45 -2 45 -2 45 0 45 -5 45 -3 45 -1 45 -1 45 -1 
44 -4 45 -1 45 -4 45 -3 45 -2 45 0 45 -8 45 -3 
45 -1 45 -4 45 -4 45 -5 44 -2 45 -6 45 -6 45 -6 
45 -1 45 -5 45 -3 45 -6 45 -4 45 -5 45 -7 45 -2 
45 -3 44 -3 45 -4 45 -2 45 -3 45 -5 45 -4 45 0 
45 -6 45 -3 45 -2 45 -6 45 -7 44 -4 45 -4 45 -2 
45 -1 45 -6 45 -4 45 -7 45 -3 45 -4 45 -6 45 -6 
45 -3 44 -4 45 -5 45 -3 45 -3 45 -4 45 -4 45 -6 
45 -5 45 -4 45 -6 45 -5 45 -4 45 -8 44 -4 45 -4 
45 -11 45 -18 45 -22 45 -54 45 -155 45 -208 45 -193 45 -120 
45 -78 45 -60 44 -73 1019 3450 100 MP stroke
/c9 { 0.000000 1.000000 0.000000 sr} bdef
c9
45 -3 45 -1 45 -1 45 -4 45 -6 45 -2 45 -4 45 -2 
45 -7 45 -5 45 -3 45 -5 44 -5 45 -2 45 -5 45 -3 
45 -1 45 -1 45 -2 45 -1 45 0 45 -1 45 -4 45 0 
44 -3 45 0 45 -1 45 -6 45 -2 45 -2 45 -5 45 -10 
45 -5 45 -3 45 -4 45 -3 44 -7 45 -5 45 -2 45 -4 
45 -8 45 -12 45 -6 45 -11 45 -4 45 -1 45 -3 45 -7 
45 -10 44 -5 45 -1 45 -2 45 -5 45 -9 45 -4 45 0 
45 -3 45 -2 45 -5 45 -5 45 -9 44 -8 45 -10 45 -7 
45 -5 45 -11 45 -12 45 -10 45 -8 45 -10 45 -9 45 -9 
45 -24 44 -9 45 -19 45 -16 45 -21 45 -8 45 -22 45 -40 
45 -26 45 -27 45 -42 45 -51 45 -70 45 -50 44 -28 45 -49 
45 -38 45 -54 45 -65 45 -85 45 -95 45 -114 45 -181 45 -176 
45 -150 45 -90 44 -76 1019 4257 100 MP stroke
/c10 { 0.000000 0.000000 1.000000 sr} bdef
c10
45 -6 45 -1 45 -4 45 -3 45 -4 45 -6 45 -3 45 -5 
45 -11 45 -3 45 -5 45 -4 44 -2 45 -2 45 -4 45 -1 
45 -4 45 0 45 -2 45 -3 45 -3 45 -3 45 -4 45 -3 
44 -2 45 -1 45 -2 45 -6 45 -1 45 -3 45 -1 45 -11 
45 -2 45 -4 45 -3 45 -8 44 -3 45 -4 45 -5 45 -1 
45 -14 45 -7 45 -7 45 -9 45 -6 45 -3 45 -5 45 -3 
45 -5 44 -5 45 -7 45 -4 45 -2 45 -2 45 -2 45 0 
45 -5 45 -4 45 -8 45 -3 45 -1 44 -7 45 -5 45 -4 
45 -4 45 -4 45 -8 45 -2 45 -6 45 -5 45 -2 45 -4 
45 -4 44 -5 45 -4 45 -4 45 -4 45 -1 45 -7 45 -6 
45 -8 45 -5 45 -4 45 -1 45 -7 45 -4 44 -16 45 -64 
45 -65 45 -79 45 -136 45 -113 45 -111 45 -74 45 -48 45 -48 
45 -41 45 -35 44 -48 1019 3432 100 MP stroke
/c11 { 1.000000 0.000000 0.000000 sr} bdef
c11
45 -2 45 -5 45 -1 45 -5 45 -5 45 -1 45 0 45 -4 
45 -4 45 -2 45 -1 45 -2 44 0 45 -1 45 -4 45 -4 
45 -2 45 -4 45 -4 45 0 45 -4 45 -1 45 0 45 -8 
44 -4 45 -5 45 -2 45 -4 45 -1 45 -1 45 -4 45 -2 
45 -5 45 -2 45 -1 45 -3 44 -7 45 -3 45 -5 45 -2 
45 -2 45 -5 45 0 45 -8 45 -1 45 -1 45 -1 45 -6 
45 -4 44 -6 45 -1 45 -2 45 -7 45 -5 45 -7 45 -6 
45 -9 45 -2 45 -2 45 -1 45 0 44 -1 45 -2 45 -4 
45 -9 45 -8 45 -3 45 -5 45 -8 45 -4 45 -6 45 -2 
45 -2 44 -4 45 -2 45 -10 45 -4 45 -8 45 -14 45 -12 
45 -13 45 -7 45 -8 45 -14 45 -6 45 -17 44 -70 45 -77 
45 -71 45 -109 45 -109 45 -104 45 -112 45 -74 45 -49 45 -38 
45 -30 45 -34 44 -45 1019 3325 100 MP stroke
/c12 { 1.000000 0.000000 1.000000 sr} bdef
c12
45 0 45 -1 45 -1 45 -7 45 -1 45 -1 45 -3 45 -9 
45 -1 45 -2 45 -6 45 -2 44 0 45 -2 45 -4 45 -10 
45 -2 45 -8 45 -1 45 -3 45 -3 45 0 45 -4 45 -4 
44 0 45 -1 45 -1 45 -6 45 -3 45 -5 45 -6 45 -5 
45 -1 45 -5 45 -1 45 0 44 -2 45 -5 45 -6 45 -3 
45 -7 45 -5 45 -4 45 -5 45 -3 45 -3 45 -1 45 -3 
45 -3 44 -4 45 -3 45 -4 45 -3 45 -9 45 -2 45 -6 
45 -3 45 -6 45 -4 45 -1 45 -4 44 -4 45 -5 45 -4 
45 -5 45 -7 45 -4 45 -6 45 -6 45 -6 45 -4 45 -13 
45 -7 44 -5 45 -6 45 -5 45 -19 45 -5 45 -6 45 -13 
45 -9 45 -7 45 -13 45 -18 45 -49 45 -24 44 -24 45 -30 
45 -27 45 -46 45 -90 45 -123 45 -145 45 -252 45 -308 45 -193 
45 -153 45 -167 44 -186 1019 3527 100 MP stroke
/c13 { 0.627451 0.125490 0.941176 sr} bdef
c13
45 -2 45 -10 45 -5 45 -3 45 -6 45 -3 45 -3 45 -5 
45 -3 45 -1 45 -2 45 -7 44 0 45 -1 45 0 45 0 
45 -5 45 -1 45 -2 45 -6 45 -1 45 -8 45 -1 45 -10 
44 -4 45 -4 45 -2 45 -3 45 -1 45 -5 45 -1 45 0 
45 -1 45 -7 45 -5 45 -2 44 -8 45 -3 45 -6 45 0 
45 -3 45 -2 45 -3 45 -5 45 -4 45 -4 45 0 45 -11 
45 0 44 -7 45 -3 45 -1 45 -5 45 -3 45 -4 45 -4 
45 -5 45 -3 45 -3 45 -6 45 -3 44 -9 45 -9 45 -20 
45 -5 45 -12 45 -6 45 -6 45 -5 45 -5 45 -7 45 -6 
45 -18 44 -14 45 -12 45 -6 45 -11 45 -22 45 -27 45 -20 
45 -23 45 -20 45 -20 45 -22 45 -23 45 -35 44 -94 45 -95 
45 -124 45 -142 45 -145 45 -159 45 -127 45 -100 45 -71 45 -51 
45 -58 45 -54 44 -53 1019 3283 100 MP stroke
/c14 { 0.000000 0.392157 0.000000 sr} bdef
c14
45 -4 45 -5 45 -1 45 -5 45 -1 45 -1 45 -4 45 -2 
45 -6 45 -2 45 -2 45 -2 44 -2 45 -1 45 -5 45 -4 
45 -9 45 -3 45 -6 45 -1 45 -3 45 -4 45 0 45 -2 
44 -5 45 0 45 -7 45 -2 45 0 45 0 45 -3 45 0 
45 -9 45 -4 45 0 45 -2 44 -1 45 -5 45 -7 45 -4 
45 -1 45 -1 45 -6 45 -7 45 0 45 -4 45 -3 45 -4 
45 -4 44 -7 45 -6 45 -1 45 -4 45 -7 45 -1 45 -2 
45 -1 45 -7 45 -2 45 -4 45 -11 44 -3 45 -6 45 -18 
45 -5 45 -10 45 -9 45 -5 45 -5 45 -16 45 -10 45 -3 
45 -12 44 -12 45 -20 45 -17 45 -16 45 -16 45 -10 45 -24 
45 -31 45 -25 45 -38 45 -38 45 -63 45 -51 44 -37 45 -46 
45 -44 45 -42 45 -79 45 -89 45 -79 45 -109 45 -133 45 -144 
45 -163 45 -92 44 -63 1019 4172 100 MP stroke
/c15 { 0.000000 1.000000 1.000000 sr} bdef
c15
45 0 45 -5 45 0 45 -1 45 0 45 -1 45 -1 45 -8 
45 -1 45 -2 45 -4 45 -5 44 -13 45 -2 45 0 45 -4 
45 -1 45 0 45 0 45 -2 45 0 45 0 45 0 45 -5 
44 -2 45 -2 45 -1 45 -5 45 -3 45 -1 45 -4 45 -4 
45 -3 45 -2 45 -3 45 -1 44 0 45 -2 45 -7 45 -1 
45 -1 45 -7 45 0 45 -3 45 -7 45 -2 45 -2 45 -3 
45 -1 44 -5 45 -6 45 -5 45 -8 45 -7 45 -7 45 -6 
45 -3 45 -10 45 -9 45 -12 45 -7 44 -10 45 -6 45 -4 
45 -11 45 -3 45 -15 45 -2 45 -9 45 -7 45 -14 45 -14 
45 -22 44 -10 45 -8 45 -27 45 -23 45 -23 45 -26 45 -34 
45 -44 45 -47 45 -41 45 -67 45 -55 45 -96 44 -84 45 -104 
45 -106 45 -120 45 -112 45 -112 45 -124 45 -121 45 -63 45 -79 
45 -71 45 -67 44 -79 1019 3378 100 MP stroke
DA
/c16 { 0.956863 0.643137 0.376471 sr} bdef
c16
45 0 45 0 45 0 45 -1 45 0 45 -1 45 0 45 -1 
45 -1 45 -2 45 -3 45 0 44 -4 45 -1 45 -2 45 0 
45 -4 45 -3 45 0 45 -3 45 -1 45 -1 45 -1 45 -3 
44 -4 45 -1 45 -3 45 -5 45 -3 45 -5 45 -6 45 -4 
45 -5 45 -3 45 -6 45 -5 44 -6 45 -7 45 -13 45 -10 
45 -9 45 -13 45 -10 45 -12 45 -22 45 -14 45 -17 45 -14 
45 -15 44 -19 45 -10 45 -18 45 -14 45 -22 45 -12 45 -37 
45 -23 45 -14 45 -17 45 -17 45 -24 44 -21 45 -29 45 -24 
45 -26 45 -42 45 -25 45 -32 45 -36 45 -65 45 -40 45 -54 
45 -66 44 -65 45 -64 45 -108 45 -81 45 -125 45 -62 45 -74 
45 -148 45 -124 45 -132 45 -94 45 -76 45 -78 44 -70 45 -72 
45 -81 45 -88 45 -96 45 -91 45 -113 45 -95 45 -65 45 -55 
45 -37 45 -34 44 -41 1019 4514 100 MP stroke
/c17 { 0.419608 0.556863 0.137255 sr} bdef
c17
45 -6 45 -2 45 -6 45 -2 45 -3 45 -6 45 -1 45 -8 
45 -3 45 -10 45 -2 45 -6 44 -4 45 -4 45 -2 45 -4 
45 -5 45 0 45 -7 45 -2 45 -4 45 -2 45 -6 45 -7 
44 -1 45 -6 45 -2 45 -7 45 -4 45 -1 45 -7 45 -1 
45 -8 45 -2 45 -7 45 -10 44 -9 45 -8 45 -5 45 -11 
45 -6 45 -8 45 -14 45 -2 45 -6 45 -18 45 -9 45 -11 
45 -14 44 -15 45 -13 45 -11 45 -12 45 -21 45 -10 45 -7 
45 -35 45 -35 45 -21 45 -29 45 -18 44 -23 45 -19 45 -22 
45 -43 45 -37 45 -35 45 -33 45 -20 45 -33 45 -36 45 -47 
45 -45 44 -43 45 -194 45 -87 45 -61 45 -33 45 -53 45 -46 
45 -47 45 -50 45 -44 45 -53 45 -71 45 -75 44 -67 45 -52 
45 -63 45 -59 45 -84 45 -49 45 -44 45 -64 45 -36 45 -49 
45 -40 45 -34 44 -34 1019 4377 100 MP stroke
0 sg
45 -2 45 -1 45 -1 45 -5 45 -7 45 -5 45 -1 45 -3 
45 -3 45 -3 45 -3 45 -2 44 -3 45 -2 45 -8 45 -7 
45 -8 45 -11 45 -5 45 -8 45 -4 45 -12 45 -8 45 -8 
44 -9 45 -5 45 -10 45 -8 45 -11 45 -12 45 -15 45 -12 
45 -19 45 -10 45 -23 45 -15 44 -16 45 -19 45 -24 45 -16 
45 -17 45 -19 45 -23 45 -28 45 -18 45 -21 45 -22 45 -16 
45 -22 44 -37 45 -29 45 -22 45 -30 45 -25 45 -39 45 -25 
45 -34 45 -39 45 -40 45 -51 45 -33 44 -34 45 -42 45 -47 
45 -47 45 -42 45 -63 45 -52 45 -74 45 -53 45 -72 45 -80 
45 -62 44 -78 45 -64 45 -107 45 -71 45 -85 45 -128 45 -129 
45 -105 45 -111 45 -76 45 -126 45 -74 45 -112 44 -118 45 -73 
45 -213 45 -155 45 -104 45 -61 45 -53 45 -56 45 -50 45 -36 
45 -34 45 -29 44 -37 1019 4378 100 MP stroke
gr

36 w
DA
2530 4959 mt 
(Error Threshold) s
 449 2953 mt  -90 rotate
(Success Rate) s
90 rotate
%%IncludeResource: font Helvetica
/Helvetica /WindowsLatin1Encoding 120 FMSR

 768 4640 mt 
( ) s
5450  429 mt 
( ) s
SO
6 w
1 sg
0 1989 864 0 0 -1989 4465 4559 4 MP
PP
-864 0 0 1989 864 0 0 -1989 4465 4559 5 MP stroke
4 w
DO
SO
6 w
0 sg
4465 2570 mt 5329 2570 L
4465 4559 mt 5329 4559 L
5329 4559 mt 5329 2570 L
4465 4559 mt 4465 2570 L
4465 4559 mt 5329 4559 L
4465 4559 mt 4465 2570 L
4465 2570 mt 5329 2570 L
4465 4559 mt 5329 4559 L
5329 4559 mt 5329 2570 L
4465 4559 mt 4465 2570 L
%%IncludeResource: font Times-Bold
/Times-Bold /WindowsLatin1Encoding 120 FMSR

4934 2723 mt 
(FCLK) s
gs 4465 2570 865 1990 rc
36 w
c8
360 0 4537 2679 2 MP stroke
gr

36 w
c8
0 sg
4934 2900 mt 
(ICLK) s
gs 4465 2570 865 1990 rc
c9
360 0 4537 2856 2 MP stroke
gr

c9
0 sg
4934 3077 mt 
(FALK) s
gs 4465 2570 865 1990 rc
c10
360 0 4537 3033 2 MP stroke
gr

c10
0 sg
4934 3254 mt 
(IALK) s
gs 4465 2570 865 1990 rc
c11
360 0 4537 3210 2 MP stroke
gr

c11
0 sg
4934 3431 mt 
(ESM) s
gs 4465 2570 865 1990 rc
c12
360 0 4537 3387 2 MP stroke
gr

c12
0 sg
4934 3608 mt 
(AESM) s
gs 4465 2570 865 1990 rc
c13
360 0 4537 3564 2 MP stroke
gr

c13
0 sg
4934 3785 mt 
(NNIC) s
gs 4465 2570 865 1990 rc
c14
360 0 4537 3741 2 MP stroke
gr

c14
0 sg
4934 3962 mt 
(PF) s
gs 4465 2570 865 1990 rc
c15
360 0 4537 3918 2 MP stroke
gr

c15
0 sg
4934 4139 mt 
(TLD) s
gs 4465 2570 865 1990 rc
DA
c16
360 0 4537 4095 2 MP stroke
SO
gr

c16
0 sg
4934 4316 mt 
(KCF) s
gs 4465 2570 865 1990 rc
DA
c17
360 0 4537 4272 2 MP stroke
SO
gr

c17
0 sg
4934 4493 mt 
(DSST) s
gs 4465 2570 865 1990 rc
DA
360 0 4537 4449 2 MP stroke
SO
6 w
gr

6 w

end %%Color Dict

eplot
%%EndObject

epage
end

showpage

%%Trailer
%%EOF
