%!PS-Adobe-3.0 EPSF-3.0
%%Creator: MATLAB, The MathWorks, Inc. Version 8.1.0.604 (R2013a). Operating System: Microsoft Windows 8.
%%Title: E:\UofA\Thesis\ICRA 2016\sm_rscv_2_gt2.eps
%%CreationDate: 09/15/2015  19:11:03
%%DocumentNeededFonts: Times-Bold
%%+ Helvetica
%%DocumentProcessColors: Cyan Magenta Yellow Black
%%LanguageLevel: 2
%%Pages: 1
%%BoundingBox:  -167   193   780   598
%%EndComments

%%BeginProlog
% MathWorks dictionary
/MathWorks 160 dict begin
% definition operators
/bdef {bind def} bind def
/ldef {load def} bind def
/xdef {exch def} bdef
/xstore {exch store} bdef
% operator abbreviations
/c  /clip ldef
/cc /concat ldef
/cp /closepath ldef
/gr /grestore ldef
/gs /gsave ldef
/mt /moveto ldef
/np /newpath ldef
/cm /currentmatrix ldef
/sm /setmatrix ldef
/rm /rmoveto ldef
/rl /rlineto ldef
/s {show newpath} bdef
/sc {setcmykcolor} bdef
/sr /setrgbcolor ldef
/sg /setgray ldef
/w /setlinewidth ldef
/j /setlinejoin ldef
/cap /setlinecap ldef
/rc {rectclip} bdef
/rf {rectfill} bdef
% page state control
/pgsv () def
/bpage {/pgsv save def} bdef
/epage {pgsv restore} bdef
/bplot /gsave ldef
/eplot {stroke grestore} bdef
% orientation switch
/portraitMode 0 def /landscapeMode 1 def /rotateMode 2 def
% coordinate system mappings
/dpi2point 0 def
% font control
/FontSize 0 def
/FMS {/FontSize xstore findfont [FontSize 0 0 FontSize neg 0 0]
  makefont setfont} bdef
/ISOLatin1Encoding where {pop /WindowsLatin1Encoding 256 array bdef
ISOLatin1Encoding WindowsLatin1Encoding copy pop
/.notdef/.notdef/quotesinglbase/florin/quotedblbase/ellipsis/dagger
/daggerdbl/circumflex/perthousand/Scaron/guilsinglleft/OE/.notdef/.notdef
/.notdef/.notdef/quoteleft/quoteright/quotedblleft/quotedblright/bullet
/endash/emdash/tilde/trademark/scaron/guilsinglright/oe/.notdef/.notdef
/Ydieresis WindowsLatin1Encoding 128 32 getinterval astore pop}
{/WindowsLatin1Encoding StandardEncoding bdef} ifelse
/reencode {exch dup where {pop load} {pop StandardEncoding} ifelse
  exch dup 3 1 roll findfont dup length dict begin
  { 1 index /FID ne {def}{pop pop} ifelse } forall
  /Encoding exch def currentdict end definefont pop} bdef
/isroman {findfont /CharStrings get /Agrave known} bdef
/FMSR {3 1 roll 1 index dup isroman {reencode} {pop pop} ifelse
  exch FMS} bdef
/csm {1 dpi2point div -1 dpi2point div scale neg translate
 dup landscapeMode eq {pop -90 rotate}
  {rotateMode eq {90 rotate} if} ifelse} bdef
% line types: solid, dotted, dashed, dotdash
/SO { [] 0 setdash } bdef
/DO { [.5 dpi2point mul 4 dpi2point mul] 0 setdash } bdef
/DA { [6 dpi2point mul] 0 setdash } bdef
/DD { [.5 dpi2point mul 4 dpi2point mul 6 dpi2point mul 4
  dpi2point mul] 0 setdash } bdef
% macros for lines and objects
/L {lineto stroke} bdef
/MP {3 1 roll moveto 1 sub {rlineto} repeat} bdef
/AP {{rlineto} repeat} bdef
/PDlw -1 def
/W {/PDlw currentlinewidth def setlinewidth} def
/PP {closepath eofill} bdef
/DP {closepath stroke} bdef
/MR {4 -2 roll moveto dup  0 exch rlineto exch 0 rlineto
  neg 0 exch rlineto closepath} bdef
/FR {MR stroke} bdef
/PR {MR fill} bdef
/L1i {{currentfile picstr readhexstring pop} image} bdef
/tMatrix matrix def
/MakeOval {newpath tMatrix currentmatrix pop translate scale
0 0 1 0 360 arc tMatrix setmatrix} bdef
/FO {MakeOval stroke} bdef
/PO {MakeOval fill} bdef
/PD {currentlinewidth 2 div 0 360 arc fill
   PDlw -1 eq not {PDlw w /PDlw -1 def} if} def
/FA {newpath tMatrix currentmatrix pop translate scale
  0 0 1 5 -2 roll arc tMatrix setmatrix stroke} bdef
/PA {newpath tMatrix currentmatrix pop	translate 0 0 moveto scale
  0 0 1 5 -2 roll arc closepath tMatrix setmatrix fill} bdef
/FAn {newpath tMatrix currentmatrix pop translate scale
  0 0 1 5 -2 roll arcn tMatrix setmatrix stroke} bdef
/PAn {newpath tMatrix currentmatrix pop translate 0 0 moveto scale
  0 0 1 5 -2 roll arcn closepath tMatrix setmatrix fill} bdef
/vradius 0 def /hradius 0 def /lry 0 def
/lrx 0 def /uly 0 def /ulx 0 def /rad 0 def
/MRR {/vradius xdef /hradius xdef /lry xdef /lrx xdef /uly xdef
  /ulx xdef newpath tMatrix currentmatrix pop ulx hradius add uly
  vradius add translate hradius vradius scale 0 0 1 180 270 arc 
  tMatrix setmatrix lrx hradius sub uly vradius add translate
  hradius vradius scale 0 0 1 270 360 arc tMatrix setmatrix
  lrx hradius sub lry vradius sub translate hradius vradius scale
  0 0 1 0 90 arc tMatrix setmatrix ulx hradius add lry vradius sub
  translate hradius vradius scale 0 0 1 90 180 arc tMatrix setmatrix
  closepath} bdef
/FRR {MRR stroke } bdef
/PRR {MRR fill } bdef
/MlrRR {/lry xdef /lrx xdef /uly xdef /ulx xdef /rad lry uly sub 2 div def
  newpath tMatrix currentmatrix pop ulx rad add uly rad add translate
  rad rad scale 0 0 1 90 270 arc tMatrix setmatrix lrx rad sub lry rad
  sub translate rad rad scale 0 0 1 270 90 arc tMatrix setmatrix
  closepath} bdef
/FlrRR {MlrRR stroke } bdef
/PlrRR {MlrRR fill } bdef
/MtbRR {/lry xdef /lrx xdef /uly xdef /ulx xdef /rad lrx ulx sub 2 div def
  newpath tMatrix currentmatrix pop ulx rad add uly rad add translate
  rad rad scale 0 0 1 180 360 arc tMatrix setmatrix lrx rad sub lry rad
  sub translate rad rad scale 0 0 1 0 180 arc tMatrix setmatrix
  closepath} bdef
/FtbRR {MtbRR stroke } bdef
/PtbRR {MtbRR fill } bdef
/stri 6 array def /dtri 6 array def
/smat 6 array def /dmat 6 array def
/tmat1 6 array def /tmat2 6 array def /dif 3 array def
/asub {/ind2 exch def /ind1 exch def dup dup
  ind1 get exch ind2 get sub exch } bdef
/tri_to_matrix {
  2 0 asub 3 1 asub 4 0 asub 5 1 asub
  dup 0 get exch 1 get 7 -1 roll astore } bdef
/compute_transform {
  dmat dtri tri_to_matrix tmat1 invertmatrix 
  smat stri tri_to_matrix tmat2 concatmatrix } bdef
/ds {stri astore pop} bdef
/dt {dtri astore pop} bdef
/db {2 copy /cols xdef /rows xdef mul dup 3 mul string
  currentfile 
  3 index 0 eq {/ASCIIHexDecode filter}
  {/ASCII85Decode filter 3 index 2 eq {/RunLengthDecode filter} if }
  ifelse exch readstring pop
  dup 0 3 index getinterval /rbmap xdef
  dup 2 index dup getinterval /gbmap xdef
  1 index dup 2 mul exch getinterval /bbmap xdef pop pop}bdef
/it {gs np dtri aload pop moveto lineto lineto cp c
  cols rows 8 compute_transform 
  rbmap gbmap bbmap true 3 colorimage gr}bdef
/il {newpath moveto lineto stroke}bdef
currentdict end def
%%EndProlog

%%BeginSetup
MathWorks begin

0 cap

end
%%EndSetup

%%Page: 1 1
%%BeginPageSetup
%%PageBoundingBox:  -167   193   780   598
MathWorks begin
bpage
%%EndPageSetup

%%BeginObject: obj1
bplot

/dpi2point 12 def
portraitMode -2004 7176 csm

    0     0 11365  4860 rc
93 dict begin %Colortable dictionary
/c0 { 0.000000 0.000000 0.000000 sr} bdef
/c1 { 1.000000 1.000000 1.000000 sr} bdef
/c2 { 0.900000 0.000000 0.000000 sr} bdef
/c3 { 0.000000 0.820000 0.000000 sr} bdef
/c4 { 0.000000 0.000000 0.800000 sr} bdef
/c5 { 0.910000 0.820000 0.320000 sr} bdef
/c6 { 1.000000 0.260000 0.820000 sr} bdef
/c7 { 0.000000 0.820000 0.820000 sr} bdef
c0
1 j
1 sg
   0    0 11366 4861 rf
6 w
0 sg
%%IncludeResource: font Times-Bold
/Times-Bold /WindowsLatin1Encoding 168 FMSR

3922  219 mt 
(SM Success Rates for RSCV/2DOF with 2DOF GT) s
1 sg
0 4073 4472 0 0 -4073 6020 4437 4 MP
PP
-4472 0 0 4073 4472 0 0 -4073 6020 4437 5 MP stroke
4 w
DO
0 sg
6020 4437 mt 6020  364 L
6020  364 mt 6020  364 L
7138 4437 mt 7138  364 L
7138  364 mt 7138  364 L
8256 4437 mt 8256  364 L
8256  364 mt 8256  364 L
9374 4437 mt 9374  364 L
9374  364 mt 9374  364 L
10492 4437 mt 10492  364 L
10492  364 mt 10492  364 L
6020 4437 mt 10492 4437 L
10492 4437 mt 10492 4437 L
6020 4029 mt 10492 4029 L
10492 4029 mt 10492 4029 L
6020 3622 mt 10492 3622 L
10492 3622 mt 10492 3622 L
6020 3215 mt 10492 3215 L
10492 3215 mt 10492 3215 L
6020 2807 mt 10492 2807 L
10492 2807 mt 10492 2807 L
6020 2400 mt 10492 2400 L
10492 2400 mt 10492 2400 L
6020 1993 mt 10492 1993 L
10492 1993 mt 10492 1993 L
6020 1585 mt 10492 1585 L
10492 1585 mt 10492 1585 L
6020 1178 mt 10492 1178 L
10492 1178 mt 10492 1178 L
6020  771 mt 10492  771 L
10492  771 mt 10492  771 L
6020  364 mt 10492  364 L
10492  364 mt 10492  364 L
SO
6 w
6020 4437 mt 10492 4437 L
6020 4437 mt 6020  364 L
6020 4437 mt 6020 4392 L
5978 4628 mt 
(0) s
7138 4437 mt 7138 4392 L
7096 4628 mt 
(5) s
8256 4437 mt 8256 4392 L
8172 4628 mt 
(10) s
9374 4437 mt 9374 4392 L
9290 4628 mt 
(15) s
10492 4437 mt 10492 4392 L
10408 4628 mt 
(20) s
6020 4437 mt 6064 4437 L
5901 4499 mt 
(0) s
6020 4029 mt 6064 4029 L
5775 4091 mt 
(0.1) s
6020 3622 mt 6064 3622 L
5775 3684 mt 
(0.2) s
6020 3215 mt 6064 3215 L
5775 3277 mt 
(0.3) s
6020 2807 mt 6064 2807 L
5775 2869 mt 
(0.4) s
6020 2400 mt 6064 2400 L
5775 2462 mt 
(0.5) s
6020 1993 mt 6064 1993 L
5775 2055 mt 
(0.6) s
6020 1585 mt 6064 1585 L
5775 1647 mt 
(0.7) s
6020 1178 mt 6064 1178 L
5775 1240 mt 
(0.8) s
6020  771 mt 6064  771 L
5775  833 mt 
(0.9) s
6020  364 mt 6064  364 L
5901  426 mt 
(1) s
8054  620 mt 
(UCSB) s
gs 6020 364 4473 4074 rc
36 w
/c8 { 1.000000 0.647059 0.000000 sr} bdef
c8
43 -1 43 -1 43 -7 43 -3 43 -1 43 -4 43 -2 43 -3 
43 -2 43 -1 43 -6 42 -2 43 -6 43 -2 43 -1 43 0 
43 -1 43 -2 43 -1 43 -4 43 -3 43 0 43 -1 42 -1 
43 -3 43 -1 43 -4 43 -3 43 -1 43 0 43 -8 43 -1 
43 -1 43 -4 42 -3 43 -5 43 -2 43 -5 43 -5 43 -5 
43 -1 43 -4 43 -3 43 -5 43 -4 43 -4 42 -6 43 -2 
43 -3 43 -2 43 -4 43 -1 43 -3 43 -4 43 -4 43 0 
43 -5 42 -2 43 -2 43 -6 43 -6 43 -3 43 -4 43 -1 
43 -1 43 -5 43 -4 43 -6 43 -3 42 -3 43 -6 43 -5 
43 -2 43 -4 43 -4 43 -3 43 -2 43 -4 43 -3 43 -6 
42 -4 43 -4 43 -5 43 -4 43 -3 43 -7 43 -4 43 -3 
43 -10 43 -15 43 -20 43 -47 42 -135 43 -181 43 -168 43 -104 
43 -69 43 -52 43 -63 6243 3438 100 MP stroke
/c9 { 0.000000 1.000000 0.000000 sr} bdef
c9
43 -3 43 -1 43 -1 43 -3 43 -5 43 -2 43 -4 43 -1 
43 -7 43 -3 43 -3 42 -5 43 -4 43 -2 43 -4 43 -3 
43 -1 43 -1 43 -1 43 -1 43 0 43 -1 43 -3 42 0 
43 -3 43 0 43 -1 43 -5 43 -2 43 -2 43 -4 43 -9 
43 -4 43 -2 42 -4 43 -2 43 -7 43 -4 43 -2 43 -3 
43 -8 43 -9 43 -6 43 -10 43 -3 43 -1 42 -3 43 -5 
43 -9 43 -4 43 -1 43 -2 43 -5 43 -8 43 -3 43 0 
43 -3 42 -1 43 -5 43 -4 43 -8 43 -7 43 -9 43 -6 
43 -4 43 -10 43 -10 43 -8 43 -8 42 -9 43 -7 43 -8 
43 -21 43 -8 43 -17 43 -13 43 -18 43 -8 43 -19 43 -34 
42 -23 43 -24 43 -36 43 -45 43 -61 43 -43 43 -25 43 -42 
43 -34 43 -47 43 -56 43 -74 42 -82 43 -100 43 -157 43 -153 
43 -131 43 -79 43 -66 6243 4141 100 MP stroke
/c10 { 0.000000 0.000000 1.000000 sr} bdef
c10
43 -5 43 -1 43 -3 43 -3 43 -3 43 -6 43 -2 43 -5 
43 -9 43 -3 43 -4 42 -4 43 -1 43 -2 43 -4 43 0 
43 -4 43 0 43 -2 43 -2 43 -3 43 -2 43 -4 42 -3 
43 -2 43 0 43 -2 43 -5 43 -1 43 -2 43 -1 43 -10 
43 -2 43 -3 42 -3 43 -7 43 -2 43 -4 43 -4 43 -1 
43 -12 43 -6 43 -6 43 -8 43 -5 43 -3 42 -5 43 -2 
43 -5 43 -4 43 -6 43 -3 43 -2 43 -2 43 -2 43 0 
43 -4 42 -4 43 -7 43 -2 43 -1 43 -6 43 -4 43 -4 
43 -3 43 -4 43 -7 43 -2 43 -5 42 -4 43 -2 43 -3 
43 -4 43 -4 43 -4 43 -3 43 -4 43 -1 43 -6 43 -5 
42 -7 43 -4 43 -4 43 -1 43 -6 43 -3 43 -14 43 -56 
43 -56 43 -69 43 -119 43 -98 42 -96 43 -65 43 -42 43 -42 
43 -35 43 -30 43 -42 6243 3422 100 MP stroke
/c11 { 1.000000 0.000000 0.000000 sr} bdef
c11
43 -1 43 -5 43 -1 43 -4 43 -4 43 -1 43 0 43 -4 
43 -3 43 -2 43 -1 42 -2 43 0 43 -1 43 -3 43 -4 
43 -1 43 -3 43 -4 43 0 43 -4 43 0 43 0 42 -7 
43 -4 43 -4 43 -2 43 -4 43 -1 43 0 43 -4 43 -2 
43 -4 43 -1 42 -1 43 -3 43 -6 43 -3 43 -4 43 -1 
43 -2 43 -5 43 0 43 -7 43 -1 43 0 42 -1 43 -6 
43 -3 43 -5 43 -1 43 -2 43 -6 43 -5 43 -5 43 -5 
43 -9 42 -1 43 -2 43 -1 43 0 43 -1 43 -1 43 -4 
43 -8 43 -7 43 -2 43 -5 43 -6 42 -5 43 -4 43 -2 
43 -2 43 -3 43 -2 43 -9 43 -3 43 -7 43 -12 43 -11 
42 -12 43 -6 43 -7 43 -12 43 -5 43 -14 43 -62 43 -67 
43 -61 43 -95 43 -95 43 -91 42 -97 43 -65 43 -42 43 -33 
43 -27 43 -29 43 -39 6243 3329 100 MP stroke
/c12 { 1.000000 0.000000 1.000000 sr} bdef
c12
43 0 43 -1 43 -1 43 -6 43 -1 43 -1 43 -2 43 -8 
43 -1 43 -1 43 -6 42 -2 43 0 43 -2 43 -2 43 -10 
43 -1 43 -7 43 -1 43 -3 43 -3 43 0 43 -3 42 -3 
43 0 43 -1 43 -1 43 -5 43 -3 43 -4 43 -5 43 -5 
43 -1 43 -4 42 -1 43 0 43 -2 43 -4 43 -5 43 -3 
43 -6 43 -4 43 -3 43 -5 43 -3 43 -3 42 -1 43 -2 
43 -3 43 -3 43 -2 43 -4 43 -3 43 -7 43 -2 43 -6 
43 -2 42 -5 43 -4 43 -1 43 -3 43 -4 43 -4 43 -3 
43 -5 43 -6 43 -4 43 -4 43 -6 42 -5 43 -3 43 -12 
43 -6 43 -4 43 -6 43 -4 43 -16 43 -5 43 -5 43 -11 
42 -8 43 -6 43 -11 43 -16 43 -43 43 -21 43 -21 43 -26 
43 -23 43 -40 43 -79 43 -107 42 -126 43 -219 43 -269 43 -167 
43 -134 43 -146 43 -161 6243 3505 100 MP stroke
/c13 { 0.627451 0.125490 0.941176 sr} bdef
c13
43 -2 43 -9 43 -4 43 -3 43 -5 43 -2 43 -4 43 -3 
43 -3 43 -1 43 -1 42 -7 43 0 43 0 43 -1 43 0 
43 -4 43 -1 43 -1 43 -6 43 -1 43 -7 43 -1 42 -8 
43 -4 43 -3 43 -2 43 -2 43 -2 43 -3 43 -2 43 0 
43 -1 43 -6 42 -4 43 -2 43 -6 43 -3 43 -6 43 0 
43 -2 43 -2 43 -2 43 -5 43 -3 43 -4 42 0 43 -10 
43 0 43 -5 43 -3 43 -1 43 -4 43 -3 43 -3 43 -4 
43 -4 42 -3 43 -3 43 -5 43 -2 43 -8 43 -8 43 -17 
43 -4 43 -11 43 -6 43 -4 43 -5 42 -5 43 -6 43 -4 
43 -17 43 -11 43 -11 43 -5 43 -10 43 -19 43 -23 43 -18 
42 -20 43 -17 43 -17 43 -20 43 -19 43 -31 43 -82 43 -83 
43 -108 43 -124 43 -125 43 -139 42 -111 43 -87 43 -61 43 -45 
43 -50 43 -48 43 -46 6243 3293 100 MP stroke
/c14 { 0.000000 0.392157 0.000000 sr} bdef
c14
43 -4 43 -4 43 -1 43 -4 43 -1 43 -1 43 -3 43 -2 
43 -5 43 -2 43 -2 42 -2 43 -1 43 -2 43 -4 43 -3 
43 -8 43 -3 43 -5 43 -1 43 -2 43 -4 43 0 42 -2 
43 -4 43 0 43 -6 43 -2 43 0 43 0 43 -2 43 0 
43 -8 43 -4 42 0 43 -1 43 -1 43 -4 43 -7 43 -3 
43 -1 43 -1 43 -5 43 -6 43 0 43 -3 42 -4 43 -3 
43 -3 43 -6 43 -6 43 -1 43 -3 43 -6 43 -1 43 -2 
43 -1 42 -6 43 -2 43 -3 43 -10 43 -2 43 -6 43 -15 
43 -4 43 -9 43 -8 43 -4 43 -4 42 -14 43 -9 43 -3 
43 -10 43 -11 43 -18 43 -14 43 -14 43 -13 43 -9 43 -21 
42 -28 43 -21 43 -34 43 -32 43 -55 43 -45 43 -32 43 -40 
43 -38 43 -37 43 -68 43 -79 42 -68 43 -95 43 -116 43 -125 
43 -142 43 -80 43 -55 6243 4067 100 MP stroke
/c15 { 0.000000 1.000000 1.000000 sr} bdef
c15
43 0 43 -5 43 0 43 -1 43 0 43 -1 43 -1 43 -7 
43 -1 43 -1 43 -4 42 -4 43 -12 43 -1 43 0 43 -3 
43 -1 43 -1 43 0 43 -1 43 -1 43 0 43 0 42 -3 
43 -2 43 -2 43 -1 43 -4 43 -3 43 -1 43 -3 43 -4 
43 -3 43 -1 42 -3 43 -1 43 0 43 -2 43 -5 43 -1 
43 -1 43 -7 43 0 43 -2 43 -6 43 -2 42 -1 43 -3 
43 -1 43 -4 43 -6 43 -4 43 -7 43 -6 43 -6 43 -6 
43 -2 42 -9 43 -7 43 -11 43 -6 43 -8 43 -6 43 -3 
43 -10 43 -3 43 -12 43 -2 43 -9 42 -5 43 -12 43 -13 
43 -19 43 -9 43 -7 43 -23 43 -20 43 -20 43 -23 43 -29 
42 -39 43 -41 43 -36 43 -58 43 -48 43 -83 43 -74 43 -90 
43 -92 43 -105 43 -97 43 -98 42 -108 43 -105 43 -55 43 -69 
43 -62 43 -58 43 -68 6243 3375 100 MP stroke
DA
/c16 { 0.956863 0.643137 0.376471 sr} bdef
c16
43 0 43 0 43 0 43 0 43 0 43 -1 43 0 43 -1 
43 -1 43 -2 43 -2 42 -1 43 -3 43 -1 43 -1 43 -1 
43 -3 43 -2 43 -1 43 -2 43 -1 43 -1 43 -1 42 -2 
43 -4 43 -1 43 -3 43 -3 43 -4 43 -4 43 -5 43 -3 
43 -5 43 -2 42 -5 43 -5 43 -5 43 -7 43 -10 43 -10 
43 -7 43 -11 43 -9 43 -11 43 -18 43 -13 42 -14 43 -13 
43 -13 43 -16 43 -9 43 -16 43 -12 43 -19 43 -11 43 -32 
43 -20 42 -12 43 -15 43 -15 43 -20 43 -19 43 -25 43 -21 
43 -23 43 -37 43 -21 43 -28 43 -31 42 -57 43 -34 43 -48 
43 -57 43 -57 43 -55 43 -94 43 -71 43 -109 43 -54 43 -64 
42 -129 43 -108 43 -115 43 -82 43 -66 43 -68 43 -61 43 -62 
43 -71 43 -77 43 -83 43 -79 42 -99 43 -83 43 -56 43 -48 
43 -33 43 -29 43 -36 6243 4365 100 MP stroke
/c17 { 0.419608 0.556863 0.137255 sr} bdef
c17
43 -5 43 -2 43 -5 43 -2 43 -2 43 -6 43 -1 43 -6 
43 -3 43 -8 43 -3 42 -5 43 -3 43 -3 43 -3 43 -3 
43 -4 43 0 43 -6 43 -2 43 -4 43 -2 43 -4 42 -6 
43 -2 43 -5 43 -1 43 -7 43 -3 43 -1 43 -6 43 -1 
43 -7 43 -1 42 -6 43 -10 43 -7 43 -7 43 -4 43 -10 
43 -6 43 -6 43 -12 43 -2 43 -6 43 -15 42 -8 43 -10 
43 -12 43 -13 43 -11 43 -10 43 -10 43 -19 43 -8 43 -6 
43 -30 42 -31 43 -18 43 -25 43 -16 43 -21 43 -16 43 -19 
43 -38 43 -32 43 -30 43 -29 43 -17 42 -29 43 -31 43 -42 
43 -38 43 -38 43 -169 43 -75 43 -54 43 -29 43 -46 43 -39 
42 -41 43 -44 43 -38 43 -46 43 -62 43 -65 43 -59 43 -46 
43 -55 43 -51 43 -73 43 -42 42 -39 43 -55 43 -32 43 -42 
43 -35 43 -30 43 -29 6243 4245 100 MP stroke
0 sg
43 -2 43 -1 43 0 43 -5 43 -6 43 -4 43 -1 43 -2 
43 -3 43 -3 43 -3 42 -1 43 -3 43 -1 43 -7 43 -7 
43 -7 43 -9 43 -4 43 -7 43 -4 43 -10 43 -7 42 -7 
43 -8 43 -5 43 -8 43 -7 43 -9 43 -11 43 -13 43 -11 
43 -16 43 -9 42 -20 43 -13 43 -14 43 -17 43 -20 43 -14 
43 -15 43 -16 43 -21 43 -24 43 -15 43 -19 42 -19 43 -14 
43 -19 43 -33 43 -24 43 -20 43 -26 43 -22 43 -34 43 -21 
43 -30 42 -34 43 -35 43 -44 43 -29 43 -30 43 -36 43 -41 
43 -41 43 -37 43 -55 43 -44 43 -66 42 -46 43 -62 43 -70 
43 -54 43 -68 43 -55 43 -94 43 -61 43 -74 43 -112 43 -112 
42 -91 43 -97 43 -66 43 -110 43 -64 43 -98 43 -103 43 -63 
43 -185 43 -136 43 -90 43 -53 42 -46 43 -50 43 -43 43 -32 
43 -29 43 -25 43 -32 6243 4246 100 MP stroke
gr

36 w
DA
7661 4799 mt 
(Error Threshold) s
5684 2861 mt  -90 rotate
(Success Rate) s
90 rotate
SO
6 w
1 sg
0 4082 4796 0 0 -4082 603 4446 4 MP
PP
-4796 0 0 4082 4796 0 0 -4082 603 4446 5 MP stroke
4 w
DO
0 sg
 603 4446 mt  603  364 L
 603  364 mt  603  364 L
1802 4446 mt 1802  364 L
1802  364 mt 1802  364 L
3001 4446 mt 3001  364 L
3001  364 mt 3001  364 L
4200 4446 mt 4200  364 L
4200  364 mt 4200  364 L
5399 4446 mt 5399  364 L
5399  364 mt 5399  364 L
 603 4446 mt 5399 4446 L
5399 4446 mt 5399 4446 L
 603 4037 mt 5399 4037 L
5399 4037 mt 5399 4037 L
 603 3629 mt 5399 3629 L
5399 3629 mt 5399 3629 L
 603 3221 mt 5399 3221 L
5399 3221 mt 5399 3221 L
 603 2813 mt 5399 2813 L
5399 2813 mt 5399 2813 L
 603 2405 mt 5399 2405 L
5399 2405 mt 5399 2405 L
 603 1996 mt 5399 1996 L
5399 1996 mt 5399 1996 L
 603 1588 mt 5399 1588 L
5399 1588 mt 5399 1588 L
 603 1180 mt 5399 1180 L
5399 1180 mt 5399 1180 L
 603  772 mt 5399  772 L
5399  772 mt 5399  772 L
 603  364 mt 5399  364 L
5399  364 mt 5399  364 L
SO
6 w
 603 4446 mt 5399 4446 L
 603 4446 mt  603  364 L
 603 4446 mt  603 4398 L
 561 4637 mt 
(0) s
1802 4446 mt 1802 4398 L
1760 4637 mt 
(5) s
3001 4446 mt 3001 4398 L
2917 4637 mt 
(10) s
4200 4446 mt 4200 4398 L
4116 4637 mt 
(15) s
5399 4446 mt 5399 4398 L
5315 4637 mt 
(20) s
 603 4446 mt  650 4446 L
 484 4508 mt 
(0) s
 603 4037 mt  650 4037 L
 358 4099 mt 
(0.1) s
 603 3629 mt  650 3629 L
 358 3691 mt 
(0.2) s
 603 3221 mt  650 3221 L
 358 3283 mt 
(0.3) s
 603 2813 mt  650 2813 L
 358 2875 mt 
(0.4) s
 603 2405 mt  650 2405 L
 358 2467 mt 
(0.5) s
 603 1996 mt  650 1996 L
 358 2058 mt 
(0.6) s
 603 1588 mt  650 1588 L
 358 1650 mt 
(0.7) s
 603 1180 mt  650 1180 L
 358 1242 mt 
(0.8) s
 603  772 mt  650  772 L
 358  834 mt 
(0.9) s
 603  364 mt  650  364 L
 484  426 mt 
(1) s
2868  611 mt 
(TMT) s
gs 603 364 4797 4083 rc
36 w
c8
47 -5 46 -6 46 -6 46 -6 46 -6 46 -4 46 -5 46 -7 
46 -6 46 -4 46 -6 46 -6 46 -5 46 -4 46 -4 46 -4 
46 -5 46 -4 46 -6 46 -4 46 -4 46 -4 46 -6 46 -4 
46 -4 46 -4 46 -3 46 -4 46 -4 46 -5 46 -4 46 -5 
46 -5 46 -7 46 -8 46 -5 46 -4 46 -3 46 -5 46 -6 
46 -6 46 -6 46 -8 46 -13 47 -9 46 -8 46 -9 46 -9 
46 -9 46 -10 46 -8 46 -11 46 -10 46 -14 46 -15 46 -16 
46 -20 46 -17 46 -13 46 -11 46 -12 46 -14 46 -12 46 -10 
46 -10 46 -11 46 -13 46 -11 46 -9 46 -10 46 -10 46 -9 
46 -12 46 -12 46 -13 46 -15 46 -16 46 -15 46 -17 46 -21 
46 -23 46 -36 46 -22 46 -18 46 -18 46 -24 46 -27 46 -30 
46 -29 46 -29 47 -32 46 -34 46 -38 46 -40 46 -60 46 -74 
46 -109 46 -137 46 -140 842 2857 100 MP stroke
c9
47 -2 46 -1 46 -1 46 -1 46 -2 46 -1 46 -1 46 -2 
46 -2 46 -2 46 -2 46 -2 46 -4 46 -1 46 -4 46 -2 
46 -2 46 -3 46 -3 46 -3 46 -3 46 -3 46 -3 46 -3 
46 -2 46 -10 46 -15 46 -4 46 -5 46 -3 46 -3 46 -4 
46 -4 46 -4 46 -3 46 -4 46 -9 46 -15 46 -15 46 -8 
46 -8 46 -5 46 -9 46 -10 47 -8 46 -7 46 -6 46 -6 
46 -7 46 -8 46 -6 46 -6 46 -5 46 -5 46 -6 46 -5 
46 -10 46 -10 46 -8 46 -12 46 -20 46 -11 46 -9 46 -11 
46 -11 46 -11 46 -19 46 -12 46 -11 46 -13 46 -13 46 -16 
46 -14 46 -15 46 -21 46 -20 46 -30 46 -30 46 -22 46 -27 
46 -25 46 -25 46 -26 46 -23 46 -22 46 -28 46 -30 46 -31 
46 -66 46 -50 47 -56 46 -85 46 -59 46 -54 46 -89 46 -101 
46 -84 46 -88 46 -109 842 3908 100 MP stroke
c10
47 -5 46 -3 46 -5 46 -3 46 -3 46 -3 46 -3 46 -4 
46 -4 46 -3 46 -3 46 -2 46 -4 46 -3 46 -2 46 -3 
46 -2 46 -4 46 -4 46 -3 46 -4 46 -4 46 -4 46 -5 
46 -4 46 -4 46 -4 46 -5 46 -4 46 -3 46 -3 46 -4 
46 -5 46 -6 46 -8 46 -5 46 -4 46 -9 46 -8 46 -6 
46 -8 46 -7 46 -9 46 -10 47 -9 46 -10 46 -9 46 -8 
46 -8 46 -9 46 -12 46 -10 46 -11 46 -15 46 -17 46 -14 
46 -12 46 -11 46 -15 46 -15 46 -16 46 -13 46 -12 46 -11 
46 -8 46 -12 46 -9 46 -8 46 -9 46 -10 46 -14 46 -11 
46 -10 46 -11 46 -10 46 -11 46 -14 46 -15 46 -17 46 -14 
46 -21 46 -19 46 -22 46 -26 46 -28 46 -29 46 -33 46 -35 
46 -36 46 -40 47 -39 46 -39 46 -41 46 -51 46 -56 46 -62 
46 -77 46 -96 46 -123 842 2693 100 MP stroke
c11
47 -2 46 -1 46 -2 46 -1 46 -2 46 -1 46 -2 46 -2 
46 -4 46 -2 46 -3 46 -3 46 -3 46 -2 46 -3 46 -4 
46 -3 46 -5 46 -3 46 -3 46 -3 46 -3 46 -4 46 -3 
46 -3 46 -3 46 -5 46 -3 46 -6 46 -6 46 -7 46 -7 
46 -5 46 -5 46 -5 46 -7 46 -7 46 -6 46 -9 46 -9 
46 -10 46 -5 46 -6 46 -9 47 -8 46 -8 46 -8 46 -7 
46 -8 46 -8 46 -7 46 -6 46 -11 46 -16 46 -10 46 -7 
46 -8 46 -7 46 -7 46 -9 46 -12 46 -9 46 -10 46 -10 
46 -10 46 -11 46 -9 46 -9 46 -12 46 -11 46 -11 46 -9 
46 -10 46 -8 46 -8 46 -9 46 -9 46 -10 46 -10 46 -13 
46 -14 46 -15 46 -18 46 -19 46 -22 46 -23 46 -22 46 -25 
46 -24 46 -26 47 -28 46 -32 46 -33 46 -37 46 -40 46 -48 
46 -63 46 -73 46 -95 842 2889 100 MP stroke
c12
47 -2 46 -2 46 -4 46 -2 46 -3 46 -3 46 -3 46 -3 
46 -3 46 -3 46 -5 46 -5 46 -4 46 -4 46 -3 46 -5 
46 -5 46 -5 46 -4 46 -4 46 -3 46 -3 46 -6 46 -5 
46 -4 46 -4 46 -5 46 -6 46 -6 46 -8 46 -7 46 -5 
46 -13 46 -6 46 -5 46 -5 46 -8 46 -6 46 -5 46 -6 
46 -6 46 -5 46 -6 46 -9 47 -10 46 -11 46 -6 46 -12 
46 -10 46 -8 46 -8 46 -12 46 -12 46 -15 46 -12 46 -11 
46 -10 46 -10 46 -10 46 -10 46 -10 46 -13 46 -15 46 -13 
46 -14 46 -12 46 -15 46 -12 46 -10 46 -12 46 -12 46 -12 
46 -12 46 -12 46 -12 46 -17 46 -16 46 -16 46 -19 46 -19 
46 -22 46 -24 46 -32 46 -32 46 -34 46 -36 46 -54 46 -44 
46 -37 46 -33 47 -34 46 -36 46 -58 46 -83 46 -102 46 -104 
46 -122 46 -213 46 -227 842 3196 100 MP stroke
c13
47 -3 46 -4 46 -2 46 -6 46 -7 46 -6 46 -5 46 -4 
46 -7 46 -7 46 -4 46 -6 46 -5 46 -4 46 -4 46 -5 
46 -4 46 -5 46 -5 46 -4 46 -5 46 -5 46 -6 46 -7 
46 -5 46 -5 46 -6 46 -7 46 -7 46 -7 46 -7 46 -5 
46 -6 46 -6 46 -6 46 -10 46 -15 46 -12 46 -9 46 -6 
46 -8 46 -6 46 -8 46 -8 47 -13 46 -12 46 -11 46 -9 
46 -12 46 -10 46 -9 46 -10 46 -12 46 -10 46 -12 46 -12 
46 -19 46 -14 46 -14 46 -12 46 -14 46 -12 46 -11 46 -14 
46 -12 46 -12 46 -13 46 -11 46 -14 46 -12 46 -12 46 -11 
46 -15 46 -12 46 -13 46 -17 46 -22 46 -24 46 -34 46 -22 
46 -25 46 -24 46 -25 46 -32 46 -34 46 -35 46 -34 46 -35 
46 -35 46 -36 47 -37 46 -39 46 -43 46 -49 46 -51 46 -60 
46 -77 46 -90 46 -117 842 2718 100 MP stroke
c14
47 -1 46 -1 46 -1 46 -2 46 -1 46 -1 46 -2 46 -1 
46 -2 46 -2 46 -1 46 -2 46 -2 46 -3 46 -3 46 -3 
46 -4 46 -2 46 -3 46 -2 46 -2 46 -2 46 -3 46 -2 
46 -1 46 -3 46 -2 46 -4 46 -4 46 -4 46 -4 46 -5 
46 -3 46 -4 46 -4 46 -4 46 -4 46 -6 46 -8 46 -8 
46 -8 46 -6 46 -6 46 -7 47 -14 46 -11 46 -9 46 -9 
46 -8 46 -8 46 -7 46 -6 46 -7 46 -6 46 -7 46 -6 
46 -9 46 -10 46 -7 46 -10 46 -13 46 -17 46 -12 46 -10 
46 -9 46 -10 46 -15 46 -14 46 -13 46 -13 46 -13 46 -12 
46 -13 46 -14 46 -17 46 -13 46 -15 46 -29 46 -24 46 -19 
46 -25 46 -26 46 -21 46 -21 46 -21 46 -23 46 -24 46 -21 
46 -36 46 -53 47 -70 46 -82 46 -53 46 -48 46 -74 46 -91 
46 -89 46 -79 46 -100 842 3843 100 MP stroke
c15
47 -4 46 -4 46 -3 46 -4 46 -4 46 -5 46 -3 46 -4 
46 -4 46 -3 46 -5 46 -4 46 -4 46 -4 46 -4 46 -4 
46 -4 46 -3 46 -5 46 -4 46 -5 46 -4 46 -5 46 -5 
46 -5 46 -5 46 -4 46 -3 46 -4 46 -6 46 -5 46 -7 
46 -6 46 -8 46 -7 46 -8 46 -9 46 -7 46 -8 46 -7 
46 -9 46 -8 46 -10 46 -9 47 -8 46 -9 46 -6 46 -9 
46 -9 46 -9 46 -8 46 -8 46 -8 46 -8 46 -11 46 -10 
46 -11 46 -12 46 -13 46 -10 46 -14 46 -14 46 -10 46 -14 
46 -12 46 -13 46 -13 46 -13 46 -15 46 -15 46 -14 46 -16 
46 -15 46 -14 46 -15 46 -16 46 -19 46 -16 46 -19 46 -18 
46 -19 46 -19 46 -22 46 -21 46 -22 46 -29 46 -30 46 -32 
46 -33 46 -30 47 -37 46 -41 46 -49 46 -55 46 -65 46 -77 
46 -87 46 -108 46 -138 842 2815 100 MP stroke
DA
c16
47 -11 46 -10 46 -10 46 -9 46 -12 46 -11 46 -16 46 -22 
46 -15 46 -17 46 -14 46 -20 46 -29 46 -20 46 -10 46 -9 
46 -10 46 -11 46 -10 46 -15 46 -14 46 -12 46 -17 46 -15 
46 -14 46 -12 46 -11 46 -13 46 -13 46 -11 46 -15 46 -20 
46 -15 46 -17 46 -21 46 -23 46 -19 46 -19 46 -68 46 -31 
46 -18 46 -19 46 -33 46 -65 47 -49 46 -32 46 -29 46 -28 
46 -25 46 -34 46 -23 46 -38 46 -24 46 -22 46 -31 46 -35 
46 -43 46 -26 46 -26 46 -37 46 -55 46 -45 46 -44 46 -33 
46 -57 46 -33 46 -34 46 -31 46 -75 46 -50 46 -70 46 -47 
46 -75 46 -26 46 -26 46 -29 46 -66 46 -57 46 -36 46 -46 
46 -41 46 -30 46 -54 46 -40 46 -38 46 -46 46 -44 46 -53 
46 -25 46 -26 47 -30 46 -26 46 -41 46 -36 46 -47 46 -60 
46 -114 46 -50 46 -64 842 4291 100 MP stroke
c17
47 -6 46 -5 46 -18 46 -5 46 -6 46 -8 46 -7 46 -6 
46 -6 46 -6 46 -5 46 -6 46 -11 46 -10 46 -11 46 -10 
46 -13 46 -11 46 -12 46 -14 46 -14 46 -10 46 -8 46 -8 
46 -11 46 -10 46 -7 46 -7 46 -16 46 -14 46 -12 46 -15 
46 -17 46 -16 46 -14 46 -11 46 -17 46 -29 46 -20 46 -19 
46 -16 46 -36 46 -40 46 -28 47 -20 46 -41 46 -43 46 -38 
46 -23 46 -29 46 -44 46 -34 46 -28 46 -44 46 -27 46 -39 
46 -32 46 -42 46 -29 46 -45 46 -93 46 -71 46 -35 46 -35 
46 -36 46 -40 46 -66 46 -48 46 -44 46 -52 46 -42 46 -56 
46 -47 46 -51 46 -106 46 -45 46 -62 46 -51 46 -70 46 -55 
46 -57 46 -57 46 -42 46 -53 46 -52 46 -84 46 -60 46 -48 
46 -40 46 -28 47 -38 46 -24 46 -33 46 -64 46 -28 46 -30 
46 -17 46 -18 46 -14 842 4385 100 MP stroke
0 sg
47 -4 46 -6 46 -5 46 -5 46 -6 46 -7 46 -10 46 -9 
46 -8 46 -7 46 -9 46 -8 46 -14 46 -8 46 -11 46 -11 
46 -16 46 -17 46 -16 46 -9 46 -13 46 -15 46 -15 46 -34 
46 -14 46 -24 46 -19 46 -21 46 -16 46 -16 46 -17 46 -23 
46 -31 46 -41 46 -34 46 -26 46 -28 46 -23 46 -24 46 -36 
46 -25 46 -25 46 -26 46 -18 47 -21 46 -31 46 -22 46 -25 
46 -47 46 -27 46 -41 46 -35 46 -34 46 -27 46 -37 46 -35 
46 -39 46 -44 46 -45 46 -28 46 -70 46 -45 46 -45 46 -49 
46 -56 46 -38 46 -50 46 -86 46 -41 46 -44 46 -54 46 -75 
46 -51 46 -90 46 -58 46 -67 46 -54 46 -48 46 -50 46 -65 
46 -46 46 -57 46 -65 46 -43 46 -58 46 -58 46 -52 46 -37 
46 -63 46 -38 47 -41 46 -34 46 -43 46 -47 46 -27 46 -23 
46 -20 46 -34 46 -35 842 4362 100 MP stroke
gr

36 w
DA
2406 4808 mt 
(Error Threshold) s
 267 2866 mt  -90 rotate
(Success Rate) s
90 rotate
%%IncludeResource: font Helvetica
/Helvetica /WindowsLatin1Encoding 120 FMSR

 586 4489 mt 
( ) s
5383  406 mt 
( ) s
SO
6 w
1 sg
0 1989 864 0 0 -1989 10493 2331 4 MP
PP
-864 0 0 1989 864 0 0 -1989 10493 2331 5 MP stroke
4 w
DO
SO
6 w
0 sg
10493  342 mt 11357  342 L
10493 2331 mt 11357 2331 L
11357 2331 mt 11357  342 L
10493 2331 mt 10493  342 L
10493 2331 mt 11357 2331 L
10493 2331 mt 10493  342 L
10493  342 mt 11357  342 L
10493 2331 mt 11357 2331 L
11357 2331 mt 11357  342 L
10493 2331 mt 10493  342 L
%%IncludeResource: font Times-Bold
/Times-Bold /WindowsLatin1Encoding 120 FMSR

10962  495 mt 
(FCLK) s
gs 10493 342 865 1990 rc
36 w
c8
360 0 10565 451 2 MP stroke
gr

36 w
c8
0 sg
10962  672 mt 
(ICLK) s
gs 10493 342 865 1990 rc
c9
360 0 10565 628 2 MP stroke
gr

c9
0 sg
10962  849 mt 
(FALK) s
gs 10493 342 865 1990 rc
c10
360 0 10565 805 2 MP stroke
gr

c10
0 sg
10962 1026 mt 
(IALK) s
gs 10493 342 865 1990 rc
c11
360 0 10565 982 2 MP stroke
gr

c11
0 sg
10962 1203 mt 
(ESM) s
gs 10493 342 865 1990 rc
c12
360 0 10565 1159 2 MP stroke
gr

c12
0 sg
10962 1380 mt 
(AESM) s
gs 10493 342 865 1990 rc
c13
360 0 10565 1336 2 MP stroke
gr

c13
0 sg
10962 1557 mt 
(NNIC) s
gs 10493 342 865 1990 rc
c14
360 0 10565 1513 2 MP stroke
gr

c14
0 sg
10962 1734 mt 
(PF) s
gs 10493 342 865 1990 rc
c15
360 0 10565 1690 2 MP stroke
gr

c15
0 sg
10962 1911 mt 
(TLD) s
gs 10493 342 865 1990 rc
DA
c16
360 0 10565 1867 2 MP stroke
SO
gr

c16
0 sg
10962 2088 mt 
(KCF) s
gs 10493 342 865 1990 rc
DA
c17
360 0 10565 2044 2 MP stroke
SO
gr

c17
0 sg
10962 2265 mt 
(DSST) s
gs 10493 342 865 1990 rc
DA
360 0 10565 2221 2 MP stroke
SO
6 w
gr

6 w

end %%Color Dict

eplot
%%EndObject

epage
end

showpage

%%Trailer
%%EOF
