%!PS-Adobe-3.0 EPSF-3.0
%%Creator: MATLAB, The MathWorks, Inc. Version 8.1.0.604 (R2013a). Operating System: Microsoft Windows 8.
%%Title: E:\UofA\Thesis\ICRA 2016\sm_ssd_8_tmt.eps
%%CreationDate: 09/15/2015  15:59:06
%%DocumentNeededFonts: Times-Bold
%%+ Helvetica
%%DocumentProcessColors: Cyan Magenta Yellow Black
%%LanguageLevel: 2
%%Pages: 1
%%BoundingBox:    96   238   515   553
%%EndComments

%%BeginProlog
% MathWorks dictionary
/MathWorks 160 dict begin
% definition operators
/bdef {bind def} bind def
/ldef {load def} bind def
/xdef {exch def} bdef
/xstore {exch store} bdef
% operator abbreviations
/c  /clip ldef
/cc /concat ldef
/cp /closepath ldef
/gr /grestore ldef
/gs /gsave ldef
/mt /moveto ldef
/np /newpath ldef
/cm /currentmatrix ldef
/sm /setmatrix ldef
/rm /rmoveto ldef
/rl /rlineto ldef
/s {show newpath} bdef
/sc {setcmykcolor} bdef
/sr /setrgbcolor ldef
/sg /setgray ldef
/w /setlinewidth ldef
/j /setlinejoin ldef
/cap /setlinecap ldef
/rc {rectclip} bdef
/rf {rectfill} bdef
% page state control
/pgsv () def
/bpage {/pgsv save def} bdef
/epage {pgsv restore} bdef
/bplot /gsave ldef
/eplot {stroke grestore} bdef
% orientation switch
/portraitMode 0 def /landscapeMode 1 def /rotateMode 2 def
% coordinate system mappings
/dpi2point 0 def
% font control
/FontSize 0 def
/FMS {/FontSize xstore findfont [FontSize 0 0 FontSize neg 0 0]
  makefont setfont} bdef
/ISOLatin1Encoding where {pop /WindowsLatin1Encoding 256 array bdef
ISOLatin1Encoding WindowsLatin1Encoding copy pop
/.notdef/.notdef/quotesinglbase/florin/quotedblbase/ellipsis/dagger
/daggerdbl/circumflex/perthousand/Scaron/guilsinglleft/OE/.notdef/.notdef
/.notdef/.notdef/quoteleft/quoteright/quotedblleft/quotedblright/bullet
/endash/emdash/tilde/trademark/scaron/guilsinglright/oe/.notdef/.notdef
/Ydieresis WindowsLatin1Encoding 128 32 getinterval astore pop}
{/WindowsLatin1Encoding StandardEncoding bdef} ifelse
/reencode {exch dup where {pop load} {pop StandardEncoding} ifelse
  exch dup 3 1 roll findfont dup length dict begin
  { 1 index /FID ne {def}{pop pop} ifelse } forall
  /Encoding exch def currentdict end definefont pop} bdef
/isroman {findfont /CharStrings get /Agrave known} bdef
/FMSR {3 1 roll 1 index dup isroman {reencode} {pop pop} ifelse
  exch FMS} bdef
/csm {1 dpi2point div -1 dpi2point div scale neg translate
 dup landscapeMode eq {pop -90 rotate}
  {rotateMode eq {90 rotate} if} ifelse} bdef
% line types: solid, dotted, dashed, dotdash
/SO { [] 0 setdash } bdef
/DO { [.5 dpi2point mul 4 dpi2point mul] 0 setdash } bdef
/DA { [6 dpi2point mul] 0 setdash } bdef
/DD { [.5 dpi2point mul 4 dpi2point mul 6 dpi2point mul 4
  dpi2point mul] 0 setdash } bdef
% macros for lines and objects
/L {lineto stroke} bdef
/MP {3 1 roll moveto 1 sub {rlineto} repeat} bdef
/AP {{rlineto} repeat} bdef
/PDlw -1 def
/W {/PDlw currentlinewidth def setlinewidth} def
/PP {closepath eofill} bdef
/DP {closepath stroke} bdef
/MR {4 -2 roll moveto dup  0 exch rlineto exch 0 rlineto
  neg 0 exch rlineto closepath} bdef
/FR {MR stroke} bdef
/PR {MR fill} bdef
/L1i {{currentfile picstr readhexstring pop} image} bdef
/tMatrix matrix def
/MakeOval {newpath tMatrix currentmatrix pop translate scale
0 0 1 0 360 arc tMatrix setmatrix} bdef
/FO {MakeOval stroke} bdef
/PO {MakeOval fill} bdef
/PD {currentlinewidth 2 div 0 360 arc fill
   PDlw -1 eq not {PDlw w /PDlw -1 def} if} def
/FA {newpath tMatrix currentmatrix pop translate scale
  0 0 1 5 -2 roll arc tMatrix setmatrix stroke} bdef
/PA {newpath tMatrix currentmatrix pop	translate 0 0 moveto scale
  0 0 1 5 -2 roll arc closepath tMatrix setmatrix fill} bdef
/FAn {newpath tMatrix currentmatrix pop translate scale
  0 0 1 5 -2 roll arcn tMatrix setmatrix stroke} bdef
/PAn {newpath tMatrix currentmatrix pop translate 0 0 moveto scale
  0 0 1 5 -2 roll arcn closepath tMatrix setmatrix fill} bdef
/vradius 0 def /hradius 0 def /lry 0 def
/lrx 0 def /uly 0 def /ulx 0 def /rad 0 def
/MRR {/vradius xdef /hradius xdef /lry xdef /lrx xdef /uly xdef
  /ulx xdef newpath tMatrix currentmatrix pop ulx hradius add uly
  vradius add translate hradius vradius scale 0 0 1 180 270 arc 
  tMatrix setmatrix lrx hradius sub uly vradius add translate
  hradius vradius scale 0 0 1 270 360 arc tMatrix setmatrix
  lrx hradius sub lry vradius sub translate hradius vradius scale
  0 0 1 0 90 arc tMatrix setmatrix ulx hradius add lry vradius sub
  translate hradius vradius scale 0 0 1 90 180 arc tMatrix setmatrix
  closepath} bdef
/FRR {MRR stroke } bdef
/PRR {MRR fill } bdef
/MlrRR {/lry xdef /lrx xdef /uly xdef /ulx xdef /rad lry uly sub 2 div def
  newpath tMatrix currentmatrix pop ulx rad add uly rad add translate
  rad rad scale 0 0 1 90 270 arc tMatrix setmatrix lrx rad sub lry rad
  sub translate rad rad scale 0 0 1 270 90 arc tMatrix setmatrix
  closepath} bdef
/FlrRR {MlrRR stroke } bdef
/PlrRR {MlrRR fill } bdef
/MtbRR {/lry xdef /lrx xdef /uly xdef /ulx xdef /rad lrx ulx sub 2 div def
  newpath tMatrix currentmatrix pop ulx rad add uly rad add translate
  rad rad scale 0 0 1 180 360 arc tMatrix setmatrix lrx rad sub lry rad
  sub translate rad rad scale 0 0 1 0 180 arc tMatrix setmatrix
  closepath} bdef
/FtbRR {MtbRR stroke } bdef
/PtbRR {MtbRR fill } bdef
/stri 6 array def /dtri 6 array def
/smat 6 array def /dmat 6 array def
/tmat1 6 array def /tmat2 6 array def /dif 3 array def
/asub {/ind2 exch def /ind1 exch def dup dup
  ind1 get exch ind2 get sub exch } bdef
/tri_to_matrix {
  2 0 asub 3 1 asub 4 0 asub 5 1 asub
  dup 0 get exch 1 get 7 -1 roll astore } bdef
/compute_transform {
  dmat dtri tri_to_matrix tmat1 invertmatrix 
  smat stri tri_to_matrix tmat2 concatmatrix } bdef
/ds {stri astore pop} bdef
/dt {dtri astore pop} bdef
/db {2 copy /cols xdef /rows xdef mul dup 3 mul string
  currentfile 
  3 index 0 eq {/ASCIIHexDecode filter}
  {/ASCII85Decode filter 3 index 2 eq {/RunLengthDecode filter} if }
  ifelse exch readstring pop
  dup 0 3 index getinterval /rbmap xdef
  dup 2 index dup getinterval /gbmap xdef
  1 index dup 2 mul exch getinterval /bbmap xdef pop pop}bdef
/it {gs np dtri aload pop moveto lineto lineto cp c
  cols rows 8 compute_transform 
  rbmap gbmap bbmap true 3 colorimage gr}bdef
/il {newpath moveto lineto stroke}bdef
currentdict end def
%%EndProlog

%%BeginSetup
MathWorks begin

0 cap

end
%%EndSetup

%%Page: 1 1
%%BeginPageSetup
%%PageBoundingBox:    96   238   515   553
MathWorks begin
bpage
%%EndPageSetup

%%BeginObject: obj1
bplot

/dpi2point 12 def
portraitMode 1152 6636 csm

    0     0  5039  3780 rc
90 dict begin %Colortable dictionary
/c0 { 0.000000 0.000000 0.000000 sr} bdef
/c1 { 1.000000 1.000000 1.000000 sr} bdef
/c2 { 0.900000 0.000000 0.000000 sr} bdef
/c3 { 0.000000 0.820000 0.000000 sr} bdef
/c4 { 0.000000 0.000000 0.800000 sr} bdef
/c5 { 0.910000 0.820000 0.320000 sr} bdef
/c6 { 1.000000 0.260000 0.820000 sr} bdef
/c7 { 0.000000 0.820000 0.820000 sr} bdef
c0
1 j
1 sg
   0    0 5040 3781 rf
6 w
0 3076 3905 0 0 -3076 655 3364 4 MP
PP
-3905 0 0 3076 3905 0 0 -3076 655 3364 5 MP stroke
4 w
DO
0 sg
 655 3364 mt  655  287 L
 655  287 mt  655  287 L
1631 3364 mt 1631  287 L
1631  287 mt 1631  287 L
2607 3364 mt 2607  287 L
2607  287 mt 2607  287 L
3583 3364 mt 3583  287 L
3583  287 mt 3583  287 L
4560 3364 mt 4560  287 L
4560  287 mt 4560  287 L
 655 2924 mt 4560 2924 L
4560 2924 mt 4560 2924 L
 655 2485 mt 4560 2485 L
4560 2485 mt 4560 2485 L
 655 2045 mt 4560 2045 L
4560 2045 mt 4560 2045 L
 655 1606 mt 4560 1606 L
4560 1606 mt 4560 1606 L
 655 1166 mt 4560 1166 L
4560 1166 mt 4560 1166 L
 655  727 mt 4560  727 L
4560  727 mt 4560  727 L
 655  287 mt 4560  287 L
4560  287 mt 4560  287 L
SO
6 w
 655 3364 mt 4560 3364 L
 655 3364 mt  655  288 L
 655 3364 mt  655 3324 L
%%IncludeResource: font Times-Bold
/Times-Bold /WindowsLatin1Encoding 168 FMSR

 613 3555 mt 
(0) s
1631 3364 mt 1631 3324 L
1589 3555 mt 
(5) s
2607 3364 mt 2607 3324 L
2523 3555 mt 
(10) s
3583 3364 mt 3583 3324 L
3499 3555 mt 
(15) s
4560 3364 mt 4560 3324 L
4476 3555 mt 
(20) s
 655 2924 mt  694 2924 L
 410 2986 mt 
(0.4) s
 655 2485 mt  694 2485 L
 410 2547 mt 
(0.5) s
 655 2045 mt  694 2045 L
 410 2107 mt 
(0.6) s
 655 1606 mt  694 1606 L
 410 1668 mt 
(0.7) s
 655 1166 mt  694 1166 L
 410 1228 mt 
(0.8) s
 655  727 mt  694  727 L
 410  789 mt 
(0.9) s
 655  287 mt  694  287 L
 536  349 mt 
(1) s
 813  157 mt 
(SM Success Rates for SSD/8DOF on TMT Dataset) s
gs 655 288 3906 3077 rc
36 w
/c8 { 1.000000 0.647059 0.000000 sr} bdef
c8
38 -2 37 -3 38 -3 37 -2 38 -3 37 -3 38 -3 37 -2 
38 -19 37 -5 38 -2 37 -4 38 -4 37 -5 38 -6 37 -4 
38 -4 37 -5 37 -5 38 -3 37 -4 38 -4 37 -4 38 -4 
37 -6 38 -4 37 -4 38 -4 37 -3 38 -4 37 -2 38 -4 
37 -2 38 -5 37 -3 38 -2 37 -5 37 -3 38 -3 37 -5 
38 -4 37 -3 38 -5 37 -8 38 -8 37 -8 38 -4 37 -6 
38 -4 37 -6 38 -5 37 -6 38 -12 37 -19 37 -11 38 -10 
37 -10 38 -10 37 -9 38 -8 37 -7 38 -8 37 -8 38 -7 
37 -9 38 -8 37 -9 38 -11 37 -10 38 -11 37 -10 38 -13 
37 -14 37 -14 38 -15 37 -18 38 -18 37 -17 38 -19 37 -21 
38 -21 37 -25 38 -25 37 -28 38 -39 37 -39 38 -38 37 -41 
38 -54 37 -50 37 -55 38 -67 37 -74 38 -82 37 -75 38 -84 
37 -97 38 -122 37 -149 850 2824 100 MP stroke
/c9 { 0.000000 1.000000 0.000000 sr} bdef
c9
38 0 37 0 38 -1 37 0 38 -1 37 -1 38 -1 37 0 
38 0 37 -1 38 -1 37 -1 38 -2 37 -1 38 -2 37 -3 
38 -1 37 -1 37 -2 38 -1 37 -1 38 -2 37 -3 38 -3 
37 -3 38 -2 37 -2 38 -1 37 -1 38 -1 37 -1 38 -1 
37 -1 38 -1 37 -1 38 -1 37 -1 37 -2 38 -1 37 -2 
38 -2 37 -1 38 -2 37 -2 38 -2 37 -2 38 -2 37 -2 
38 -3 37 -3 38 -2 37 -3 38 -3 37 -3 37 -4 38 -3 
37 -4 38 -5 37 -4 38 -4 37 -6 38 -6 37 -6 38 -6 
37 -8 38 -6 37 -6 38 -8 37 -8 38 -9 37 -10 38 -11 
37 -10 37 -11 38 -11 37 -11 38 -12 37 -15 38 -14 37 -18 
38 -19 37 -23 38 -23 37 -24 38 -24 37 -27 38 -29 37 -33 
38 -43 37 -49 37 -52 38 -56 37 -62 38 -76 37 -92 38 -94 
37 -98 38 -111 37 -130 850 2977 100 MP stroke
/c10 { 0.000000 0.000000 1.000000 sr} bdef
c10
38 -4 37 -3 38 -3 37 -2 38 -3 37 -4 38 -4 37 -4 
38 -18 37 -2 38 -4 37 -3 38 -4 37 -4 38 -4 37 -3 
38 -3 37 -4 37 -3 38 -2 37 -4 38 -4 37 -2 38 -4 
37 -4 38 -2 37 -2 38 -2 37 -3 38 -3 37 -4 38 -3 
37 -4 38 -4 37 -5 38 -4 37 -6 37 -3 38 -5 37 -5 
38 -5 37 -4 38 -6 37 -7 38 -7 37 -7 38 -5 37 -7 
38 -6 37 -8 38 -7 37 -7 38 -10 37 -14 37 -19 38 -13 
37 -10 38 -11 37 -9 38 -9 37 -8 38 -7 37 -8 38 -8 
37 -8 38 -8 37 -9 38 -10 37 -10 38 -10 37 -11 38 -12 
37 -14 37 -13 38 -13 37 -14 38 -15 37 -15 38 -18 37 -19 
38 -25 37 -31 38 -23 37 -25 38 -26 37 -32 38 -37 37 -41 
38 -51 37 -48 37 -50 38 -63 37 -67 38 -72 37 -66 38 -76 
37 -97 38 -130 37 -153 850 2921 100 MP stroke
/c11 { 1.000000 0.000000 0.000000 sr} bdef
c11
38 0 37 -1 38 0 37 -1 38 -1 37 -1 38 -1 37 -1 
38 0 37 -1 38 -1 37 -1 38 -1 37 0 38 -2 37 -1 
38 -1 37 -2 37 -3 38 -1 37 -2 38 -2 37 -1 38 -1 
37 -1 38 -6 37 -3 38 -1 37 -1 38 0 37 -1 38 -1 
37 -2 38 -1 37 0 38 -1 37 -1 37 -1 38 -1 37 -1 
38 -1 37 -1 38 -2 37 -1 38 -2 37 -1 38 -2 37 -2 
38 -2 37 -3 38 -2 37 -3 38 -2 37 -3 37 -2 38 -2 
37 -4 38 -3 37 -3 38 -3 37 -4 38 -4 37 -6 38 -6 
37 -5 38 -6 37 -6 38 -5 37 -6 38 -7 37 -9 38 -11 
37 -11 37 -12 38 -11 37 -9 38 -11 37 -11 38 -12 37 -15 
38 -15 37 -16 38 -22 37 -22 38 -26 37 -27 38 -29 37 -26 
38 -36 37 -41 37 -45 38 -46 37 -51 38 -64 37 -84 38 -91 
37 -86 38 -110 37 -118 850 3048 100 MP stroke
/c12 { 1.000000 0.000000 1.000000 sr} bdef
c12
38 -1 37 -2 38 -3 37 -3 38 -3 37 -1 38 -1 37 -2 
38 -2 37 -1 38 -1 37 -2 38 -1 37 -2 38 -2 37 -2 
38 -1 37 -2 37 -1 38 -1 37 -1 38 -2 37 -2 38 -2 
37 -4 38 -5 37 -1 38 -3 37 -1 38 -2 37 -2 38 -3 
37 -2 38 -2 37 -3 38 -3 37 -3 37 -3 38 -4 37 -3 
38 -3 37 -6 38 -4 37 -3 38 -5 37 -5 38 -4 37 -5 
38 -4 37 -7 38 -6 37 -6 38 -6 37 -6 37 -7 38 -6 
37 -6 38 -7 37 -5 38 -6 37 -7 38 -9 37 -7 38 -8 
37 -8 38 -8 37 -10 38 -10 37 -10 38 -8 37 -8 38 -10 
37 -12 37 -12 38 -13 37 -14 38 -14 37 -16 38 -21 37 -21 
38 -21 37 -24 38 -22 37 -20 38 -23 37 -31 38 -46 37 -41 
38 -51 37 -53 37 -61 38 -68 37 -77 38 -80 37 -92 38 -95 
37 -105 38 -106 37 -129 850 2783 100 MP stroke
/c13 { 0.627451 0.125490 0.941176 sr} bdef
c13
38 -2 37 -3 38 -4 37 -2 38 -1 37 -3 38 -2 37 -2 
38 -2 37 -3 38 -3 37 -3 38 -3 37 -2 38 -2 37 -2 
38 -2 37 -4 37 -2 38 -2 37 -3 38 -4 37 -3 38 -5 
37 -5 38 -5 37 -4 38 -2 37 -3 38 -3 37 -4 38 -3 
37 -5 38 -2 37 -4 38 -2 37 -4 37 -3 38 -3 37 -5 
38 -5 37 -5 38 -6 37 -5 38 -4 37 -5 38 -5 37 -7 
38 -7 37 -11 38 -10 37 -8 38 -8 37 -8 37 -9 38 -8 
37 -9 38 -8 37 -8 38 -8 37 -9 38 -10 37 -10 38 -10 
37 -12 38 -12 37 -11 38 -15 37 -13 38 -15 37 -14 38 -15 
37 -18 37 -17 38 -19 37 -16 38 -22 37 -28 38 -31 37 -30 
38 -32 37 -30 38 -30 37 -32 38 -32 37 -30 38 -32 37 -33 
38 -43 37 -39 37 -43 38 -44 37 -57 38 -59 37 -63 38 -68 
37 -79 38 -79 37 -99 850 3119 100 MP stroke
/c14 { 0.000000 0.392157 0.000000 sr} bdef
c14
38 -1 37 -1 38 -1 37 0 38 -1 37 -1 38 -1 37 -1 
38 -1 37 -2 38 -1 37 -1 38 -1 37 -1 38 -2 37 -1 
38 -1 37 -1 37 -1 38 -1 37 -1 38 -1 37 -1 38 -2 
37 -2 38 -2 37 -5 38 -2 37 -1 38 -1 37 -1 38 -2 
37 -1 38 -1 37 -1 38 -1 37 -2 37 -1 38 -1 37 -3 
38 -2 37 -1 38 -2 37 -2 38 -3 37 -2 38 -3 37 -3 
38 -2 37 -4 38 -4 37 -3 38 -3 37 -4 37 -4 38 -6 
37 -6 38 -5 37 -5 38 -4 37 -5 38 -5 37 -5 38 -5 
37 -6 38 -6 37 -8 38 -8 37 -8 38 -10 37 -11 38 -12 
37 -10 37 -13 38 -10 37 -10 38 -12 37 -13 38 -13 37 -15 
38 -16 37 -19 38 -20 37 -22 38 -22 37 -25 38 -28 37 -30 
38 -39 37 -43 37 -48 38 -52 37 -52 38 -63 37 -76 38 -84 
37 -94 38 -116 37 -133 850 2965 100 MP stroke
gr

36 w
c14
0 sg
2012 3726 mt 
(Error Threshold) s
 319 2286 mt  -90 rotate
(Success Rate) s
90 rotate
%%IncludeResource: font Helvetica
/Helvetica /WindowsLatin1Encoding 120 FMSR

 638 3407 mt 
( ) s
4544  330 mt 
( ) s
6 w
1 sg
0 1281 864 0 0 -1281 3629 3240 4 MP
PP
-864 0 0 1281 864 0 0 -1281 3629 3240 5 MP stroke
4 w
DO
SO
6 w
0 sg
3629 1959 mt 4493 1959 L
3629 3240 mt 4493 3240 L
4493 3240 mt 4493 1959 L
3629 3240 mt 3629 1959 L
3629 3240 mt 4493 3240 L
3629 3240 mt 3629 1959 L
3629 1959 mt 4493 1959 L
3629 3240 mt 4493 3240 L
4493 3240 mt 4493 1959 L
3629 3240 mt 3629 1959 L
%%IncludeResource: font Times-Bold
/Times-Bold /WindowsLatin1Encoding 120 FMSR

4098 2112 mt 
(FCLK) s
gs 3629 1959 865 1282 rc
36 w
c8
360 0 3701 2068 2 MP stroke
gr

36 w
c8
0 sg
4098 2289 mt 
(ICLK) s
gs 3629 1959 865 1282 rc
c9
360 0 3701 2245 2 MP stroke
gr

c9
0 sg
4098 2466 mt 
(FALK) s
gs 3629 1959 865 1282 rc
c10
360 0 3701 2422 2 MP stroke
gr

c10
0 sg
4098 2643 mt 
(IALK) s
gs 3629 1959 865 1282 rc
c11
360 0 3701 2599 2 MP stroke
gr

c11
0 sg
4098 2820 mt 
(ESM) s
gs 3629 1959 865 1282 rc
c12
360 0 3701 2776 2 MP stroke
gr

c12
0 sg
4098 2997 mt 
(AESM) s
gs 3629 1959 865 1282 rc
c13
360 0 3701 2953 2 MP stroke
gr

c13
0 sg
4098 3174 mt 
(NNIC) s
gs 3629 1959 865 1282 rc
c14
360 0 3701 3130 2 MP stroke
6 w
gr

6 w
c14

end %%Color Dict

eplot
%%EndObject

epage
end

showpage

%%Trailer
%%EOF
