%!PS-Adobe-3.0 EPSF-3.0
%%Creator: MATLAB, The MathWorks, Inc. Version 8.1.0.604 (R2013a). Operating System: Microsoft Windows 8.
%%Title: E:\UofA\Thesis\ICRA 2016\sm_tags_ncc_8.eps
%%CreationDate: 09/15/2015  03:25:18
%%DocumentNeededFonts: Times-Roman
%%+ Helvetica
%%+ Times-Bold
%%DocumentProcessColors: Cyan Magenta Yellow Black
%%LanguageLevel: 2
%%Pages: 1
%%BoundingBox:  -207   210   820   581
%%EndComments

%%BeginProlog
% MathWorks dictionary
/MathWorks 160 dict begin
% definition operators
/bdef {bind def} bind def
/ldef {load def} bind def
/xdef {exch def} bdef
/xstore {exch store} bdef
% operator abbreviations
/c  /clip ldef
/cc /concat ldef
/cp /closepath ldef
/gr /grestore ldef
/gs /gsave ldef
/mt /moveto ldef
/np /newpath ldef
/cm /currentmatrix ldef
/sm /setmatrix ldef
/rm /rmoveto ldef
/rl /rlineto ldef
/s {show newpath} bdef
/sc {setcmykcolor} bdef
/sr /setrgbcolor ldef
/sg /setgray ldef
/w /setlinewidth ldef
/j /setlinejoin ldef
/cap /setlinecap ldef
/rc {rectclip} bdef
/rf {rectfill} bdef
% page state control
/pgsv () def
/bpage {/pgsv save def} bdef
/epage {pgsv restore} bdef
/bplot /gsave ldef
/eplot {stroke grestore} bdef
% orientation switch
/portraitMode 0 def /landscapeMode 1 def /rotateMode 2 def
% coordinate system mappings
/dpi2point 0 def
% font control
/FontSize 0 def
/FMS {/FontSize xstore findfont [FontSize 0 0 FontSize neg 0 0]
  makefont setfont} bdef
/ISOLatin1Encoding where {pop /WindowsLatin1Encoding 256 array bdef
ISOLatin1Encoding WindowsLatin1Encoding copy pop
/.notdef/.notdef/quotesinglbase/florin/quotedblbase/ellipsis/dagger
/daggerdbl/circumflex/perthousand/Scaron/guilsinglleft/OE/.notdef/.notdef
/.notdef/.notdef/quoteleft/quoteright/quotedblleft/quotedblright/bullet
/endash/emdash/tilde/trademark/scaron/guilsinglright/oe/.notdef/.notdef
/Ydieresis WindowsLatin1Encoding 128 32 getinterval astore pop}
{/WindowsLatin1Encoding StandardEncoding bdef} ifelse
/reencode {exch dup where {pop load} {pop StandardEncoding} ifelse
  exch dup 3 1 roll findfont dup length dict begin
  { 1 index /FID ne {def}{pop pop} ifelse } forall
  /Encoding exch def currentdict end definefont pop} bdef
/isroman {findfont /CharStrings get /Agrave known} bdef
/FMSR {3 1 roll 1 index dup isroman {reencode} {pop pop} ifelse
  exch FMS} bdef
/csm {1 dpi2point div -1 dpi2point div scale neg translate
 dup landscapeMode eq {pop -90 rotate}
  {rotateMode eq {90 rotate} if} ifelse} bdef
% line types: solid, dotted, dashed, dotdash
/SO { [] 0 setdash } bdef
/DO { [.5 dpi2point mul 4 dpi2point mul] 0 setdash } bdef
/DA { [6 dpi2point mul] 0 setdash } bdef
/DD { [.5 dpi2point mul 4 dpi2point mul 6 dpi2point mul 4
  dpi2point mul] 0 setdash } bdef
% macros for lines and objects
/L {lineto stroke} bdef
/MP {3 1 roll moveto 1 sub {rlineto} repeat} bdef
/AP {{rlineto} repeat} bdef
/PDlw -1 def
/W {/PDlw currentlinewidth def setlinewidth} def
/PP {closepath eofill} bdef
/DP {closepath stroke} bdef
/MR {4 -2 roll moveto dup  0 exch rlineto exch 0 rlineto
  neg 0 exch rlineto closepath} bdef
/FR {MR stroke} bdef
/PR {MR fill} bdef
/L1i {{currentfile picstr readhexstring pop} image} bdef
/tMatrix matrix def
/MakeOval {newpath tMatrix currentmatrix pop translate scale
0 0 1 0 360 arc tMatrix setmatrix} bdef
/FO {MakeOval stroke} bdef
/PO {MakeOval fill} bdef
/PD {currentlinewidth 2 div 0 360 arc fill
   PDlw -1 eq not {PDlw w /PDlw -1 def} if} def
/FA {newpath tMatrix currentmatrix pop translate scale
  0 0 1 5 -2 roll arc tMatrix setmatrix stroke} bdef
/PA {newpath tMatrix currentmatrix pop	translate 0 0 moveto scale
  0 0 1 5 -2 roll arc closepath tMatrix setmatrix fill} bdef
/FAn {newpath tMatrix currentmatrix pop translate scale
  0 0 1 5 -2 roll arcn tMatrix setmatrix stroke} bdef
/PAn {newpath tMatrix currentmatrix pop translate 0 0 moveto scale
  0 0 1 5 -2 roll arcn closepath tMatrix setmatrix fill} bdef
/vradius 0 def /hradius 0 def /lry 0 def
/lrx 0 def /uly 0 def /ulx 0 def /rad 0 def
/MRR {/vradius xdef /hradius xdef /lry xdef /lrx xdef /uly xdef
  /ulx xdef newpath tMatrix currentmatrix pop ulx hradius add uly
  vradius add translate hradius vradius scale 0 0 1 180 270 arc 
  tMatrix setmatrix lrx hradius sub uly vradius add translate
  hradius vradius scale 0 0 1 270 360 arc tMatrix setmatrix
  lrx hradius sub lry vradius sub translate hradius vradius scale
  0 0 1 0 90 arc tMatrix setmatrix ulx hradius add lry vradius sub
  translate hradius vradius scale 0 0 1 90 180 arc tMatrix setmatrix
  closepath} bdef
/FRR {MRR stroke } bdef
/PRR {MRR fill } bdef
/MlrRR {/lry xdef /lrx xdef /uly xdef /ulx xdef /rad lry uly sub 2 div def
  newpath tMatrix currentmatrix pop ulx rad add uly rad add translate
  rad rad scale 0 0 1 90 270 arc tMatrix setmatrix lrx rad sub lry rad
  sub translate rad rad scale 0 0 1 270 90 arc tMatrix setmatrix
  closepath} bdef
/FlrRR {MlrRR stroke } bdef
/PlrRR {MlrRR fill } bdef
/MtbRR {/lry xdef /lrx xdef /uly xdef /ulx xdef /rad lrx ulx sub 2 div def
  newpath tMatrix currentmatrix pop ulx rad add uly rad add translate
  rad rad scale 0 0 1 180 360 arc tMatrix setmatrix lrx rad sub lry rad
  sub translate rad rad scale 0 0 1 0 180 arc tMatrix setmatrix
  closepath} bdef
/FtbRR {MtbRR stroke } bdef
/PtbRR {MtbRR fill } bdef
/stri 6 array def /dtri 6 array def
/smat 6 array def /dmat 6 array def
/tmat1 6 array def /tmat2 6 array def /dif 3 array def
/asub {/ind2 exch def /ind1 exch def dup dup
  ind1 get exch ind2 get sub exch } bdef
/tri_to_matrix {
  2 0 asub 3 1 asub 4 0 asub 5 1 asub
  dup 0 get exch 1 get 7 -1 roll astore } bdef
/compute_transform {
  dmat dtri tri_to_matrix tmat1 invertmatrix 
  smat stri tri_to_matrix tmat2 concatmatrix } bdef
/ds {stri astore pop} bdef
/dt {dtri astore pop} bdef
/db {2 copy /cols xdef /rows xdef mul dup 3 mul string
  currentfile 
  3 index 0 eq {/ASCIIHexDecode filter}
  {/ASCII85Decode filter 3 index 2 eq {/RunLengthDecode filter} if }
  ifelse exch readstring pop
  dup 0 3 index getinterval /rbmap xdef
  dup 2 index dup getinterval /gbmap xdef
  1 index dup 2 mul exch getinterval /bbmap xdef pop pop}bdef
/it {gs np dtri aload pop moveto lineto lineto cp c
  cols rows 8 compute_transform 
  rbmap gbmap bbmap true 3 colorimage gr}bdef
/il {newpath moveto lineto stroke}bdef
currentdict end def
%%EndProlog

%%BeginSetup
MathWorks begin

0 cap

end
%%EndSetup

%%Page: 1 1
%%BeginPageSetup
%%PageBoundingBox:  -207   210   820   581
MathWorks begin
bpage
%%EndPageSetup

%%BeginObject: obj1
bplot

/dpi2point 12 def
portraitMode -2484 6972 csm

    0     0 12330  4445 rc
85 dict begin %Colortable dictionary
/c0 { 0.000000 0.000000 0.000000 sr} bdef
/c1 { 1.000000 1.000000 1.000000 sr} bdef
/c2 { 0.900000 0.000000 0.000000 sr} bdef
/c3 { 0.000000 0.820000 0.000000 sr} bdef
/c4 { 0.000000 0.000000 0.800000 sr} bdef
/c5 { 0.910000 0.820000 0.320000 sr} bdef
/c6 { 1.000000 0.260000 0.820000 sr} bdef
/c7 { 0.000000 0.820000 0.820000 sr} bdef
c0
1 j
1 sg
   0    0 12331 4446 rf
6 w
0 3623 10772 0 0 -3623 550 3956 4 MP
PP
-10772 0 0 3623 10772 0 0 -3623 550 3956 5 MP stroke
4 w
DO
0 sg
 550 3956 mt  550  333 L
 550  333 mt  550  333 L
1746 3956 mt 1746  333 L
1746  333 mt 1746  333 L
2943 3956 mt 2943  333 L
2943  333 mt 2943  333 L
4140 3956 mt 4140  333 L
4140  333 mt 4140  333 L
5337 3956 mt 5337  333 L
5337  333 mt 5337  333 L
6534 3956 mt 6534  333 L
6534  333 mt 6534  333 L
7731 3956 mt 7731  333 L
7731  333 mt 7731  333 L
8928 3956 mt 8928  333 L
8928  333 mt 8928  333 L
10125 3956 mt 10125  333 L
10125  333 mt 10125  333 L
11322 3956 mt 11322  333 L
11322  333 mt 11322  333 L
 550 3956 mt 11322 3956 L
11322 3956 mt 11322 3956 L
 550 3593 mt 11322 3593 L
11322 3593 mt 11322 3593 L
 550 3231 mt 11322 3231 L
11322 3231 mt 11322 3231 L
 550 2869 mt 11322 2869 L
11322 2869 mt 11322 2869 L
 550 2506 mt 11322 2506 L
11322 2506 mt 11322 2506 L
 550 2144 mt 11322 2144 L
11322 2144 mt 11322 2144 L
 550 1782 mt 11322 1782 L
11322 1782 mt 11322 1782 L
 550 1419 mt 11322 1419 L
11322 1419 mt 11322 1419 L
 550 1057 mt 11322 1057 L
11322 1057 mt 11322 1057 L
 550  695 mt 11322  695 L
11322  695 mt 11322  695 L
 550  333 mt 11322  333 L
11322  333 mt 11322  333 L
SO
6 w
 550 3956 mt 11322 3956 L
 550 3956 mt  550  333 L
 550 3956 mt  550 3848 L
%%IncludeResource: font Times-Roman
/Times-Roman /WindowsLatin1Encoding 168 FMSR

 508 4140 mt 
(0) s
1746 3956 mt 1746 3848 L
1639 4140 mt 
(TR) s
2943 3956 mt 2943 3848 L
2830 4140 mt 
(RO) s
4140 3956 mt 4140 3848 L
4038 4140 mt 
(PR) s
5337 3956 mt 5337 3848 L
5235 4140 mt 
(SR) s
6534 3956 mt 6534 3848 L
6418 4140 mt 
(OC) s
7731 3956 mt 7731 3848 L
7620 4140 mt 
(TX) s
8928 3956 mt 8928 3848 L
8821 4140 mt 
(BL) s
10125 3956 mt 10125 3848 L
10023 4140 mt 
(SC) s
11322 3956 mt 11322 3848 L
11280 4140 mt 
(0) s
 550 3956 mt  657 3956 L
 431 4016 mt 
(0) s
 550 3593 mt  657 3593 L
 305 3653 mt 
(0.1) s
 550 3231 mt  657 3231 L
 305 3291 mt 
(0.2) s
 550 2869 mt  657 2869 L
 305 2929 mt 
(0.3) s
 550 2506 mt  657 2506 L
 305 2566 mt 
(0.4) s
 550 2144 mt  657 2144 L
 305 2204 mt 
(0.5) s
 550 1782 mt  657 1782 L
 305 1842 mt 
(0.6) s
 550 1419 mt  657 1419 L
 305 1479 mt 
(0.7) s
 550 1057 mt  657 1057 L
 305 1117 mt 
(0.8) s
 550  695 mt  657  695 L
 305  755 mt 
(0.9) s
 550  333 mt  657  333 L
 431  393 mt 
(1) s
%%IncludeResource: font Times-Bold
/Times-Bold /WindowsLatin1Encoding 168 FMSR

3811  205 mt 
(SM Success Rates for Different Challeges with NCC/8DOF ) s
gs 550 333 10773 3624 rc
/c8 { 0.000000 0.000000 0.562500 sr} bdef
c8
0 2679 110 0 0 -2679 1281 3956 4 MP
PP
0 sg
-110 0 0 2679 110 0 0 -2679 1281 3956 5 MP stroke
c8
0 2504 110 0 0 -2504 2478 3956 4 MP
PP
0 sg
-110 0 0 2504 110 0 0 -2504 2478 3956 5 MP stroke
c8
0 2806 110 0 0 -2806 3675 3956 4 MP
PP
0 sg
-110 0 0 2806 110 0 0 -2806 3675 3956 5 MP stroke
c8
0 2786 109 0 0 -2786 4872 3956 4 MP
PP
0 sg
-109 0 0 2786 109 0 0 -2786 4872 3956 5 MP stroke
c8
0 789 109 0 0 -789 6069 3956 4 MP
PP
0 sg
-109 0 0 789 109 0 0 -789 6069 3956 5 MP stroke
c8
0 2164 109 0 0 -2164 7266 3956 4 MP
PP
0 sg
-109 0 0 2164 109 0 0 -2164 7266 3956 5 MP stroke
c8
0 1842 109 0 0 -1842 8463 3956 4 MP
PP
0 sg
-109 0 0 1842 109 0 0 -1842 8463 3956 5 MP stroke
c8
0 3373 109 0 0 -3373 9660 3956 4 MP
PP
0 sg
-109 0 0 3373 109 0 0 -3373 9660 3956 5 MP stroke
10772 0 550 3956 2 MP stroke
/c9 { 0.000000 0.187500 1.000000 sr} bdef
c9
0 2606 110 0 0 -2606 1418 3956 4 MP
PP
0 sg
-110 0 0 2606 110 0 0 -2606 1418 3956 5 MP stroke
c9
0 2331 109 0 0 -2331 2615 3956 4 MP
PP
0 sg
-109 0 0 2331 109 0 0 -2331 2615 3956 5 MP stroke
c9
0 2828 109 0 0 -2828 3812 3956 4 MP
PP
0 sg
-109 0 0 2828 109 0 0 -2828 3812 3956 5 MP stroke
c9
0 2610 109 0 0 -2610 5009 3956 4 MP
PP
0 sg
-109 0 0 2610 109 0 0 -2610 5009 3956 5 MP stroke
c9
0 915 109 0 0 -915 6206 3956 4 MP
PP
0 sg
-109 0 0 915 109 0 0 -915 6206 3956 5 MP stroke
c9
0 2113 109 0 0 -2113 7403 3956 4 MP
PP
0 sg
-109 0 0 2113 109 0 0 -2113 7403 3956 5 MP stroke
c9
0 1664 110 0 0 -1664 8599 3956 4 MP
PP
0 sg
-110 0 0 1664 110 0 0 -1664 8599 3956 5 MP stroke
c9
0 3283 110 0 0 -3283 9796 3956 4 MP
PP
0 sg
-110 0 0 3283 110 0 0 -3283 9796 3956 5 MP stroke
/c10 { 0.000000 0.875000 1.000000 sr} bdef
c10
0 2459 109 0 0 -2459 1555 3956 4 MP
PP
0 sg
-109 0 0 2459 109 0 0 -2459 1555 3956 5 MP stroke
c10
0 2327 109 0 0 -2327 2752 3956 4 MP
PP
0 sg
-109 0 0 2327 109 0 0 -2327 2752 3956 5 MP stroke
c10
0 2574 109 0 0 -2574 3949 3956 4 MP
PP
0 sg
-109 0 0 2574 109 0 0 -2574 3949 3956 5 MP stroke
c10
0 2615 109 0 0 -2615 5146 3956 4 MP
PP
0 sg
-109 0 0 2615 109 0 0 -2615 5146 3956 5 MP stroke
c10
0 809 110 0 0 -809 6342 3956 4 MP
PP
0 sg
-110 0 0 809 110 0 0 -809 6342 3956 5 MP stroke
c10
0 2719 110 0 0 -2719 7539 3956 4 MP
PP
0 sg
-110 0 0 2719 110 0 0 -2719 7539 3956 5 MP stroke
c10
0 1754 110 0 0 -1754 8736 3956 4 MP
PP
0 sg
-110 0 0 1754 110 0 0 -1754 8736 3956 5 MP stroke
c10
0 3021 110 0 0 -3021 9933 3956 4 MP
PP
0 sg
-110 0 0 3021 110 0 0 -3021 9933 3956 5 MP stroke
/c11 { 0.562500 1.000000 0.437500 sr} bdef
c11
0 2323 109 0 0 -2323 1692 3956 4 MP
PP
0 sg
-109 0 0 2323 109 0 0 -2323 1692 3956 5 MP stroke
c11
0 1745 109 0 0 -1745 2889 3956 4 MP
PP
0 sg
-109 0 0 1745 109 0 0 -1745 2889 3956 5 MP stroke
c11
0 2103 110 0 0 -2103 4085 3956 4 MP
PP
0 sg
-110 0 0 2103 110 0 0 -2103 4085 3956 5 MP stroke
c11
0 2194 110 0 0 -2194 5282 3956 4 MP
PP
0 sg
-110 0 0 2194 110 0 0 -2194 5282 3956 5 MP stroke
c11
0 672 110 0 0 -672 6479 3956 4 MP
PP
0 sg
-110 0 0 672 110 0 0 -672 6479 3956 5 MP stroke
c11
0 2122 110 0 0 -2122 7676 3956 4 MP
PP
0 sg
-110 0 0 2122 110 0 0 -2122 7676 3956 5 MP stroke
c11
0 1445 109 0 0 -1445 8873 3956 4 MP
PP
0 sg
-109 0 0 1445 109 0 0 -1445 8873 3956 5 MP stroke
c11
0 2981 109 0 0 -2981 10070 3956 4 MP
PP
0 sg
-109 0 0 2981 109 0 0 -2981 10070 3956 5 MP stroke
/c12 { 1.000000 0.812500 0.000000 sr} bdef
c12
0 2755 110 0 0 -2755 1828 3956 4 MP
PP
0 sg
-110 0 0 2755 110 0 0 -2755 1828 3956 5 MP stroke
c12
0 2655 110 0 0 -2655 3025 3956 4 MP
PP
0 sg
-110 0 0 2655 110 0 0 -2655 3025 3956 5 MP stroke
c12
0 2895 110 0 0 -2895 4222 3956 4 MP
PP
0 sg
-110 0 0 2895 110 0 0 -2895 4222 3956 5 MP stroke
c12
0 2800 110 0 0 -2800 5419 3956 4 MP
PP
0 sg
-110 0 0 2800 110 0 0 -2800 5419 3956 5 MP stroke
c12
0 880 109 0 0 -880 6616 3956 4 MP
PP
0 sg
-109 0 0 880 109 0 0 -880 6616 3956 5 MP stroke
c12
0 2149 109 0 0 -2149 7813 3956 4 MP
PP
0 sg
-109 0 0 2149 109 0 0 -2149 7813 3956 5 MP stroke
c12
0 1861 109 0 0 -1861 9010 3956 4 MP
PP
0 sg
-109 0 0 1861 109 0 0 -1861 9010 3956 5 MP stroke
c12
0 3480 109 0 0 -3480 10207 3956 4 MP
PP
0 sg
-109 0 0 3480 109 0 0 -3480 10207 3956 5 MP stroke
/c13 { 1.000000 0.125000 0.000000 sr} bdef
c13
0 2103 110 0 0 -2103 1965 3956 4 MP
PP
0 sg
-110 0 0 2103 110 0 0 -2103 1965 3956 5 MP stroke
c13
0 1624 110 0 0 -1624 3162 3956 4 MP
PP
0 sg
-110 0 0 1624 110 0 0 -1624 3162 3956 5 MP stroke
c13
0 2397 109 0 0 -2397 4359 3956 4 MP
PP
0 sg
-109 0 0 2397 109 0 0 -2397 4359 3956 5 MP stroke
c13
0 2437 109 0 0 -2437 5556 3956 4 MP
PP
0 sg
-109 0 0 2437 109 0 0 -2437 5556 3956 5 MP stroke
c13
0 768 109 0 0 -768 6753 3956 4 MP
PP
0 sg
-109 0 0 768 109 0 0 -768 6753 3956 5 MP stroke
c13
0 2197 109 0 0 -2197 7950 3956 4 MP
PP
0 sg
-109 0 0 2197 109 0 0 -2197 7950 3956 5 MP stroke
c13
0 1623 109 0 0 -1623 9147 3956 4 MP
PP
0 sg
-109 0 0 1623 109 0 0 -1623 9147 3956 5 MP stroke
c13
0 2845 110 0 0 -2845 10343 3956 4 MP
PP
0 sg
-110 0 0 2845 110 0 0 -2845 10343 3956 5 MP stroke
/c14 { 0.500000 0.000000 0.000000 sr} bdef
c14
0 2619 109 0 0 -2619 2102 3956 4 MP
PP
0 sg
-109 0 0 2619 109 0 0 -2619 2102 3956 5 MP stroke
c14
0 2381 109 0 0 -2381 3299 3956 4 MP
PP
0 sg
-109 0 0 2381 109 0 0 -2381 3299 3956 5 MP stroke
c14
0 2731 109 0 0 -2731 4496 3956 4 MP
PP
0 sg
-109 0 0 2731 109 0 0 -2731 4496 3956 5 MP stroke
c14
0 2736 109 0 0 -2736 5693 3956 4 MP
PP
0 sg
-109 0 0 2736 109 0 0 -2736 5693 3956 5 MP stroke
c14
0 481 109 0 0 -481 6890 3956 4 MP
PP
0 sg
-109 0 0 481 109 0 0 -481 6890 3956 5 MP stroke
c14
0 99 110 0 0 -99 8086 3956 4 MP
PP
0 sg
-110 0 0 99 110 0 0 -99 8086 3956 5 MP stroke
c14
0 1938 110 0 0 -1938 9283 3956 4 MP
PP
0 sg
-110 0 0 1938 110 0 0 -1938 9283 3956 5 MP stroke
c14
0 3278 110 0 0 -3278 10480 3956 4 MP
PP
0 sg
-110 0 0 3278 110 0 0 -3278 10480 3956 5 MP stroke
gr

%%IncludeResource: font Times-Roman
/Times-Roman /WindowsLatin1Encoding 168 FMSR

5580 4308 mt 
(challenges) s
 214 2605 mt  -90 rotate
(success count) s
90 rotate
%%IncludeResource: font Helvetica
/Helvetica /WindowsLatin1Encoding 120 FMSR

 533 3999 mt 
( ) s
11306  375 mt 
( ) s
1 sg
0 1533 981 0 0 -1533 11327 1859 4 MP
PP
-981 0 0 1533 981 0 0 -1533 11327 1859 5 MP stroke
4 w
DO
SO
6 w
0 sg
11327  326 mt 12308  326 L
11327 1859 mt 12308 1859 L
12308 1859 mt 12308  326 L
11327 1859 mt 11327  326 L
11327 1859 mt 12308 1859 L
11327 1859 mt 11327  326 L
11327  326 mt 12308  326 L
11327 1859 mt 12308 1859 L
12308 1859 mt 12308  326 L
11327 1859 mt 11327  326 L
%%IncludeResource: font Times-Roman
/Times-Roman /WindowsLatin1Encoding 168 FMSR

11795  511 mt 
(FCLK) s
gs 11327 326 982 1534 rc
c8
-360 0 0 160 360 0 0 -160 11399 533 5 MP
PP
0 sg
0 0 -360 0 0 160 360 0 0 -160 11399 533 6 MP stroke
gr

11795  724 mt 
(ICLK) s
gs 11327 326 982 1534 rc
c9
-360 0 0 160 360 0 0 -160 11399 746 5 MP
PP
0 sg
0 0 -360 0 0 160 360 0 0 -160 11399 746 6 MP stroke
gr

11795  937 mt 
(FALK) s
gs 11327 326 982 1534 rc
c10
-360 0 0 160 360 0 0 -160 11399 959 5 MP
PP
0 sg
0 0 -360 0 0 160 360 0 0 -160 11399 959 6 MP stroke
gr

11795 1150 mt 
(IALK) s
gs 11327 326 982 1534 rc
c11
-360 0 0 160 360 0 0 -160 11399 1172 5 MP
PP
0 sg
0 0 -360 0 0 160 360 0 0 -160 11399 1172 6 MP stroke
gr

11795 1363 mt 
(ESM) s
gs 11327 326 982 1534 rc
c12
-360 0 0 160 360 0 0 -160 11399 1385 5 MP
PP
0 sg
0 0 -360 0 0 160 360 0 0 -160 11399 1385 6 MP stroke
gr

11795 1576 mt 
(AESM) s
gs 11327 326 982 1534 rc
c13
-360 0 0 160 360 0 0 -160 11399 1598 5 MP
PP
0 sg
0 0 -360 0 0 160 360 0 0 -160 11399 1598 6 MP stroke
gr

11795 1789 mt 
(NNIC) s
gs 11327 326 982 1534 rc
c14
-360 0 0 160 360 0 0 -160 11399 1811 5 MP
PP
0 sg
0 0 -360 0 0 160 360 0 0 -160 11399 1811 6 MP stroke
gr


end %%Color Dict

eplot
%%EndObject

epage
end

showpage

%%Trailer
%%EOF
