%!PS-Adobe-3.0 EPSF-3.0
%%Creator: MATLAB, The MathWorks, Inc. Version 8.1.0.604 (R2013a). Operating System: Microsoft Windows 8.
%%Title: E:\UofA\Thesis\ICRA 2016\ssm_nesm_rscv.eps
%%CreationDate: 09/15/2015  16:08:19
%%DocumentNeededFonts: Times-Bold
%%+ Helvetica
%%DocumentProcessColors: Cyan Magenta Yellow Black
%%LanguageLevel: 2
%%Pages: 1
%%BoundingBox:  -207   180   820   611
%%EndComments

%%BeginProlog
% MathWorks dictionary
/MathWorks 160 dict begin
% definition operators
/bdef {bind def} bind def
/ldef {load def} bind def
/xdef {exch def} bdef
/xstore {exch store} bdef
% operator abbreviations
/c  /clip ldef
/cc /concat ldef
/cp /closepath ldef
/gr /grestore ldef
/gs /gsave ldef
/mt /moveto ldef
/np /newpath ldef
/cm /currentmatrix ldef
/sm /setmatrix ldef
/rm /rmoveto ldef
/rl /rlineto ldef
/s {show newpath} bdef
/sc {setcmykcolor} bdef
/sr /setrgbcolor ldef
/sg /setgray ldef
/w /setlinewidth ldef
/j /setlinejoin ldef
/cap /setlinecap ldef
/rc {rectclip} bdef
/rf {rectfill} bdef
% page state control
/pgsv () def
/bpage {/pgsv save def} bdef
/epage {pgsv restore} bdef
/bplot /gsave ldef
/eplot {stroke grestore} bdef
% orientation switch
/portraitMode 0 def /landscapeMode 1 def /rotateMode 2 def
% coordinate system mappings
/dpi2point 0 def
% font control
/FontSize 0 def
/FMS {/FontSize xstore findfont [FontSize 0 0 FontSize neg 0 0]
  makefont setfont} bdef
/ISOLatin1Encoding where {pop /WindowsLatin1Encoding 256 array bdef
ISOLatin1Encoding WindowsLatin1Encoding copy pop
/.notdef/.notdef/quotesinglbase/florin/quotedblbase/ellipsis/dagger
/daggerdbl/circumflex/perthousand/Scaron/guilsinglleft/OE/.notdef/.notdef
/.notdef/.notdef/quoteleft/quoteright/quotedblleft/quotedblright/bullet
/endash/emdash/tilde/trademark/scaron/guilsinglright/oe/.notdef/.notdef
/Ydieresis WindowsLatin1Encoding 128 32 getinterval astore pop}
{/WindowsLatin1Encoding StandardEncoding bdef} ifelse
/reencode {exch dup where {pop load} {pop StandardEncoding} ifelse
  exch dup 3 1 roll findfont dup length dict begin
  { 1 index /FID ne {def}{pop pop} ifelse } forall
  /Encoding exch def currentdict end definefont pop} bdef
/isroman {findfont /CharStrings get /Agrave known} bdef
/FMSR {3 1 roll 1 index dup isroman {reencode} {pop pop} ifelse
  exch FMS} bdef
/csm {1 dpi2point div -1 dpi2point div scale neg translate
 dup landscapeMode eq {pop -90 rotate}
  {rotateMode eq {90 rotate} if} ifelse} bdef
% line types: solid, dotted, dashed, dotdash
/SO { [] 0 setdash } bdef
/DO { [.5 dpi2point mul 4 dpi2point mul] 0 setdash } bdef
/DA { [6 dpi2point mul] 0 setdash } bdef
/DD { [.5 dpi2point mul 4 dpi2point mul 6 dpi2point mul 4
  dpi2point mul] 0 setdash } bdef
% macros for lines and objects
/L {lineto stroke} bdef
/MP {3 1 roll moveto 1 sub {rlineto} repeat} bdef
/AP {{rlineto} repeat} bdef
/PDlw -1 def
/W {/PDlw currentlinewidth def setlinewidth} def
/PP {closepath eofill} bdef
/DP {closepath stroke} bdef
/MR {4 -2 roll moveto dup  0 exch rlineto exch 0 rlineto
  neg 0 exch rlineto closepath} bdef
/FR {MR stroke} bdef
/PR {MR fill} bdef
/L1i {{currentfile picstr readhexstring pop} image} bdef
/tMatrix matrix def
/MakeOval {newpath tMatrix currentmatrix pop translate scale
0 0 1 0 360 arc tMatrix setmatrix} bdef
/FO {MakeOval stroke} bdef
/PO {MakeOval fill} bdef
/PD {currentlinewidth 2 div 0 360 arc fill
   PDlw -1 eq not {PDlw w /PDlw -1 def} if} def
/FA {newpath tMatrix currentmatrix pop translate scale
  0 0 1 5 -2 roll arc tMatrix setmatrix stroke} bdef
/PA {newpath tMatrix currentmatrix pop	translate 0 0 moveto scale
  0 0 1 5 -2 roll arc closepath tMatrix setmatrix fill} bdef
/FAn {newpath tMatrix currentmatrix pop translate scale
  0 0 1 5 -2 roll arcn tMatrix setmatrix stroke} bdef
/PAn {newpath tMatrix currentmatrix pop translate 0 0 moveto scale
  0 0 1 5 -2 roll arcn closepath tMatrix setmatrix fill} bdef
/vradius 0 def /hradius 0 def /lry 0 def
/lrx 0 def /uly 0 def /ulx 0 def /rad 0 def
/MRR {/vradius xdef /hradius xdef /lry xdef /lrx xdef /uly xdef
  /ulx xdef newpath tMatrix currentmatrix pop ulx hradius add uly
  vradius add translate hradius vradius scale 0 0 1 180 270 arc 
  tMatrix setmatrix lrx hradius sub uly vradius add translate
  hradius vradius scale 0 0 1 270 360 arc tMatrix setmatrix
  lrx hradius sub lry vradius sub translate hradius vradius scale
  0 0 1 0 90 arc tMatrix setmatrix ulx hradius add lry vradius sub
  translate hradius vradius scale 0 0 1 90 180 arc tMatrix setmatrix
  closepath} bdef
/FRR {MRR stroke } bdef
/PRR {MRR fill } bdef
/MlrRR {/lry xdef /lrx xdef /uly xdef /ulx xdef /rad lry uly sub 2 div def
  newpath tMatrix currentmatrix pop ulx rad add uly rad add translate
  rad rad scale 0 0 1 90 270 arc tMatrix setmatrix lrx rad sub lry rad
  sub translate rad rad scale 0 0 1 270 90 arc tMatrix setmatrix
  closepath} bdef
/FlrRR {MlrRR stroke } bdef
/PlrRR {MlrRR fill } bdef
/MtbRR {/lry xdef /lrx xdef /uly xdef /ulx xdef /rad lrx ulx sub 2 div def
  newpath tMatrix currentmatrix pop ulx rad add uly rad add translate
  rad rad scale 0 0 1 180 360 arc tMatrix setmatrix lrx rad sub lry rad
  sub translate rad rad scale 0 0 1 0 180 arc tMatrix setmatrix
  closepath} bdef
/FtbRR {MtbRR stroke } bdef
/PtbRR {MtbRR fill } bdef
/stri 6 array def /dtri 6 array def
/smat 6 array def /dmat 6 array def
/tmat1 6 array def /tmat2 6 array def /dif 3 array def
/asub {/ind2 exch def /ind1 exch def dup dup
  ind1 get exch ind2 get sub exch } bdef
/tri_to_matrix {
  2 0 asub 3 1 asub 4 0 asub 5 1 asub
  dup 0 get exch 1 get 7 -1 roll astore } bdef
/compute_transform {
  dmat dtri tri_to_matrix tmat1 invertmatrix 
  smat stri tri_to_matrix tmat2 concatmatrix } bdef
/ds {stri astore pop} bdef
/dt {dtri astore pop} bdef
/db {2 copy /cols xdef /rows xdef mul dup 3 mul string
  currentfile 
  3 index 0 eq {/ASCIIHexDecode filter}
  {/ASCII85Decode filter 3 index 2 eq {/RunLengthDecode filter} if }
  ifelse exch readstring pop
  dup 0 3 index getinterval /rbmap xdef
  dup 2 index dup getinterval /gbmap xdef
  1 index dup 2 mul exch getinterval /bbmap xdef pop pop}bdef
/it {gs np dtri aload pop moveto lineto lineto cp c
  cols rows 8 compute_transform 
  rbmap gbmap bbmap true 3 colorimage gr}bdef
/il {newpath moveto lineto stroke}bdef
currentdict end def
%%EndProlog

%%BeginSetup
MathWorks begin

0 cap

end
%%EndSetup

%%Page: 1 1
%%BeginPageSetup
%%PageBoundingBox:  -207   180   820   611
MathWorks begin
bpage
%%EndPageSetup

%%BeginObject: obj1
bplot

/dpi2point 12 def
portraitMode -2484 7332 csm

    0     0 12330  5165 rc
87 dict begin %Colortable dictionary
/c0 { 0.000000 0.000000 0.000000 sr} bdef
/c1 { 1.000000 1.000000 1.000000 sr} bdef
/c2 { 0.900000 0.000000 0.000000 sr} bdef
/c3 { 0.000000 0.820000 0.000000 sr} bdef
/c4 { 0.000000 0.000000 0.800000 sr} bdef
/c5 { 0.910000 0.820000 0.320000 sr} bdef
/c6 { 1.000000 0.260000 0.820000 sr} bdef
/c7 { 0.000000 0.820000 0.820000 sr} bdef
c0
1 j
1 sg
   0    0 12331 5166 rf
6 w
0 sg
%%IncludeResource: font Times-Bold
/Times-Bold /WindowsLatin1Encoding 168 FMSR

4096  266 mt 
(SSM Success Rates for NESM/RSCV \(corresponding GT\)) s
1 sg
0 4355 5454 0 0 -4355 6741 4742 4 MP
PP
-5454 0 0 4355 5454 0 0 -4355 6741 4742 5 MP stroke
4 w
DO
0 sg
6741 4742 mt 6741  387 L
6741  387 mt 6741  387 L
7286 4742 mt 7286  387 L
7286  387 mt 7286  387 L
7831 4742 mt 7831  387 L
7831  387 mt 7831  387 L
8377 4742 mt 8377  387 L
8377  387 mt 8377  387 L
8922 4742 mt 8922  387 L
8922  387 mt 8922  387 L
9468 4742 mt 9468  387 L
9468  387 mt 9468  387 L
10013 4742 mt 10013  387 L
10013  387 mt 10013  387 L
10558 4742 mt 10558  387 L
10558  387 mt 10558  387 L
11104 4742 mt 11104  387 L
11104  387 mt 11104  387 L
11649 4742 mt 11649  387 L
11649  387 mt 11649  387 L
12195 4742 mt 12195  387 L
12195  387 mt 12195  387 L
6741 4742 mt 12195 4742 L
12195 4742 mt 12195 4742 L
6741 4306 mt 12195 4306 L
12195 4306 mt 12195 4306 L
6741 3871 mt 12195 3871 L
12195 3871 mt 12195 3871 L
6741 3435 mt 12195 3435 L
12195 3435 mt 12195 3435 L
6741 3000 mt 12195 3000 L
12195 3000 mt 12195 3000 L
6741 2564 mt 12195 2564 L
12195 2564 mt 12195 2564 L
6741 2128 mt 12195 2128 L
12195 2128 mt 12195 2128 L
6741 1693 mt 12195 1693 L
12195 1693 mt 12195 1693 L
6741 1258 mt 12195 1258 L
12195 1258 mt 12195 1258 L
6741  822 mt 12195  822 L
12195  822 mt 12195  822 L
6741  387 mt 12195  387 L
12195  387 mt 12195  387 L
SO
6 w
6741 4742 mt 12195 4742 L
6741 4742 mt 6741  387 L
6741 4742 mt 6741 4687 L
6699 4933 mt 
(0) s
7286 4742 mt 7286 4687 L
7244 4933 mt 
(2) s
7831 4742 mt 7831 4687 L
7789 4933 mt 
(4) s
8377 4742 mt 8377 4687 L
8335 4933 mt 
(6) s
8922 4742 mt 8922 4687 L
8880 4933 mt 
(8) s
9468 4742 mt 9468 4687 L
9384 4933 mt 
(10) s
10013 4742 mt 10013 4687 L
9929 4933 mt 
(12) s
10558 4742 mt 10558 4687 L
10474 4933 mt 
(14) s
11104 4742 mt 11104 4687 L
11020 4933 mt 
(16) s
11649 4742 mt 11649 4687 L
11565 4933 mt 
(18) s
12195 4742 mt 12195 4687 L
12111 4933 mt 
(20) s
6741 4742 mt 6795 4742 L
6622 4804 mt 
(0) s
6741 4306 mt 6795 4306 L
6496 4368 mt 
(0.1) s
6741 3871 mt 6795 3871 L
6496 3933 mt 
(0.2) s
6741 3435 mt 6795 3435 L
6496 3497 mt 
(0.3) s
6741 3000 mt 6795 3000 L
6496 3062 mt 
(0.4) s
6741 2564 mt 6795 2564 L
6496 2626 mt 
(0.5) s
6741 2128 mt 6795 2128 L
6496 2190 mt 
(0.6) s
6741 1693 mt 6795 1693 L
6496 1755 mt 
(0.7) s
6741 1258 mt 6795 1258 L
6496 1320 mt 
(0.8) s
6741  822 mt 6795  822 L
6496  884 mt 
(0.9) s
6741  387 mt 6795  387 L
6622  449 mt 
(1) s
gs 6741 387 5455 4356 rc
36 w
/c8 { 1.000000 0.647059 0.000000 sr} bdef
c8
53 -3 52 -5 53 -3 52 0 52 -1 53 -5 52 -2 52 -4 
53 -6 52 -7 52 -4 53 -1 52 -3 52 0 53 -1 52 -1 
52 -7 53 -2 52 0 52 -5 53 0 52 0 52 -1 53 0 
52 -5 52 -7 53 0 52 -12 52 -1 53 -12 52 0 52 0 
53 -1 52 -2 52 -10 53 -1 52 -3 52 -7 53 -3 52 -4 
52 -3 53 -2 52 -6 52 -7 53 -3 52 -3 52 -6 53 -6 
52 -8 52 -12 53 -10 52 -14 52 -8 53 -8 52 -10 52 -7 
53 -10 52 -6 52 -11 53 -6 52 -5 52 -7 53 -4 52 -5 
52 -10 53 -4 52 -6 52 -3 53 -5 52 -4 52 -5 53 -5 
52 -4 52 -4 53 -9 52 -9 52 -5 53 -3 52 -6 52 -6 
53 -8 52 -8 52 -4 53 -11 52 -14 52 -9 53 -12 52 -13 
52 -18 53 -17 52 -15 52 -13 53 -114 52 -308 52 -136 53 -93 
52 -69 52 -58 53 -58 7013 3484 100 MP stroke
0 sg
53 0 52 -4 53 0 52 -6 52 -20 53 -10 52 -4 52 -1 
53 -2 52 -4 52 0 53 -1 52 -4 52 -3 53 -1 52 -5 
52 -4 53 -4 52 -4 52 -11 53 0 52 -9 52 -3 53 -9 
52 -4 52 -7 53 -2 52 -4 52 -7 53 -3 52 -2 52 -4 
53 -2 52 -4 52 -3 53 -7 52 0 52 -1 53 -1 52 -1 
52 -4 53 -1 52 -7 52 -4 53 -4 52 -10 52 -10 53 -17 
52 -10 52 -9 53 -9 52 -5 52 -10 53 -6 52 -7 52 -8 
53 -9 52 -7 52 -9 53 -7 52 -11 52 -4 53 -6 52 -9 
52 -13 53 -6 52 -8 52 -12 53 -7 52 -5 52 -13 53 -7 
52 -10 52 -297 53 -255 52 -8 52 -8 53 -14 52 -12 52 -12 
53 -16 52 -15 52 -18 53 -10 52 -22 52 -27 53 -36 52 -47 
52 -76 53 -111 52 -257 52 -111 53 -81 52 -54 52 -54 53 -49 
52 -77 52 -110 53 -70 7013 4288 100 MP stroke
/c9 { 0.000000 1.000000 0.000000 sr} bdef
c9
53 -11 52 -4 53 -6 52 -2 52 0 53 -2 52 -1 52 -4 
53 -1 52 -5 52 -2 53 -6 52 0 52 -3 53 -1 52 -8 
52 -1 53 -1 52 -6 52 -3 53 -4 52 -4 52 -4 53 -5 
52 -1 52 -4 53 -2 52 -1 52 -7 53 -4 52 -3 52 -6 
53 -3 52 -4 52 -7 53 -6 52 -11 52 -8 53 -13 52 -7 
52 -3 53 -5 52 -4 52 -5 53 -15 52 -11 52 -17 53 -9 
52 -18 52 -7 53 -20 52 -16 52 -14 53 -10 52 -23 52 -13 
53 -21 52 -24 52 -30 53 -28 52 -35 52 -33 53 -26 52 -32 
52 -32 53 -36 52 -61 52 -34 53 -40 52 -33 52 -27 53 -16 
52 -27 52 -32 53 -61 52 -52 52 -51 53 -69 52 -95 52 -97 
53 -83 52 -99 52 -98 53 -72 52 -90 52 -73 53 -64 52 -71 
52 -48 53 -65 52 -72 52 -78 53 -88 52 -87 52 -40 53 -50 
52 -32 52 -49 53 -44 7013 4441 100 MP stroke
/c10 { 0.000000 0.000000 1.000000 sr} bdef
c10
53 -4 52 -3 53 0 52 0 52 -3 53 -4 52 -6 52 -2 
53 -2 52 -5 52 -5 53 -2 52 0 52 -5 53 -3 52 -3 
52 -1 53 -1 52 -5 52 -6 53 -1 52 -1 52 -9 53 -1 
52 -4 52 -1 53 -2 52 -3 52 -4 53 -4 52 -4 52 -1 
53 -5 52 -7 52 -3 53 -2 52 -4 52 -3 53 -6 52 -9 
52 -6 53 -5 52 -2 52 -8 53 -4 52 -2 52 -6 53 -2 
52 -4 52 -3 53 -5 52 -3 52 -9 53 -4 52 0 52 -4 
53 -9 52 -2 52 -10 53 -7 52 -6 52 -11 53 -21 52 -6 
52 -20 53 -27 52 -24 52 -17 53 -22 52 -17 52 -25 53 -26 
52 -22 52 -21 53 -30 52 -37 52 -25 53 -42 52 -42 52 -27 
53 -37 52 -53 52 -38 53 -67 52 -52 52 -68 53 -49 52 -60 
52 -79 53 -81 52 -99 52 -123 53 -161 52 -204 52 -120 53 -113 
52 -122 52 -164 53 -134 7013 4217 100 MP stroke
/c11 { 1.000000 0.000000 0.000000 sr} bdef
c11
53 0 52 -1 53 -1 52 -6 52 -1 53 -1 52 -2 52 -10 
53 0 52 -2 52 -5 53 -2 52 -1 52 -2 53 -3 52 -9 
52 -2 53 -7 52 -2 52 -2 53 -3 52 0 52 -4 53 -3 
52 0 52 -1 53 -1 52 -6 52 -3 53 -4 52 -6 52 -5 
53 -1 52 -4 52 -1 53 0 52 -2 52 -5 53 -5 52 -3 
52 -7 53 -4 52 -4 52 -5 53 -3 52 -3 52 -1 53 -2 
52 -3 52 -4 53 -2 52 -4 52 -3 53 -8 52 -2 52 -6 
53 -3 52 -5 52 -4 53 -1 52 -4 52 -3 53 -5 52 -3 
52 -5 53 -7 52 -4 52 -5 53 -5 52 -6 52 -4 53 -12 
52 -6 52 -5 53 -6 52 -4 52 -18 53 -5 52 -6 52 -11 
53 -9 52 -6 52 -12 53 -17 52 -46 52 -22 53 -23 52 -28 
52 -24 53 -44 52 -83 52 -115 53 -135 52 -234 52 -287 53 -179 
52 -143 52 -156 53 -173 7013 3746 100 MP stroke
gr

36 w
c11
0 sg
7359  727 mt 
(UCSB Dataset) s
8873 5104 mt 
(Error Threshold) s
6405 3025 mt  -90 rotate
(Success Rate) s
90 rotate
6 w
1 sg
0 4364 5634 0 0 -4364 549 4751 4 MP
PP
-5634 0 0 4364 5634 0 0 -4364 549 4751 5 MP stroke
4 w
DO
0 sg
 549 4751 mt  549  387 L
 549  387 mt  549  387 L
1112 4751 mt 1112  387 L
1112  387 mt 1112  387 L
1675 4751 mt 1675  387 L
1675  387 mt 1675  387 L
2239 4751 mt 2239  387 L
2239  387 mt 2239  387 L
2802 4751 mt 2802  387 L
2802  387 mt 2802  387 L
3366 4751 mt 3366  387 L
3366  387 mt 3366  387 L
3929 4751 mt 3929  387 L
3929  387 mt 3929  387 L
4492 4751 mt 4492  387 L
4492  387 mt 4492  387 L
5056 4751 mt 5056  387 L
5056  387 mt 5056  387 L
5619 4751 mt 5619  387 L
5619  387 mt 5619  387 L
6183 4751 mt 6183  387 L
6183  387 mt 6183  387 L
 549 4751 mt 6183 4751 L
6183 4751 mt 6183 4751 L
 549 4314 mt 6183 4314 L
6183 4314 mt 6183 4314 L
 549 3878 mt 6183 3878 L
6183 3878 mt 6183 3878 L
 549 3441 mt 6183 3441 L
6183 3441 mt 6183 3441 L
 549 3005 mt 6183 3005 L
6183 3005 mt 6183 3005 L
 549 2569 mt 6183 2569 L
6183 2569 mt 6183 2569 L
 549 2132 mt 6183 2132 L
6183 2132 mt 6183 2132 L
 549 1696 mt 6183 1696 L
6183 1696 mt 6183 1696 L
 549 1259 mt 6183 1259 L
6183 1259 mt 6183 1259 L
 549  823 mt 6183  823 L
6183  823 mt 6183  823 L
 549  387 mt 6183  387 L
6183  387 mt 6183  387 L
SO
6 w
 549 4751 mt 6183 4751 L
 549 4751 mt  549  387 L
 549 4751 mt  549 4694 L
 507 4942 mt 
(0) s
1112 4751 mt 1112 4694 L
1070 4942 mt 
(2) s
1675 4751 mt 1675 4694 L
1633 4942 mt 
(4) s
2239 4751 mt 2239 4694 L
2197 4942 mt 
(6) s
2802 4751 mt 2802 4694 L
2760 4942 mt 
(8) s
3366 4751 mt 3366 4694 L
3282 4942 mt 
(10) s
3929 4751 mt 3929 4694 L
3845 4942 mt 
(12) s
4492 4751 mt 4492 4694 L
4408 4942 mt 
(14) s
5056 4751 mt 5056 4694 L
4972 4942 mt 
(16) s
5619 4751 mt 5619 4694 L
5535 4942 mt 
(18) s
6183 4751 mt 6183 4694 L
6099 4942 mt 
(20) s
 549 4751 mt  605 4751 L
 430 4813 mt 
(0) s
 549 4314 mt  605 4314 L
 304 4376 mt 
(0.1) s
 549 3878 mt  605 3878 L
 304 3940 mt 
(0.2) s
 549 3441 mt  605 3441 L
 304 3503 mt 
(0.3) s
 549 3005 mt  605 3005 L
 304 3067 mt 
(0.4) s
 549 2569 mt  605 2569 L
 304 2631 mt 
(0.5) s
 549 2132 mt  605 2132 L
 304 2194 mt 
(0.6) s
 549 1696 mt  605 1696 L
 304 1758 mt 
(0.7) s
 549 1259 mt  605 1259 L
 304 1321 mt 
(0.8) s
 549  823 mt  605  823 L
 304  885 mt 
(0.9) s
 549  387 mt  605  387 L
 430  449 mt 
(1) s
gs 549 387 5635 4365 rc
36 w
c8
55 0 54 0 54 -1 54 0 54 -1 54 0 54 0 54 -1 
54 0 54 -1 54 -2 54 0 54 -1 54 -2 54 -1 55 -1 
54 -1 54 -2 54 -1 54 -2 54 -2 54 -2 54 -2 54 -1 
54 -1 54 -2 54 -1 54 -1 54 -2 54 -1 54 -2 55 -1 
54 -2 54 -1 54 -2 54 -2 54 -2 54 -1 54 -2 54 -3 
54 -3 54 -3 54 -3 54 -1 54 -2 54 -3 54 -2 55 -3 
54 -3 54 -3 54 -3 54 -4 54 -5 54 -4 54 -4 54 -5 
54 -4 54 -5 54 -4 54 -6 54 -7 54 -5 55 -5 54 -6 
54 -5 54 -6 54 -7 54 -6 54 -8 54 -11 54 -11 54 -10 
54 -9 54 -12 54 -12 54 -13 54 -12 54 -16 55 -15 54 -15 
54 -17 54 -17 54 -19 54 -24 54 -24 54 -30 54 -30 54 -35 
54 -37 54 -39 54 -54 54 -61 54 -71 54 -85 55 -87 54 -97 
54 -118 54 -127 54 -143 830 2367 100 MP stroke
0 sg
55 -1 54 -1 54 -2 54 -2 54 -1 54 -2 54 -2 54 -2 
54 -2 54 -1 54 -2 54 -1 54 -2 54 -1 54 -2 55 -2 
54 -1 54 -2 54 -2 54 -2 54 -2 54 -2 54 -1 54 -2 
54 -1 54 -2 54 -4 54 -4 54 -4 54 -4 54 -4 55 -2 
54 -2 54 -4 54 -5 54 -3 54 -3 54 -3 54 -4 54 -3 
54 -5 54 -3 54 -6 54 -4 54 -5 54 -5 54 -4 55 -6 
54 -6 54 -10 54 -8 54 -9 54 -10 54 -13 54 -12 54 -11 
54 -13 54 -10 54 -13 54 -14 54 -15 54 -16 55 -20 54 -63 
54 -21 54 -17 54 -16 54 -21 54 -22 54 -21 54 -23 54 -20 
54 -24 54 -32 54 -28 54 -25 54 -35 54 -41 55 -47 54 -86 
54 -74 54 -56 54 -36 54 -39 54 -54 54 -39 54 -40 54 -50 
54 -112 54 -63 54 -91 54 -98 54 -121 54 -195 55 -135 54 -196 
54 -265 54 -311 54 -256 830 3943 100 MP stroke
c9
55 -2 54 -3 54 -3 54 -2 54 -3 54 -2 54 -4 54 -2 
54 -3 54 -2 54 -3 54 -2 54 -2 54 -3 54 -3 55 -2 
54 -3 54 -4 54 -5 54 -4 54 -4 54 -4 54 -3 54 -5 
54 -4 54 -5 54 -5 54 -5 54 -4 54 -3 54 -3 55 -5 
54 -4 54 -4 54 -4 54 -6 54 -5 54 -6 54 -7 54 -8 
54 -7 54 -9 54 -10 54 -10 54 -8 54 -13 54 -15 55 -10 
54 -8 54 -8 54 -12 54 -11 54 -10 54 -14 54 -20 54 -20 
54 -16 54 -16 54 -16 54 -16 54 -27 54 -18 55 -26 54 -21 
54 -28 54 -25 54 -31 54 -43 54 -34 54 -35 54 -38 54 -44 
54 -49 54 -46 54 -48 54 -46 54 -73 54 -79 55 -59 54 -61 
54 -66 54 -76 54 -90 54 -90 54 -79 54 -169 54 -155 54 -167 
54 -109 54 -95 54 -105 54 -90 54 -80 54 -71 55 -86 54 -103 
54 -130 54 -82 54 -72 830 4485 100 MP stroke
c10
55 -4 54 -4 54 -4 54 -3 54 -3 54 -3 54 -4 54 -5 
54 -3 54 -4 54 -4 54 -4 54 -3 54 -4 54 -4 55 -5 
54 -4 54 -3 54 -5 54 -7 54 -6 54 -5 54 -5 54 -4 
54 -4 54 -4 54 -6 54 -8 54 -7 54 -7 54 -6 55 -8 
54 -9 54 -14 54 -11 54 -8 54 -6 54 -8 54 -7 54 -7 
54 -9 54 -7 54 -10 54 -11 54 -12 54 -13 54 -11 55 -10 
54 -12 54 -9 54 -10 54 -12 54 -9 54 -9 54 -9 54 -13 
54 -16 54 -15 54 -17 54 -14 54 -16 54 -14 55 -14 54 -15 
54 -14 54 -16 54 -19 54 -28 54 -21 54 -18 54 -22 54 -29 
54 -52 54 -30 54 -29 54 -31 54 -31 54 -32 55 -32 54 -40 
54 -52 54 -61 54 -57 54 -52 54 -64 54 -78 54 -100 54 -138 
54 -108 54 -100 54 -111 54 -133 54 -127 54 -115 55 -189 54 -161 
54 -129 54 -135 54 -206 830 4216 100 MP stroke
c11
55 -2 54 -2 54 -4 54 -3 54 -3 54 -3 54 -3 54 -3 
54 -3 54 -4 54 -5 54 -5 54 -4 54 -5 54 -4 55 -5 
54 -4 54 -6 54 -4 54 -5 54 -3 54 -4 54 -5 54 -6 
54 -5 54 -4 54 -4 54 -7 54 -6 54 -9 54 -7 55 -6 
54 -14 54 -7 54 -5 54 -5 54 -9 54 -7 54 -5 54 -6 
54 -6 54 -5 54 -7 54 -10 54 -10 54 -12 54 -7 55 -12 
54 -12 54 -7 54 -9 54 -12 54 -14 54 -16 54 -13 54 -11 
54 -11 54 -11 54 -11 54 -10 54 -11 54 -14 55 -15 54 -14 
54 -15 54 -14 54 -15 54 -13 54 -11 54 -13 54 -13 54 -13 
54 -12 54 -14 54 -12 54 -19 54 -16 54 -18 55 -20 54 -20 
54 -24 54 -26 54 -33 54 -35 54 -36 54 -39 54 -57 54 -48 
54 -38 54 -36 54 -36 54 -39 54 -62 54 -89 55 -108 54 -112 
54 -130 54 -228 54 -243 830 3415 100 MP stroke
gr

36 w
c11
0 sg
1176  691 mt 
(TMT Dataset) s
2771 5113 mt 
(Error Threshold) s
 213 3030 mt  -90 rotate
(Success Rate) s
90 rotate
%%IncludeResource: font Helvetica
/Helvetica /WindowsLatin1Encoding 120 FMSR

 532 4794 mt 
( ) s
6167  429 mt 
( ) s
6 w
1 sg
0 927 846 0 0 -927 11305 1377 4 MP
PP
-846 0 0 927 846 0 0 -927 11305 1377 5 MP stroke
4 w
DO
SO
6 w
0 sg
11305  450 mt 12151  450 L
11305 1377 mt 12151 1377 L
12151 1377 mt 12151  450 L
11305 1377 mt 11305  450 L
11305 1377 mt 12151 1377 L
11305 1377 mt 11305  450 L
11305  450 mt 12151  450 L
11305 1377 mt 12151 1377 L
12151 1377 mt 12151  450 L
11305 1377 mt 11305  450 L
%%IncludeResource: font Times-Bold
/Times-Bold /WindowsLatin1Encoding 120 FMSR

11774  603 mt 
(8DOF) s
gs 11305 450 847 928 rc
36 w
c8
360 0 11377 559 2 MP stroke
gr

36 w
c8
0 sg
11774  780 mt 
(6DOF) s
gs 11305 450 847 928 rc
360 0 11377 736 2 MP stroke
gr

11774  957 mt 
(4DOF) s
gs 11305 450 847 928 rc
c9
360 0 11377 913 2 MP stroke
gr

c9
0 sg
11774 1134 mt 
(3DOF) s
gs 11305 450 847 928 rc
c10
360 0 11377 1090 2 MP stroke
gr

c10
0 sg
11774 1311 mt 
(2DOF) s
gs 11305 450 847 928 rc
c11
360 0 11377 1267 2 MP stroke
6 w
gr

6 w
c11

end %%Color Dict

eplot
%%EndObject

epage
end

showpage

%%Trailer
%%EOF
