%!PS-Adobe-3.0 EPSF-3.0
%%Creator: MATLAB, The MathWorks, Inc. Version 8.1.0.604 (R2013a). Operating System: Microsoft Windows 8.
%%Title: E:\UofA\Thesis\ICRA 2016\ssm_fclk_rscv.eps
%%CreationDate: 09/15/2015  02:48:54
%%DocumentNeededFonts: Times-Roman
%%+ Helvetica
%%+ Times-Bold
%%DocumentProcessColors: Cyan Magenta Yellow Black
%%LanguageLevel: 2
%%Pages: 1
%%BoundingBox:   -56   232   668   559
%%EndComments

%%BeginProlog
% MathWorks dictionary
/MathWorks 160 dict begin
% definition operators
/bdef {bind def} bind def
/ldef {load def} bind def
/xdef {exch def} bdef
/xstore {exch store} bdef
% operator abbreviations
/c  /clip ldef
/cc /concat ldef
/cp /closepath ldef
/gr /grestore ldef
/gs /gsave ldef
/mt /moveto ldef
/np /newpath ldef
/cm /currentmatrix ldef
/sm /setmatrix ldef
/rm /rmoveto ldef
/rl /rlineto ldef
/s {show newpath} bdef
/sc {setcmykcolor} bdef
/sr /setrgbcolor ldef
/sg /setgray ldef
/w /setlinewidth ldef
/j /setlinejoin ldef
/cap /setlinecap ldef
/rc {rectclip} bdef
/rf {rectfill} bdef
% page state control
/pgsv () def
/bpage {/pgsv save def} bdef
/epage {pgsv restore} bdef
/bplot /gsave ldef
/eplot {stroke grestore} bdef
% orientation switch
/portraitMode 0 def /landscapeMode 1 def /rotateMode 2 def
% coordinate system mappings
/dpi2point 0 def
% font control
/FontSize 0 def
/FMS {/FontSize xstore findfont [FontSize 0 0 FontSize neg 0 0]
  makefont setfont} bdef
/ISOLatin1Encoding where {pop /WindowsLatin1Encoding 256 array bdef
ISOLatin1Encoding WindowsLatin1Encoding copy pop
/.notdef/.notdef/quotesinglbase/florin/quotedblbase/ellipsis/dagger
/daggerdbl/circumflex/perthousand/Scaron/guilsinglleft/OE/.notdef/.notdef
/.notdef/.notdef/quoteleft/quoteright/quotedblleft/quotedblright/bullet
/endash/emdash/tilde/trademark/scaron/guilsinglright/oe/.notdef/.notdef
/Ydieresis WindowsLatin1Encoding 128 32 getinterval astore pop}
{/WindowsLatin1Encoding StandardEncoding bdef} ifelse
/reencode {exch dup where {pop load} {pop StandardEncoding} ifelse
  exch dup 3 1 roll findfont dup length dict begin
  { 1 index /FID ne {def}{pop pop} ifelse } forall
  /Encoding exch def currentdict end definefont pop} bdef
/isroman {findfont /CharStrings get /Agrave known} bdef
/FMSR {3 1 roll 1 index dup isroman {reencode} {pop pop} ifelse
  exch FMS} bdef
/csm {1 dpi2point div -1 dpi2point div scale neg translate
 dup landscapeMode eq {pop -90 rotate}
  {rotateMode eq {90 rotate} if} ifelse} bdef
% line types: solid, dotted, dashed, dotdash
/SO { [] 0 setdash } bdef
/DO { [.5 dpi2point mul 4 dpi2point mul] 0 setdash } bdef
/DA { [6 dpi2point mul] 0 setdash } bdef
/DD { [.5 dpi2point mul 4 dpi2point mul 6 dpi2point mul 4
  dpi2point mul] 0 setdash } bdef
% macros for lines and objects
/L {lineto stroke} bdef
/MP {3 1 roll moveto 1 sub {rlineto} repeat} bdef
/AP {{rlineto} repeat} bdef
/PDlw -1 def
/W {/PDlw currentlinewidth def setlinewidth} def
/PP {closepath eofill} bdef
/DP {closepath stroke} bdef
/MR {4 -2 roll moveto dup  0 exch rlineto exch 0 rlineto
  neg 0 exch rlineto closepath} bdef
/FR {MR stroke} bdef
/PR {MR fill} bdef
/L1i {{currentfile picstr readhexstring pop} image} bdef
/tMatrix matrix def
/MakeOval {newpath tMatrix currentmatrix pop translate scale
0 0 1 0 360 arc tMatrix setmatrix} bdef
/FO {MakeOval stroke} bdef
/PO {MakeOval fill} bdef
/PD {currentlinewidth 2 div 0 360 arc fill
   PDlw -1 eq not {PDlw w /PDlw -1 def} if} def
/FA {newpath tMatrix currentmatrix pop translate scale
  0 0 1 5 -2 roll arc tMatrix setmatrix stroke} bdef
/PA {newpath tMatrix currentmatrix pop	translate 0 0 moveto scale
  0 0 1 5 -2 roll arc closepath tMatrix setmatrix fill} bdef
/FAn {newpath tMatrix currentmatrix pop translate scale
  0 0 1 5 -2 roll arcn tMatrix setmatrix stroke} bdef
/PAn {newpath tMatrix currentmatrix pop translate 0 0 moveto scale
  0 0 1 5 -2 roll arcn closepath tMatrix setmatrix fill} bdef
/vradius 0 def /hradius 0 def /lry 0 def
/lrx 0 def /uly 0 def /ulx 0 def /rad 0 def
/MRR {/vradius xdef /hradius xdef /lry xdef /lrx xdef /uly xdef
  /ulx xdef newpath tMatrix currentmatrix pop ulx hradius add uly
  vradius add translate hradius vradius scale 0 0 1 180 270 arc 
  tMatrix setmatrix lrx hradius sub uly vradius add translate
  hradius vradius scale 0 0 1 270 360 arc tMatrix setmatrix
  lrx hradius sub lry vradius sub translate hradius vradius scale
  0 0 1 0 90 arc tMatrix setmatrix ulx hradius add lry vradius sub
  translate hradius vradius scale 0 0 1 90 180 arc tMatrix setmatrix
  closepath} bdef
/FRR {MRR stroke } bdef
/PRR {MRR fill } bdef
/MlrRR {/lry xdef /lrx xdef /uly xdef /ulx xdef /rad lry uly sub 2 div def
  newpath tMatrix currentmatrix pop ulx rad add uly rad add translate
  rad rad scale 0 0 1 90 270 arc tMatrix setmatrix lrx rad sub lry rad
  sub translate rad rad scale 0 0 1 270 90 arc tMatrix setmatrix
  closepath} bdef
/FlrRR {MlrRR stroke } bdef
/PlrRR {MlrRR fill } bdef
/MtbRR {/lry xdef /lrx xdef /uly xdef /ulx xdef /rad lrx ulx sub 2 div def
  newpath tMatrix currentmatrix pop ulx rad add uly rad add translate
  rad rad scale 0 0 1 180 360 arc tMatrix setmatrix lrx rad sub lry rad
  sub translate rad rad scale 0 0 1 0 180 arc tMatrix setmatrix
  closepath} bdef
/FtbRR {MtbRR stroke } bdef
/PtbRR {MtbRR fill } bdef
/stri 6 array def /dtri 6 array def
/smat 6 array def /dmat 6 array def
/tmat1 6 array def /tmat2 6 array def /dif 3 array def
/asub {/ind2 exch def /ind1 exch def dup dup
  ind1 get exch ind2 get sub exch } bdef
/tri_to_matrix {
  2 0 asub 3 1 asub 4 0 asub 5 1 asub
  dup 0 get exch 1 get 7 -1 roll astore } bdef
/compute_transform {
  dmat dtri tri_to_matrix tmat1 invertmatrix 
  smat stri tri_to_matrix tmat2 concatmatrix } bdef
/ds {stri astore pop} bdef
/dt {dtri astore pop} bdef
/db {2 copy /cols xdef /rows xdef mul dup 3 mul string
  currentfile 
  3 index 0 eq {/ASCIIHexDecode filter}
  {/ASCII85Decode filter 3 index 2 eq {/RunLengthDecode filter} if }
  ifelse exch readstring pop
  dup 0 3 index getinterval /rbmap xdef
  dup 2 index dup getinterval /gbmap xdef
  1 index dup 2 mul exch getinterval /bbmap xdef pop pop}bdef
/it {gs np dtri aload pop moveto lineto lineto cp c
  cols rows 8 compute_transform 
  rbmap gbmap bbmap true 3 colorimage gr}bdef
/il {newpath moveto lineto stroke}bdef
currentdict end def
%%EndProlog

%%BeginSetup
MathWorks begin

0 cap

end
%%EndSetup

%%Page: 1 1
%%BeginPageSetup
%%PageBoundingBox:   -56   232   668   559
MathWorks begin
bpage
%%EndPageSetup

%%BeginObject: obj1
bplot

/dpi2point 12 def
portraitMode -0672 6708 csm

    0     0  8693  3924 rc
87 dict begin %Colortable dictionary
/c0 { 0.000000 0.000000 0.000000 sr} bdef
/c1 { 1.000000 1.000000 1.000000 sr} bdef
/c2 { 0.900000 0.000000 0.000000 sr} bdef
/c3 { 0.000000 0.820000 0.000000 sr} bdef
/c4 { 0.000000 0.000000 0.800000 sr} bdef
/c5 { 0.910000 0.820000 0.320000 sr} bdef
/c6 { 1.000000 0.260000 0.820000 sr} bdef
/c7 { 0.000000 0.820000 0.820000 sr} bdef
c0
1 j
1 sg
   0    0 8694 3925 rf
6 w
0 sg
%%IncludeResource: font Times-Bold
/Times-Bold /WindowsLatin1Encoding 192 FMSR

2438  184 mt 
(SSM Success Rates for FCLK \(corresponding GT\)) s
1 sg
0 3198 3830 0 0 -3198 4789 3492 4 MP
PP
-3830 0 0 3198 3830 0 0 -3198 4789 3492 5 MP stroke
4 w
DO
0 sg
4789 3492 mt 4789  294 L
4789  294 mt 4789  294 L
5746 3492 mt 5746  294 L
5746  294 mt 5746  294 L
6704 3492 mt 6704  294 L
6704  294 mt 6704  294 L
7661 3492 mt 7661  294 L
7661  294 mt 7661  294 L
8619 3492 mt 8619  294 L
8619  294 mt 8619  294 L
4789 3492 mt 8619 3492 L
8619 3492 mt 8619 3492 L
4789 2852 mt 8619 2852 L
8619 2852 mt 8619 2852 L
4789 2212 mt 8619 2212 L
8619 2212 mt 8619 2212 L
4789 1573 mt 8619 1573 L
8619 1573 mt 8619 1573 L
4789  933 mt 8619  933 L
8619  933 mt 8619  933 L
4789  294 mt 8619  294 L
8619  294 mt 8619  294 L
SO
6 w
4789 3492 mt 8619 3492 L
4789 3492 mt 4789  294 L
4789 3492 mt 4789 3453 L
%%IncludeResource: font Times-Roman
/Times-Roman /WindowsLatin1Encoding 168 FMSR

4747 3676 mt 
(0) s
5746 3492 mt 5746 3453 L
5704 3676 mt 
(5) s
6704 3492 mt 6704 3453 L
6620 3676 mt 
(10) s
7661 3492 mt 7661 3453 L
7577 3676 mt 
(15) s
8619 3492 mt 8619 3453 L
8535 3676 mt 
(20) s
4789 3492 mt 4827 3492 L
4670 3552 mt 
(0) s
4789 2852 mt 4827 2852 L
4544 2912 mt 
(0.2) s
4789 2212 mt 4827 2212 L
4544 2272 mt 
(0.4) s
4789 1573 mt 4827 1573 L
4544 1633 mt 
(0.6) s
4789  933 mt 4827  933 L
4544  993 mt 
(0.8) s
4789  294 mt 4827  294 L
4670  354 mt 
(1) s
gs 4789 294 3831 3199 rc
36 w
/c8 { 1.000000 0.647059 0.000000 sr} bdef
c8
37 -2 37 -2 37 0 37 -8 36 0 37 -1 37 -7 37 -2 
36 -2 37 -4 37 -3 37 -3 36 -1 37 -1 37 -4 37 -4 
36 -2 37 -5 37 0 37 -5 36 -2 37 0 37 0 37 -2 
36 -5 37 0 37 0 37 -1 36 -2 37 -5 37 0 37 0 
36 0 37 -2 37 -1 37 -1 36 0 37 -1 37 -1 37 -4 
36 -2 37 -1 37 -2 37 -4 36 -1 37 -3 37 -3 37 -10 
36 -10 37 -7 37 -7 37 -8 36 -8 37 -4 37 -5 37 -4 
36 -5 37 -4 37 -5 37 -4 36 -4 37 -6 37 -4 37 -5 
36 -4 37 -3 37 -5 37 -3 36 -5 37 -5 37 -4 37 -4 
36 -2 37 -4 37 -5 37 -4 36 -3 37 -3 37 -7 37 -4 
36 -2 37 -6 37 -8 37 -6 36 -9 37 -12 37 -12 37 -24 
36 -22 37 -16 37 -26 37 -11 36 -65 37 -142 37 -97 37 -66 
36 -42 37 -40 37 -29 4980 2688 100 MP stroke
/c9 { 0.000000 1.000000 0.000000 sr} bdef
c9
37 -2 37 -1 37 0 37 0 36 -1 37 0 37 -1 37 -1 
36 -5 37 -1 37 -4 37 -4 36 -2 37 -2 37 -4 37 -3 
36 -1 37 0 37 -1 37 -1 36 -2 37 0 37 -1 37 0 
36 -2 37 -1 37 -1 37 -2 36 -2 37 -2 37 -1 37 -1 
36 -1 37 -2 37 0 37 -2 36 -1 37 -1 37 -2 37 -2 
36 -1 37 -1 37 -1 37 0 36 -7 37 -2 37 -5 37 -5 
36 -2 37 -4 37 -3 37 -6 36 -4 37 -2 37 -4 37 -5 
36 -5 37 -3 37 -3 37 -4 36 -4 37 -3 37 -2 37 -4 
36 -2 37 -5 37 -4 37 -3 36 -3 37 -4 37 -3 37 -3 
36 -5 37 -5 37 -5 37 -7 36 -16 37 -11 37 -20 37 -22 
36 -28 37 -35 37 -29 37 -56 36 -56 37 -55 37 -67 37 -58 
36 -46 37 -45 37 -49 37 -51 36 -87 37 -85 37 -97 37 -59 
36 -88 37 -102 37 -105 4980 3171 100 MP stroke
/c10 { 0.000000 0.000000 1.000000 sr} bdef
c10
37 -2 37 0 37 -4 37 -6 36 0 37 -3 37 -2 37 -2 
36 -3 37 -4 37 -1 37 -4 36 -2 37 -2 37 -6 37 -3 
36 -4 37 0 37 -2 37 -5 36 -2 37 -2 37 -1 37 -3 
36 -3 37 -2 37 -2 37 -2 36 -1 37 -3 37 -1 37 -2 
36 -1 37 -4 37 -2 37 -2 36 0 37 -2 37 -1 37 -3 
36 -2 37 -1 37 -1 37 -1 36 -2 37 -1 37 -4 37 -2 
36 -4 37 0 37 0 37 -2 36 -3 37 0 37 -1 37 -2 
36 -2 37 -1 37 -1 37 -2 36 -3 37 -2 37 0 37 -1 
36 -1 37 -4 37 -2 37 -1 36 -3 37 -2 37 -3 37 -3 
36 -3 37 -4 37 -2 37 -1 36 -4 37 -3 37 -6 37 -6 
36 -4 37 -11 37 -3 37 -18 36 -16 37 -24 37 -28 37 -28 
36 -38 37 -41 37 -67 37 -93 36 -116 37 -128 37 -102 37 -66 
36 -66 37 -65 37 -72 4980 2876 100 MP stroke
/c11 { 1.000000 0.000000 0.000000 sr} bdef
c11
37 -1 37 -1 37 -5 37 -3 36 0 37 -4 37 -1 37 -3 
36 -1 37 -1 37 -4 37 -2 36 -5 37 -1 37 -1 37 0 
36 -1 37 -2 37 0 37 -3 36 -3 37 0 37 -1 37 -1 
36 -2 37 -1 37 -3 37 -2 36 -1 37 0 37 -6 37 -1 
36 -1 37 -3 37 -3 37 -3 36 -1 37 -4 37 -4 37 -4 
36 -1 37 -4 37 -2 37 -4 36 -3 37 -3 37 -5 37 -1 
36 -2 37 -2 37 -3 37 -1 36 -2 37 -4 37 -2 37 -1 
36 -4 37 -2 37 -1 37 -4 36 -5 37 -3 37 -2 37 -2 
36 0 37 -4 37 -3 37 -5 36 -2 37 -3 37 -4 37 -4 
36 -2 37 -3 37 -3 37 -2 36 -2 37 -3 37 -3 37 -4 
36 -4 37 -2 37 -4 37 -4 36 -2 37 -6 37 -2 37 -3 
36 -8 37 -12 37 -15 37 -37 36 -106 37 -142 37 -132 37 -82 
36 -54 37 -41 37 -50 4980 2708 100 MP stroke
gr

36 w
c11
0 sg
%%IncludeResource: font Times-Bold
/Times-Bold /WindowsLatin1Encoding 168 FMSR

5371  498 mt 
(UCSB Dataset) s
%%IncludeResource: font Times-Roman
/Times-Roman /WindowsLatin1Encoding 168 FMSR

6166 3844 mt 
(Error Threshold) s
4453 2335 mt  -90 rotate
(Success Rate) s
90 rotate
6 w
1 sg
0 3198 3831 0 0 -3198 466 3492 4 MP
PP
-3831 0 0 3198 3831 0 0 -3198 466 3492 5 MP stroke
4 w
DO
0 sg
 466 3492 mt  466  294 L
 466  294 mt  466  294 L
1423 3492 mt 1423  294 L
1423  294 mt 1423  294 L
2381 3492 mt 2381  294 L
2381  294 mt 2381  294 L
3339 3492 mt 3339  294 L
3339  294 mt 3339  294 L
4297 3492 mt 4297  294 L
4297  294 mt 4297  294 L
 466 3492 mt 4297 3492 L
4297 3492 mt 4297 3492 L
 466 2852 mt 4297 2852 L
4297 2852 mt 4297 2852 L
 466 2212 mt 4297 2212 L
4297 2212 mt 4297 2212 L
 466 1573 mt 4297 1573 L
4297 1573 mt 4297 1573 L
 466  933 mt 4297  933 L
4297  933 mt 4297  933 L
 466  294 mt 4297  294 L
4297  294 mt 4297  294 L
SO
6 w
 466 3492 mt 4297 3492 L
 466 3492 mt  466  294 L
 466 3492 mt  466 3453 L
 424 3676 mt 
(0) s
1423 3492 mt 1423 3453 L
1381 3676 mt 
(5) s
2381 3492 mt 2381 3453 L
2297 3676 mt 
(10) s
3339 3492 mt 3339 3453 L
3255 3676 mt 
(15) s
4297 3492 mt 4297 3453 L
4213 3676 mt 
(20) s
 466 3492 mt  504 3492 L
 347 3552 mt 
(0) s
 466 2852 mt  504 2852 L
 221 2912 mt 
(0.2) s
 466 2212 mt  504 2212 L
 221 2272 mt 
(0.4) s
 466 1573 mt  504 1573 L
 221 1633 mt 
(0.6) s
 466  933 mt  504  933 L
 221  993 mt 
(0.8) s
 466  294 mt  504  294 L
 347  354 mt 
(1) s
gs 466 294 3832 3199 rc
36 w
c8
37 -1 37 -1 37 -1 37 -1 36 -1 37 -1 37 -1 37 -1 
36 -1 37 -1 37 -1 37 -1 36 -1 37 -1 37 -1 37 -1 
36 -2 37 0 37 -1 37 -1 37 0 36 -2 37 -1 37 -1 
37 -1 36 -1 37 -1 37 -1 37 -2 36 -2 37 -1 37 -2 
37 -2 36 -1 37 -2 37 -2 37 -2 36 -1 37 -1 37 -4 
37 -2 37 -1 36 -1 37 -2 37 -1 37 -2 36 -2 37 -2 
37 -3 37 -2 36 -3 37 -4 37 -4 37 -5 36 -4 37 -5 
37 -4 37 -4 36 -5 37 -5 37 -6 37 -6 37 -6 36 -6 
37 -5 37 -5 37 -7 36 -6 37 -9 37 -6 37 -8 36 -8 
37 -8 37 -9 37 -9 36 -12 37 -11 37 -13 37 -15 36 -14 
37 -16 37 -16 37 -16 37 -21 36 -20 37 -23 37 -28 37 -27 
36 -33 37 -37 37 -43 37 -52 36 -54 37 -62 37 -61 37 -78 
36 -83 37 -100 37 -112 657 1810 100 MP stroke
c9
37 -3 37 -3 37 -3 37 -3 36 -4 37 -3 37 -4 37 -4 
36 -5 37 -4 37 -4 37 -4 36 -5 37 -4 37 -5 37 -4 
36 -5 37 -4 37 -5 37 -5 37 -5 36 -5 37 -5 37 -6 
37 -5 36 -4 37 -7 37 -10 37 -6 36 -4 37 -3 37 -5 
37 -4 36 -3 37 -4 37 -3 37 -5 36 -5 37 -7 37 -5 
37 -5 37 -6 36 -6 37 -6 37 -6 37 -6 36 -6 37 -7 
37 -7 37 -7 36 -7 37 -7 37 -11 37 -9 36 -9 37 -9 
37 -9 37 -10 36 -11 37 -11 37 -11 37 -10 37 -8 36 -10 
37 -10 37 -11 37 -12 36 -15 37 -17 37 -20 37 -15 36 -18 
37 -16 37 -15 37 -15 36 -17 37 -20 37 -24 37 -26 36 -27 
37 -35 37 -44 37 -49 37 -47 36 -44 37 -52 37 -63 37 -66 
36 -101 37 -127 37 -103 37 -129 36 -90 37 -103 37 -132 37 -163 
36 -134 37 -129 37 -99 657 3113 100 MP stroke
c10
37 -3 37 -2 37 -2 37 -2 36 -3 37 -3 37 -2 37 -2 
36 -2 37 -2 37 -3 37 -2 36 -2 37 -3 37 -3 37 -3 
36 -3 37 -4 37 -3 37 -4 37 -4 36 -4 37 -5 37 -3 
37 -4 36 -5 37 -6 37 -4 37 -6 36 -6 37 -4 37 -4 
37 -4 36 -6 37 -4 37 -6 37 -5 36 -5 37 -6 37 -6 
37 -6 37 -8 36 -8 37 -6 37 -6 37 -5 36 -6 37 -8 
37 -20 37 -12 36 -6 37 -5 37 -5 37 -6 36 -5 37 -5 
37 -5 37 -5 36 -6 37 -6 37 -9 37 -7 37 -8 36 -9 
37 -9 37 -8 37 -9 36 -10 37 -12 37 -12 37 -11 36 -10 
37 -10 37 -12 37 -13 36 -13 37 -14 37 -16 37 -15 36 -20 
37 -19 37 -21 37 -24 37 -25 36 -33 37 -50 37 -47 37 -44 
36 -53 37 -58 37 -73 37 -68 36 -50 37 -66 37 -136 37 -122 
36 -147 37 -154 37 -189 657 2855 100 MP stroke
c11
37 -4 37 -5 37 -4 37 -5 36 -4 37 -3 37 -4 37 -6 
36 -4 37 -4 37 -4 37 -5 36 -4 37 -3 37 -3 37 -4 
36 -3 37 -4 37 -4 37 -3 37 -3 36 -4 37 -4 37 -4 
37 -3 36 -3 37 -2 37 -3 37 -4 36 -3 37 -3 37 -4 
37 -4 36 -5 37 -7 37 -3 37 -4 36 -2 37 -5 37 -4 
37 -4 37 -5 36 -7 37 -10 37 -7 37 -6 36 -7 37 -7 
37 -7 37 -8 36 -6 37 -9 37 -8 37 -10 36 -13 37 -12 
37 -16 37 -13 36 -10 37 -8 37 -10 37 -11 37 -10 36 -8 
37 -7 37 -9 37 -10 36 -8 37 -8 37 -8 37 -7 36 -8 
37 -9 37 -10 37 -9 36 -12 37 -12 37 -12 37 -14 36 -16 
37 -18 37 -29 37 -17 37 -14 36 -14 37 -19 37 -21 37 -24 
36 -22 37 -23 37 -25 37 -27 36 -29 37 -32 37 -46 37 -58 
36 -86 37 -107 37 -110 657 2247 100 MP stroke
gr

36 w
c11
0 sg
%%IncludeResource: font Times-Bold
/Times-Bold /WindowsLatin1Encoding 168 FMSR

 938  517 mt 
(TMT Dataset) s
%%IncludeResource: font Times-Roman
/Times-Roman /WindowsLatin1Encoding 168 FMSR

1843 3844 mt 
(Error Threshold) s
 130 2335 mt  -90 rotate
(Success Rate) s
90 rotate
%%IncludeResource: font Helvetica
/Helvetica /WindowsLatin1Encoding 120 FMSR

 449 3535 mt 
( ) s
4281  336 mt 
( ) s
6 w
1 sg
0 642 774 0 0 -642 7687 1122 4 MP
PP
-774 0 0 642 774 0 0 -642 7687 1122 5 MP stroke
4 w
DO
SO
6 w
0 sg
7687  480 mt 8461  480 L
7687 1122 mt 8461 1122 L
8461 1122 mt 8461  480 L
7687 1122 mt 7687  480 L
7687 1122 mt 8461 1122 L
7687 1122 mt 7687  480 L
7687  480 mt 8461  480 L
7687 1122 mt 8461 1122 L
8461 1122 mt 8461  480 L
7687 1122 mt 7687  480 L
%%IncludeResource: font Times-Roman
/Times-Roman /WindowsLatin1Encoding 96 FMSR

8156  609 mt 
(8DOF) s
gs 7687 480 775 643 rc
36 w
c8
360 0 7759 576 2 MP stroke
gr

36 w
c8
0 sg
8156  759 mt 
(4DOF) s
gs 7687 480 775 643 rc
c9
360 0 7759 726 2 MP stroke
gr

c9
0 sg
8156  910 mt 
(3DOF) s
gs 7687 480 775 643 rc
c10
360 0 7759 876 2 MP stroke
gr

c10
0 sg
8156 1060 mt 
(2DOF) s
gs 7687 480 775 643 rc
c11
360 0 7759 1026 2 MP stroke
6 w
gr

6 w
c11

end %%Color Dict

eplot
%%EndObject

epage
end

showpage

%%Trailer
%%EOF
