%!PS-Adobe-3.0 EPSF-3.0
%%Creator: MATLAB, The MathWorks, Inc. Version 8.1.0.604 (R2013a). Operating System: Microsoft Windows 8.
%%Title: E:\UofA\Thesis\Reports\ICRA 2016\ssm_nesm_rscv2.eps
%%CreationDate: 10/04/2015  21:59:12
%%DocumentNeededFonts: Times-Bold
%%+ Helvetica
%%DocumentProcessColors: Cyan Magenta Yellow Black
%%LanguageLevel: 2
%%Pages: 1
%%BoundingBox:  -218   130   832   662
%%EndComments

%%BeginProlog
% MathWorks dictionary
/MathWorks 160 dict begin
% definition operators
/bdef {bind def} bind def
/ldef {load def} bind def
/xdef {exch def} bdef
/xstore {exch store} bdef
% operator abbreviations
/c  /clip ldef
/cc /concat ldef
/cp /closepath ldef
/gr /grestore ldef
/gs /gsave ldef
/mt /moveto ldef
/np /newpath ldef
/cm /currentmatrix ldef
/sm /setmatrix ldef
/rm /rmoveto ldef
/rl /rlineto ldef
/s {show newpath} bdef
/sc {setcmykcolor} bdef
/sr /setrgbcolor ldef
/sg /setgray ldef
/w /setlinewidth ldef
/j /setlinejoin ldef
/cap /setlinecap ldef
/rc {rectclip} bdef
/rf {rectfill} bdef
% page state control
/pgsv () def
/bpage {/pgsv save def} bdef
/epage {pgsv restore} bdef
/bplot /gsave ldef
/eplot {stroke grestore} bdef
% orientation switch
/portraitMode 0 def /landscapeMode 1 def /rotateMode 2 def
% coordinate system mappings
/dpi2point 0 def
% font control
/FontSize 0 def
/FMS {/FontSize xstore findfont [FontSize 0 0 FontSize neg 0 0]
  makefont setfont} bdef
/ISOLatin1Encoding where {pop /WindowsLatin1Encoding 256 array bdef
ISOLatin1Encoding WindowsLatin1Encoding copy pop
/.notdef/.notdef/quotesinglbase/florin/quotedblbase/ellipsis/dagger
/daggerdbl/circumflex/perthousand/Scaron/guilsinglleft/OE/.notdef/.notdef
/.notdef/.notdef/quoteleft/quoteright/quotedblleft/quotedblright/bullet
/endash/emdash/tilde/trademark/scaron/guilsinglright/oe/.notdef/.notdef
/Ydieresis WindowsLatin1Encoding 128 32 getinterval astore pop}
{/WindowsLatin1Encoding StandardEncoding bdef} ifelse
/reencode {exch dup where {pop load} {pop StandardEncoding} ifelse
  exch dup 3 1 roll findfont dup length dict begin
  { 1 index /FID ne {def}{pop pop} ifelse } forall
  /Encoding exch def currentdict end definefont pop} bdef
/isroman {findfont /CharStrings get /Agrave known} bdef
/FMSR {3 1 roll 1 index dup isroman {reencode} {pop pop} ifelse
  exch FMS} bdef
/csm {1 dpi2point div -1 dpi2point div scale neg translate
 dup landscapeMode eq {pop -90 rotate}
  {rotateMode eq {90 rotate} if} ifelse} bdef
% line types: solid, dotted, dashed, dotdash
/SO { [] 0 setdash } bdef
/DO { [.5 dpi2point mul 4 dpi2point mul] 0 setdash } bdef
/DA { [6 dpi2point mul] 0 setdash } bdef
/DD { [.5 dpi2point mul 4 dpi2point mul 6 dpi2point mul 4
  dpi2point mul] 0 setdash } bdef
% macros for lines and objects
/L {lineto stroke} bdef
/MP {3 1 roll moveto 1 sub {rlineto} repeat} bdef
/AP {{rlineto} repeat} bdef
/PDlw -1 def
/W {/PDlw currentlinewidth def setlinewidth} def
/PP {closepath eofill} bdef
/DP {closepath stroke} bdef
/MR {4 -2 roll moveto dup  0 exch rlineto exch 0 rlineto
  neg 0 exch rlineto closepath} bdef
/FR {MR stroke} bdef
/PR {MR fill} bdef
/L1i {{currentfile picstr readhexstring pop} image} bdef
/tMatrix matrix def
/MakeOval {newpath tMatrix currentmatrix pop translate scale
0 0 1 0 360 arc tMatrix setmatrix} bdef
/FO {MakeOval stroke} bdef
/PO {MakeOval fill} bdef
/PD {currentlinewidth 2 div 0 360 arc fill
   PDlw -1 eq not {PDlw w /PDlw -1 def} if} def
/FA {newpath tMatrix currentmatrix pop translate scale
  0 0 1 5 -2 roll arc tMatrix setmatrix stroke} bdef
/PA {newpath tMatrix currentmatrix pop	translate 0 0 moveto scale
  0 0 1 5 -2 roll arc closepath tMatrix setmatrix fill} bdef
/FAn {newpath tMatrix currentmatrix pop translate scale
  0 0 1 5 -2 roll arcn tMatrix setmatrix stroke} bdef
/PAn {newpath tMatrix currentmatrix pop translate 0 0 moveto scale
  0 0 1 5 -2 roll arcn closepath tMatrix setmatrix fill} bdef
/vradius 0 def /hradius 0 def /lry 0 def
/lrx 0 def /uly 0 def /ulx 0 def /rad 0 def
/MRR {/vradius xdef /hradius xdef /lry xdef /lrx xdef /uly xdef
  /ulx xdef newpath tMatrix currentmatrix pop ulx hradius add uly
  vradius add translate hradius vradius scale 0 0 1 180 270 arc 
  tMatrix setmatrix lrx hradius sub uly vradius add translate
  hradius vradius scale 0 0 1 270 360 arc tMatrix setmatrix
  lrx hradius sub lry vradius sub translate hradius vradius scale
  0 0 1 0 90 arc tMatrix setmatrix ulx hradius add lry vradius sub
  translate hradius vradius scale 0 0 1 90 180 arc tMatrix setmatrix
  closepath} bdef
/FRR {MRR stroke } bdef
/PRR {MRR fill } bdef
/MlrRR {/lry xdef /lrx xdef /uly xdef /ulx xdef /rad lry uly sub 2 div def
  newpath tMatrix currentmatrix pop ulx rad add uly rad add translate
  rad rad scale 0 0 1 90 270 arc tMatrix setmatrix lrx rad sub lry rad
  sub translate rad rad scale 0 0 1 270 90 arc tMatrix setmatrix
  closepath} bdef
/FlrRR {MlrRR stroke } bdef
/PlrRR {MlrRR fill } bdef
/MtbRR {/lry xdef /lrx xdef /uly xdef /ulx xdef /rad lrx ulx sub 2 div def
  newpath tMatrix currentmatrix pop ulx rad add uly rad add translate
  rad rad scale 0 0 1 180 360 arc tMatrix setmatrix lrx rad sub lry rad
  sub translate rad rad scale 0 0 1 0 180 arc tMatrix setmatrix
  closepath} bdef
/FtbRR {MtbRR stroke } bdef
/PtbRR {MtbRR fill } bdef
/stri 6 array def /dtri 6 array def
/smat 6 array def /dmat 6 array def
/tmat1 6 array def /tmat2 6 array def /dif 3 array def
/asub {/ind2 exch def /ind1 exch def dup dup
  ind1 get exch ind2 get sub exch } bdef
/tri_to_matrix {
  2 0 asub 3 1 asub 4 0 asub 5 1 asub
  dup 0 get exch 1 get 7 -1 roll astore } bdef
/compute_transform {
  dmat dtri tri_to_matrix tmat1 invertmatrix 
  smat stri tri_to_matrix tmat2 concatmatrix } bdef
/ds {stri astore pop} bdef
/dt {dtri astore pop} bdef
/db {2 copy /cols xdef /rows xdef mul dup 3 mul string
  currentfile 
  3 index 0 eq {/ASCIIHexDecode filter}
  {/ASCII85Decode filter 3 index 2 eq {/RunLengthDecode filter} if }
  ifelse exch readstring pop
  dup 0 3 index getinterval /rbmap xdef
  dup 2 index dup getinterval /gbmap xdef
  1 index dup 2 mul exch getinterval /bbmap xdef pop pop}bdef
/it {gs np dtri aload pop moveto lineto lineto cp c
  cols rows 8 compute_transform 
  rbmap gbmap bbmap true 3 colorimage gr}bdef
/il {newpath moveto lineto stroke}bdef
currentdict end def
%%EndProlog

%%BeginSetup
MathWorks begin

0 cap

end
%%EndSetup

%%Page: 1 1
%%BeginPageSetup
%%PageBoundingBox:  -218   130   832   662
MathWorks begin
bpage
%%EndPageSetup

%%BeginObject: obj1
bplot

/dpi2point 12 def
portraitMode -2616 7944 csm

    0     0 12607  6381 rc
89 dict begin %Colortable dictionary
/c0 { 0.000000 0.000000 0.000000 sr} bdef
/c1 { 1.000000 1.000000 1.000000 sr} bdef
/c2 { 0.900000 0.000000 0.000000 sr} bdef
/c3 { 0.000000 0.820000 0.000000 sr} bdef
/c4 { 0.000000 0.000000 0.800000 sr} bdef
/c5 { 0.910000 0.820000 0.320000 sr} bdef
/c6 { 1.000000 0.260000 0.820000 sr} bdef
/c7 { 0.000000 0.820000 0.820000 sr} bdef
c0
1 j
1 sg
   0    0 12608 6382 rf
6 w
0 sg
%%IncludeResource: font Times-Bold
/Times-Bold /WindowsLatin1Encoding 168 FMSR

4490  308 mt 
(SSM Success Rates for ESM/RSCV \(corresponding GT\)) s
1 sg
0 5470 5552 0 0 -5470 6893 5949 4 MP
PP
-5552 0 0 5470 5552 0 0 -5470 6893 5949 5 MP stroke
4 w
DO
0 sg
6893 5949 mt 6893  479 L
6893  479 mt 6893  479 L
7448 5949 mt 7448  479 L
7448  479 mt 7448  479 L
8003 5949 mt 8003  479 L
8003  479 mt 8003  479 L
8558 5949 mt 8558  479 L
8558  479 mt 8558  479 L
9113 5949 mt 9113  479 L
9113  479 mt 9113  479 L
9669 5949 mt 9669  479 L
9669  479 mt 9669  479 L
10224 5949 mt 10224  479 L
10224  479 mt 10224  479 L
10779 5949 mt 10779  479 L
10779  479 mt 10779  479 L
11334 5949 mt 11334  479 L
11334  479 mt 11334  479 L
11889 5949 mt 11889  479 L
11889  479 mt 11889  479 L
12445 5949 mt 12445  479 L
12445  479 mt 12445  479 L
6893 5949 mt 12445 5949 L
12445 5949 mt 12445 5949 L
6893 5402 mt 12445 5402 L
12445 5402 mt 12445 5402 L
6893 4855 mt 12445 4855 L
12445 4855 mt 12445 4855 L
6893 4308 mt 12445 4308 L
12445 4308 mt 12445 4308 L
6893 3761 mt 12445 3761 L
12445 3761 mt 12445 3761 L
6893 3214 mt 12445 3214 L
12445 3214 mt 12445 3214 L
6893 2666 mt 12445 2666 L
12445 2666 mt 12445 2666 L
6893 2119 mt 12445 2119 L
12445 2119 mt 12445 2119 L
6893 1573 mt 12445 1573 L
12445 1573 mt 12445 1573 L
6893 1026 mt 12445 1026 L
12445 1026 mt 12445 1026 L
6893  479 mt 12445  479 L
12445  479 mt 12445  479 L
SO
6 w
6893 5949 mt 12445 5949 L
6893 5949 mt 6893  479 L
6893 5949 mt 6893 5893 L
6851 6140 mt 
(0) s
7448 5949 mt 7448 5893 L
7406 6140 mt 
(2) s
8003 5949 mt 8003 5893 L
7961 6140 mt 
(4) s
8558 5949 mt 8558 5893 L
8516 6140 mt 
(6) s
9113 5949 mt 9113 5893 L
9071 6140 mt 
(8) s
9669 5949 mt 9669 5893 L
9585 6140 mt 
(10) s
10224 5949 mt 10224 5893 L
10140 6140 mt 
(12) s
10779 5949 mt 10779 5893 L
10695 6140 mt 
(14) s
11334 5949 mt 11334 5893 L
11250 6140 mt 
(16) s
11889 5949 mt 11889 5893 L
11805 6140 mt 
(18) s
12445 5949 mt 12445 5893 L
12361 6140 mt 
(20) s
6893 5949 mt 6948 5949 L
6774 6011 mt 
(0) s
6893 5402 mt 6948 5402 L
6648 5464 mt 
(0.1) s
6893 4855 mt 6948 4855 L
6648 4917 mt 
(0.2) s
6893 4308 mt 6948 4308 L
6648 4370 mt 
(0.3) s
6893 3761 mt 6948 3761 L
6648 3823 mt 
(0.4) s
6893 3214 mt 6948 3214 L
6648 3276 mt 
(0.5) s
6893 2666 mt 6948 2666 L
6648 2728 mt 
(0.6) s
6893 2119 mt 6948 2119 L
6648 2181 mt 
(0.7) s
6893 1573 mt 6948 1573 L
6648 1635 mt 
(0.8) s
6893 1026 mt 6948 1026 L
6648 1088 mt 
(0.9) s
6893  479 mt 6948  479 L
6774  541 mt 
(1) s
gs 6893 479 5553 5471 rc
36 w
/c8 { 1.000000 0.000000 1.000000 sr} bdef
c8
54 -8 53 -5 53 0 54 0 53 -5 53 -5 53 0 54 -6 
53 -6 53 -6 54 -1 53 -5 53 -3 53 -3 54 -5 53 -1 
53 -4 53 -1 54 -3 53 -7 53 0 54 -2 53 -4 53 -3 
53 -8 54 -3 53 -7 53 -5 54 -3 53 -11 53 -4 53 -2 
54 0 53 -2 53 -3 53 -1 54 -7 53 -1 53 -9 54 -6 
53 -2 53 -9 53 -8 54 -5 53 -3 53 -6 54 -7 53 -8 
53 -10 53 -15 54 -15 53 -12 53 -12 53 -15 54 -15 53 -6 
53 -14 54 -4 53 -10 53 -9 53 -6 54 -10 53 -6 53 -8 
53 -8 54 -10 53 -6 53 -4 54 -6 53 -6 53 -5 53 -6 
54 -10 53 -4 53 -8 54 -7 53 -6 53 -3 53 -8 54 -9 
53 -5 53 -8 53 -7 54 -14 53 -20 53 -14 54 -14 53 -14 
53 -23 53 -22 54 -18 53 -17 53 -144 54 -387 53 -176 53 -115 
53 -89 54 -71 53 -75 7170 4369 100 MP stroke
/c9 { 0.000000 1.000000 1.000000 sr} bdef
c9
54 -13 53 0 53 0 54 0 53 -2 53 -14 53 -4 54 -1 
53 -4 53 -6 54 -1 53 0 53 -8 53 0 54 -3 53 -1 
53 -3 53 -1 54 -4 53 -6 53 0 54 0 53 -3 53 -6 
53 -10 54 -3 53 -5 53 -3 54 -3 53 -15 53 0 53 -2 
54 -4 53 -4 53 -7 53 -5 54 -1 53 -5 53 -6 54 -9 
53 -9 53 -4 53 -9 54 -8 53 -2 53 -1 54 -10 53 -7 
53 -10 53 -8 54 -20 53 -14 53 -12 53 -10 54 -16 53 -11 
53 -12 54 -5 53 -13 53 -8 53 -9 54 -8 53 -5 53 -7 
53 -14 54 -6 53 -5 53 -5 54 -6 53 -7 53 -6 53 -6 
54 -6 53 -4 53 -12 54 -7 53 -5 53 -4 53 -8 54 -6 
53 -6 53 -6 53 -10 54 -12 53 -24 53 -11 54 -13 53 -14 
53 -24 53 -21 54 -18 53 -17 53 -151 54 -375 53 -170 53 -116 
53 -86 54 -80 53 -75 7170 4372 100 MP stroke
/c10 { 1.000000 0.647059 0.000000 sr} bdef
c10
54 -4 53 -6 53 -5 54 0 53 -1 53 -5 53 -3 54 -6 
53 -7 53 -9 54 -4 53 -1 53 -4 53 0 54 -2 53 -1 
53 -8 53 -4 54 0 53 -6 53 0 54 0 53 -1 53 0 
53 -7 54 -8 53 0 53 -15 54 -1 53 -15 53 0 53 0 
54 -2 53 -3 53 -12 53 -1 54 -3 53 -10 53 -4 54 -5 
53 -3 53 -3 53 -7 54 -9 53 -4 53 -3 54 -8 53 -8 
53 -9 53 -15 54 -13 53 -17 53 -11 53 -10 54 -12 53 -9 
53 -12 54 -8 53 -14 53 -7 53 -7 54 -8 53 -6 53 -6 
53 -12 54 -6 53 -7 53 -4 54 -6 53 -6 53 -6 53 -5 
54 -6 53 -5 53 -12 54 -11 53 -6 53 -3 53 -8 54 -8 
53 -9 53 -11 53 -4 54 -15 53 -17 53 -11 54 -16 53 -16 
53 -23 53 -21 54 -18 53 -17 53 -143 54 -387 53 -171 53 -117 
53 -86 54 -73 53 -73 7170 4369 100 MP stroke
0 sg
54 0 53 -5 53 0 54 -8 53 -24 53 -14 53 -4 54 -2 
53 -2 53 -5 54 0 53 -2 53 -5 53 -3 54 -2 53 -6 
53 -5 53 -5 54 -4 53 -14 53 0 54 -12 53 -4 53 -11 
53 -6 54 -8 53 -3 53 -4 54 -9 53 -4 53 -3 53 -4 
54 -3 53 -5 53 -3 53 -9 54 0 53 -2 53 -2 54 -1 
53 -4 53 -2 53 -8 54 -5 53 -6 53 -12 54 -13 53 -21 
53 -12 53 -12 54 -11 53 -7 53 -11 53 -8 54 -10 53 -9 
53 -12 54 -9 53 -11 53 -9 53 -13 54 -5 53 -8 53 -11 
53 -16 54 -8 53 -10 53 -15 54 -10 53 -5 53 -17 53 -8 
54 -12 53 -374 53 -320 54 -10 53 -11 53 -17 53 -15 54 -15 
53 -21 53 -19 53 -21 54 -13 53 -28 53 -34 54 -46 53 -58 
53 -95 53 -140 54 -323 53 -140 53 -101 54 -68 53 -67 53 -61 
53 -97 54 -140 53 -86 7170 5378 100 MP stroke
/c11 { 0.000000 1.000000 0.000000 sr} bdef
c11
54 -14 53 -5 53 -7 54 -3 53 0 53 -3 53 -1 54 -4 
53 -2 53 -7 54 -2 53 -7 53 -1 53 -3 54 -1 53 -11 
53 -1 53 -1 54 -7 53 -4 53 -5 54 -5 53 -5 53 -6 
53 -1 54 -6 53 -3 53 0 54 -9 53 -5 53 -5 53 -6 
54 -5 53 -5 53 -8 53 -8 54 -14 53 -10 53 -16 54 -9 
53 -4 53 -6 53 -5 54 -7 53 -18 53 -14 54 -21 53 -11 
53 -23 53 -9 54 -25 53 -20 53 -18 53 -12 54 -29 53 -17 
53 -26 54 -30 53 -38 53 -35 53 -44 54 -41 53 -33 53 -40 
53 -40 54 -45 53 -77 53 -43 54 -51 53 -41 53 -33 53 -20 
54 -35 53 -40 53 -76 54 -66 53 -63 53 -88 53 -119 54 -121 
53 -105 53 -124 53 -124 54 -89 53 -114 53 -91 54 -80 53 -90 
53 -61 53 -81 54 -90 53 -99 53 -110 54 -109 53 -51 53 -62 
53 -40 54 -61 53 -56 7170 5571 100 MP stroke
/c12 { 0.000000 0.000000 1.000000 sr} bdef
c12
54 -5 53 -5 53 0 54 0 53 -3 53 -5 53 -8 54 -2 
53 -2 53 -7 54 -5 53 -4 53 0 53 -6 54 -3 53 -4 
53 -1 53 -1 54 -7 53 -8 53 -1 54 -1 53 -12 53 -1 
53 -5 54 -1 53 -2 53 -4 54 -5 53 -6 53 -4 53 -2 
54 -5 53 -10 53 -3 53 -3 54 -5 53 -4 53 -7 54 -12 
53 -7 53 -6 53 -3 54 -10 53 -5 53 -2 54 -7 53 -4 
53 -5 53 -3 54 -6 53 -5 53 -11 53 -5 54 0 53 -5 
53 -11 54 -2 53 -13 53 -9 53 -7 54 -14 53 -27 53 -7 
53 -25 54 -34 53 -30 53 -22 54 -27 53 -22 53 -31 53 -33 
54 -28 53 -26 53 -37 54 -47 53 -31 53 -53 53 -53 54 -34 
53 -46 53 -67 53 -47 54 -84 53 -65 53 -87 54 -61 53 -76 
53 -98 53 -102 54 -125 53 -154 53 -203 54 -256 53 -150 53 -142 
53 -154 54 -205 53 -168 7170 5289 100 MP stroke
/c13 { 1.000000 0.000000 0.000000 sr} bdef
c13
54 0 53 -1 53 -2 54 -8 53 -1 53 -1 53 -3 54 -11 
53 -1 53 -2 54 -7 53 -3 53 0 53 -2 54 -4 53 -12 
53 -3 53 -9 54 -1 53 -4 53 -4 54 0 53 -4 53 -4 
53 0 54 -2 53 -1 53 -7 54 -4 53 -5 53 -7 53 -6 
54 -1 53 -6 53 -1 53 -1 54 -2 53 -6 53 -7 54 -3 
53 -8 53 -6 53 -4 54 -7 53 -4 53 -3 54 -1 53 -4 
53 -3 53 -5 54 -3 53 -4 53 -4 53 -11 54 -2 53 -7 
53 -4 54 -6 53 -6 53 -1 53 -5 54 -4 53 -5 53 -5 
53 -6 54 -9 53 -4 53 -7 54 -7 53 -7 53 -5 53 -15 
54 -8 53 -6 53 -8 54 -5 53 -22 53 -6 53 -7 54 -15 
53 -10 53 -9 53 -15 54 -21 53 -58 53 -28 54 -28 53 -35 
53 -31 53 -54 54 -106 53 -144 53 -169 54 -294 53 -361 53 -225 
53 -179 54 -196 53 -217 7170 4698 100 MP stroke
gr

36 w
c13
0 sg
7308  807 mt 
(UCSB Dataset) s
9074 6311 mt 
(Error Threshold) s
6557 3675 mt  -90 rotate
(Success Rate) s
90 rotate
6 w
1 sg
0 5443 5507 0 0 -5443 720 5922 4 MP
PP
-5507 0 0 5443 5507 0 0 -5443 720 5922 5 MP stroke
4 w
DO
0 sg
 720 5922 mt  720  479 L
 720  479 mt  720  479 L
1270 5922 mt 1270  479 L
1270  479 mt 1270  479 L
1821 5922 mt 1821  479 L
1821  479 mt 1821  479 L
2372 5922 mt 2372  479 L
2372  479 mt 2372  479 L
2922 5922 mt 2922  479 L
2922  479 mt 2922  479 L
3473 5922 mt 3473  479 L
3473  479 mt 3473  479 L
4024 5922 mt 4024  479 L
4024  479 mt 4024  479 L
4574 5922 mt 4574  479 L
4574  479 mt 4574  479 L
5125 5922 mt 5125  479 L
5125  479 mt 5125  479 L
5676 5922 mt 5676  479 L
5676  479 mt 5676  479 L
6227 5922 mt 6227  479 L
6227  479 mt 6227  479 L
 720 5922 mt 6227 5922 L
6227 5922 mt 6227 5922 L
 720 5377 mt 6227 5377 L
6227 5377 mt 6227 5377 L
 720 4833 mt 6227 4833 L
6227 4833 mt 6227 4833 L
 720 4289 mt 6227 4289 L
6227 4289 mt 6227 4289 L
 720 3744 mt 6227 3744 L
6227 3744 mt 6227 3744 L
 720 3200 mt 6227 3200 L
6227 3200 mt 6227 3200 L
 720 2656 mt 6227 2656 L
6227 2656 mt 6227 2656 L
 720 2111 mt 6227 2111 L
6227 2111 mt 6227 2111 L
 720 1567 mt 6227 1567 L
6227 1567 mt 6227 1567 L
 720 1023 mt 6227 1023 L
6227 1023 mt 6227 1023 L
 720  479 mt 6227  479 L
6227  479 mt 6227  479 L
SO
6 w
 720 5922 mt 6227 5922 L
 720 5922 mt  720  479 L
 720 5922 mt  720 5866 L
 678 6113 mt 
(0) s
1270 5922 mt 1270 5866 L
1228 6113 mt 
(2) s
1821 5922 mt 1821 5866 L
1779 6113 mt 
(4) s
2372 5922 mt 2372 5866 L
2330 6113 mt 
(6) s
2922 5922 mt 2922 5866 L
2880 6113 mt 
(8) s
3473 5922 mt 3473 5866 L
3389 6113 mt 
(10) s
4024 5922 mt 4024 5866 L
3940 6113 mt 
(12) s
4574 5922 mt 4574 5866 L
4490 6113 mt 
(14) s
5125 5922 mt 5125 5866 L
5041 6113 mt 
(16) s
5676 5922 mt 5676 5866 L
5592 6113 mt 
(18) s
6227 5922 mt 6227 5866 L
6143 6113 mt 
(20) s
 720 5922 mt  775 5922 L
 601 5984 mt 
(0) s
 720 5377 mt  775 5377 L
 475 5439 mt 
(0.1) s
 720 4833 mt  775 4833 L
 475 4895 mt 
(0.2) s
 720 4289 mt  775 4289 L
 475 4351 mt 
(0.3) s
 720 3744 mt  775 3744 L
 475 3806 mt 
(0.4) s
 720 3200 mt  775 3200 L
 475 3262 mt 
(0.5) s
 720 2656 mt  775 2656 L
 475 2718 mt 
(0.6) s
 720 2111 mt  775 2111 L
 475 2173 mt 
(0.7) s
 720 1567 mt  775 1567 L
 475 1629 mt 
(0.8) s
 720 1023 mt  775 1023 L
 475 1085 mt 
(0.9) s
 720  479 mt  775  479 L
 601  541 mt 
(1) s
gs 720 479 5508 5444 rc
DA
36 w
c8
53 0 53 -1 53 0 53 -1 53 0 53 -1 52 -1 53 0 
53 -1 53 -1 53 -2 53 -1 52 -1 53 -1 53 -1 53 -3 
53 -1 53 -2 53 -2 52 -1 53 -3 53 -3 53 -1 53 -2 
53 -2 52 -2 53 -1 53 -2 53 -2 53 -2 53 -1 53 -2 
52 -2 53 -2 53 -2 53 -2 53 -2 53 -2 52 -2 53 -4 
53 -4 53 -4 53 -2 53 -2 53 -3 52 -3 53 -3 53 -4 
53 -3 53 -3 53 -5 52 -5 53 -5 53 -5 53 -6 53 -5 
53 -5 53 -6 52 -5 53 -8 53 -9 53 -6 53 -8 53 -7 
52 -6 53 -8 53 -8 53 -7 53 -10 53 -14 52 -14 53 -12 
53 -12 53 -14 53 -16 53 -16 53 -15 52 -18 53 -20 53 -19 
53 -21 53 -23 53 -23 52 -28 53 -32 53 -36 53 -37 53 -44 
53 -48 53 -48 52 -65 53 -76 53 -91 53 -107 53 -106 53 -120 
52 -149 53 -157 53 -179 995 2947 100 MP stroke
DO
c9
53 0 53 -1 53 0 53 0 53 -1 53 -1 52 0 53 -1 
53 -1 53 0 53 -2 53 -1 52 -1 53 -1 53 -2 53 -2 
53 -2 53 -1 53 -2 52 -2 53 -2 53 -3 53 -2 53 -1 
53 -2 52 -2 53 -1 53 -2 53 -2 53 -2 53 -1 53 -3 
52 -1 53 -2 53 -2 53 -2 53 -3 53 -2 52 -2 53 -3 
53 -5 53 -3 53 -3 53 -2 53 -2 52 -3 53 -3 53 -4 
53 -4 53 -3 53 -5 52 -6 53 -5 53 -6 53 -6 53 -5 
53 -5 53 -7 52 -5 53 -7 53 -9 53 -7 53 -7 53 -5 
52 -7 53 -6 53 -10 53 -7 53 -11 53 -13 52 -13 53 -13 
53 -12 53 -14 53 -15 53 -15 53 -17 52 -19 53 -19 53 -18 
53 -21 53 -21 53 -24 52 -28 53 -30 53 -36 53 -38 53 -41 
53 -48 53 -47 52 -65 53 -76 53 -86 53 -108 53 -107 53 -119 
52 -147 53 -158 53 -177 995 2948 100 MP stroke
SO
c10
53 0 53 0 53 -1 53 0 53 -1 53 -1 52 0 53 -1 
53 0 53 -1 53 -2 53 -1 52 -1 53 -2 53 -1 53 -2 
53 -2 53 -1 53 -2 52 -2 53 -3 53 -2 53 -2 53 -2 
53 -2 52 -1 53 -2 53 -2 53 -2 53 -1 53 -2 53 -2 
52 -2 53 -2 53 -2 53 -2 53 -3 53 -2 52 -2 53 -3 
53 -4 53 -4 53 -4 53 -1 53 -2 52 -4 53 -2 53 -4 
53 -4 53 -4 53 -4 52 -5 53 -5 53 -6 53 -5 53 -6 
53 -5 53 -6 52 -6 53 -6 53 -9 53 -6 53 -8 53 -7 
52 -6 53 -7 53 -9 53 -7 53 -11 53 -13 52 -14 53 -12 
53 -12 53 -15 53 -14 53 -16 53 -15 52 -20 53 -19 53 -20 
53 -20 53 -22 53 -24 52 -29 53 -30 53 -37 53 -38 53 -43 
53 -47 53 -49 52 -66 53 -77 53 -88 53 -107 53 -108 53 -121 
52 -147 53 -158 53 -178 995 2948 100 MP stroke
0 sg
53 -2 53 -1 53 -3 53 -1 53 -2 53 -3 52 -2 53 -2 
53 -2 53 -2 53 -2 53 -2 52 -2 53 -2 53 -2 53 -2 
53 -2 53 -2 53 -3 52 -2 53 -3 53 -2 53 -2 53 -2 
53 -2 52 -2 53 -4 53 -6 53 -4 53 -5 53 -5 53 -3 
52 -3 53 -5 53 -5 53 -4 53 -4 53 -4 52 -5 53 -4 
53 -6 53 -4 53 -7 53 -6 53 -5 52 -6 53 -6 53 -7 
53 -8 53 -12 53 -10 52 -11 53 -12 53 -17 53 -15 53 -14 
53 -16 53 -13 52 -16 53 -17 53 -19 53 -19 53 -26 53 -78 
52 -26 53 -21 53 -21 53 -25 53 -28 53 -27 52 -28 53 -26 
53 -29 53 -40 53 -35 53 -31 53 -43 52 -52 53 -59 53 -107 
53 -92 53 -70 53 -44 52 -49 53 -67 53 -50 53 -50 53 -62 
53 -139 53 -79 52 -113 53 -123 53 -151 53 -243 53 -168 53 -245 
52 -331 53 -387 53 -319 995 4914 100 MP stroke
c11
53 -2 53 -4 53 -3 53 -3 53 -4 53 -3 52 -4 53 -3 
53 -3 53 -3 53 -3 53 -3 52 -3 53 -4 53 -3 53 -3 
53 -4 53 -5 53 -5 52 -5 53 -6 53 -5 53 -4 53 -6 
53 -5 52 -6 53 -6 53 -6 53 -5 53 -4 53 -4 53 -6 
52 -5 53 -5 53 -5 53 -7 53 -7 53 -8 52 -8 53 -10 
53 -8 53 -12 53 -12 53 -13 53 -10 52 -16 53 -18 53 -13 
53 -10 53 -10 53 -14 52 -15 53 -12 53 -18 53 -25 53 -25 
53 -19 53 -21 52 -19 53 -20 53 -34 53 -23 53 -32 53 -26 
52 -35 53 -31 53 -39 53 -54 53 -42 53 -44 52 -47 53 -55 
53 -61 53 -57 53 -60 53 -58 53 -91 52 -98 53 -73 53 -77 
53 -83 53 -93 53 -113 52 -112 53 -99 53 -211 53 -193 53 -208 
53 -136 53 -119 52 -131 53 -112 53 -100 53 -88 53 -108 53 -128 
52 -163 53 -101 53 -90 995 5590 100 MP stroke
c12
53 -5 53 -5 53 -5 53 -3 53 -4 53 -4 52 -5 53 -5 
53 -5 53 -5 53 -5 53 -5 52 -4 53 -4 53 -5 53 -6 
53 -5 53 -5 53 -6 52 -8 53 -8 53 -7 53 -5 53 -5 
53 -6 52 -4 53 -8 53 -9 53 -9 53 -10 53 -6 53 -11 
52 -11 53 -17 53 -14 53 -10 53 -8 53 -9 52 -9 53 -8 
53 -12 53 -9 53 -12 53 -14 53 -16 52 -16 53 -13 53 -13 
53 -14 53 -12 53 -12 52 -14 53 -12 53 -11 53 -12 53 -16 
53 -20 53 -19 52 -20 53 -19 53 -20 53 -16 53 -19 53 -17 
52 -18 53 -20 53 -24 53 -35 53 -27 53 -22 52 -27 53 -36 
53 -65 53 -37 53 -36 53 -40 53 -38 52 -40 53 -40 53 -50 
53 -65 53 -76 53 -71 52 -65 53 -80 53 -96 53 -125 53 -172 
53 -135 53 -124 52 -139 53 -166 53 -159 53 -143 53 -236 53 -201 
52 -161 53 -167 53 -257 995 5254 100 MP stroke
c13
53 -2 53 -4 53 -4 53 -4 53 -4 53 -3 52 -4 53 -4 
53 -4 53 -5 53 -6 53 -6 52 -5 53 -6 53 -5 53 -6 
53 -6 53 -7 53 -5 52 -6 53 -4 53 -5 53 -6 53 -7 
53 -6 52 -5 53 -6 53 -9 53 -7 53 -12 53 -8 53 -7 
52 -17 53 -9 53 -6 53 -8 53 -10 53 -9 52 -6 53 -7 
53 -8 53 -7 53 -8 53 -12 53 -14 52 -14 53 -9 53 -15 
53 -14 53 -10 53 -11 52 -15 53 -17 53 -20 53 -16 53 -14 
53 -14 53 -14 52 -13 53 -13 53 -13 53 -17 53 -20 53 -17 
52 -19 53 -17 53 -19 53 -17 53 -13 53 -16 52 -16 53 -16 
53 -16 53 -16 53 -16 53 -23 53 -21 52 -21 53 -26 53 -25 
53 -29 53 -33 53 -42 52 -43 53 -45 53 -48 53 -72 53 -59 
53 -49 53 -43 52 -46 53 -48 53 -78 53 -111 53 -135 53 -139 
52 -162 53 -285 53 -302 995 4255 100 MP stroke
gr

36 w
c13
0 sg
1123  833 mt 
(TMT Dataset) s
2878 6284 mt 
(Error Threshold) s
 384 3661 mt  -90 rotate
(Success Rate) s
90 rotate
%%IncludeResource: font Helvetica
/Helvetica /WindowsLatin1Encoding 120 FMSR

 703 5965 mt 
( ) s
6211  521 mt 
( ) s
6 w
1 sg
0 1281 1404 0 0 -1281 11029 1754 4 MP
PP
-1404 0 0 1281 1404 0 0 -1281 11029 1754 5 MP stroke
4 w
DO
SO
6 w
0 sg
11029  473 mt 12433  473 L
11029 1754 mt 12433 1754 L
12433 1754 mt 12433  473 L
11029 1754 mt 11029  473 L
11029 1754 mt 12433 1754 L
11029 1754 mt 11029  473 L
11029  473 mt 12433  473 L
11029 1754 mt 12433 1754 L
12433 1754 mt 12433  473 L
11029 1754 mt 11029  473 L
%%IncludeResource: font Times-Bold
/Times-Bold /WindowsLatin1Encoding 120 FMSR

11497  626 mt 
(Lie 8DOF \(SL3\)) s
gs 11029 473 1405 1282 rc
DA
36 w
c8
360 0 11101 582 2 MP stroke
SO
gr

36 w
c8
0 sg
11497  803 mt 
(Corner 8DOF) s
gs 11029 473 1405 1282 rc
DO
c9
360 0 11101 759 2 MP stroke
SO
gr

c9
0 sg
11497  980 mt 
(8DOF) s
gs 11029 473 1405 1282 rc
c10
360 0 11101 936 2 MP stroke
gr

c10
0 sg
11497 1157 mt 
(6DOF) s
gs 11029 473 1405 1282 rc
360 0 11101 1113 2 MP stroke
gr

11497 1334 mt 
(4DOF) s
gs 11029 473 1405 1282 rc
c11
360 0 11101 1290 2 MP stroke
gr

c11
0 sg
11497 1511 mt 
(3DOF) s
gs 11029 473 1405 1282 rc
c12
360 0 11101 1467 2 MP stroke
gr

c12
0 sg
11497 1688 mt 
(2DOF) s
gs 11029 473 1405 1282 rc
c13
360 0 11101 1644 2 MP stroke
6 w
gr

6 w
c13

end %%Color Dict

eplot
%%EndObject

epage
end

showpage

%%Trailer
%%EOF
