%!PS-Adobe-3.0 EPSF-3.0
%%Creator: MATLAB, The MathWorks, Inc. Version 8.1.0.604 (R2013a). Operating System: Microsoft Windows 8.
%%Title: E:\UofA\Thesis\ICRA 2016\tags_rscv_8.eps
%%CreationDate: 09/16/2015  00:01:00
%%DocumentNeededFonts: Times-Bold
%%+ Helvetica
%%DocumentProcessColors: Cyan Magenta Yellow Black
%%LanguageLevel: 2
%%Pages: 1
%%BoundingBox:   -74   130   686   662
%%EndComments

%%BeginProlog
% MathWorks dictionary
/MathWorks 160 dict begin
% definition operators
/bdef {bind def} bind def
/ldef {load def} bind def
/xdef {exch def} bdef
/xstore {exch store} bdef
% operator abbreviations
/c  /clip ldef
/cc /concat ldef
/cp /closepath ldef
/gr /grestore ldef
/gs /gsave ldef
/mt /moveto ldef
/np /newpath ldef
/cm /currentmatrix ldef
/sm /setmatrix ldef
/rm /rmoveto ldef
/rl /rlineto ldef
/s {show newpath} bdef
/sc {setcmykcolor} bdef
/sr /setrgbcolor ldef
/sg /setgray ldef
/w /setlinewidth ldef
/j /setlinejoin ldef
/cap /setlinecap ldef
/rc {rectclip} bdef
/rf {rectfill} bdef
% page state control
/pgsv () def
/bpage {/pgsv save def} bdef
/epage {pgsv restore} bdef
/bplot /gsave ldef
/eplot {stroke grestore} bdef
% orientation switch
/portraitMode 0 def /landscapeMode 1 def /rotateMode 2 def
% coordinate system mappings
/dpi2point 0 def
% font control
/FontSize 0 def
/FMS {/FontSize xstore findfont [FontSize 0 0 FontSize neg 0 0]
  makefont setfont} bdef
/ISOLatin1Encoding where {pop /WindowsLatin1Encoding 256 array bdef
ISOLatin1Encoding WindowsLatin1Encoding copy pop
/.notdef/.notdef/quotesinglbase/florin/quotedblbase/ellipsis/dagger
/daggerdbl/circumflex/perthousand/Scaron/guilsinglleft/OE/.notdef/.notdef
/.notdef/.notdef/quoteleft/quoteright/quotedblleft/quotedblright/bullet
/endash/emdash/tilde/trademark/scaron/guilsinglright/oe/.notdef/.notdef
/Ydieresis WindowsLatin1Encoding 128 32 getinterval astore pop}
{/WindowsLatin1Encoding StandardEncoding bdef} ifelse
/reencode {exch dup where {pop load} {pop StandardEncoding} ifelse
  exch dup 3 1 roll findfont dup length dict begin
  { 1 index /FID ne {def}{pop pop} ifelse } forall
  /Encoding exch def currentdict end definefont pop} bdef
/isroman {findfont /CharStrings get /Agrave known} bdef
/FMSR {3 1 roll 1 index dup isroman {reencode} {pop pop} ifelse
  exch FMS} bdef
/csm {1 dpi2point div -1 dpi2point div scale neg translate
 dup landscapeMode eq {pop -90 rotate}
  {rotateMode eq {90 rotate} if} ifelse} bdef
% line types: solid, dotted, dashed, dotdash
/SO { [] 0 setdash } bdef
/DO { [.5 dpi2point mul 4 dpi2point mul] 0 setdash } bdef
/DA { [6 dpi2point mul] 0 setdash } bdef
/DD { [.5 dpi2point mul 4 dpi2point mul 6 dpi2point mul 4
  dpi2point mul] 0 setdash } bdef
% macros for lines and objects
/L {lineto stroke} bdef
/MP {3 1 roll moveto 1 sub {rlineto} repeat} bdef
/AP {{rlineto} repeat} bdef
/PDlw -1 def
/W {/PDlw currentlinewidth def setlinewidth} def
/PP {closepath eofill} bdef
/DP {closepath stroke} bdef
/MR {4 -2 roll moveto dup  0 exch rlineto exch 0 rlineto
  neg 0 exch rlineto closepath} bdef
/FR {MR stroke} bdef
/PR {MR fill} bdef
/L1i {{currentfile picstr readhexstring pop} image} bdef
/tMatrix matrix def
/MakeOval {newpath tMatrix currentmatrix pop translate scale
0 0 1 0 360 arc tMatrix setmatrix} bdef
/FO {MakeOval stroke} bdef
/PO {MakeOval fill} bdef
/PD {currentlinewidth 2 div 0 360 arc fill
   PDlw -1 eq not {PDlw w /PDlw -1 def} if} def
/FA {newpath tMatrix currentmatrix pop translate scale
  0 0 1 5 -2 roll arc tMatrix setmatrix stroke} bdef
/PA {newpath tMatrix currentmatrix pop	translate 0 0 moveto scale
  0 0 1 5 -2 roll arc closepath tMatrix setmatrix fill} bdef
/FAn {newpath tMatrix currentmatrix pop translate scale
  0 0 1 5 -2 roll arcn tMatrix setmatrix stroke} bdef
/PAn {newpath tMatrix currentmatrix pop translate 0 0 moveto scale
  0 0 1 5 -2 roll arcn closepath tMatrix setmatrix fill} bdef
/vradius 0 def /hradius 0 def /lry 0 def
/lrx 0 def /uly 0 def /ulx 0 def /rad 0 def
/MRR {/vradius xdef /hradius xdef /lry xdef /lrx xdef /uly xdef
  /ulx xdef newpath tMatrix currentmatrix pop ulx hradius add uly
  vradius add translate hradius vradius scale 0 0 1 180 270 arc 
  tMatrix setmatrix lrx hradius sub uly vradius add translate
  hradius vradius scale 0 0 1 270 360 arc tMatrix setmatrix
  lrx hradius sub lry vradius sub translate hradius vradius scale
  0 0 1 0 90 arc tMatrix setmatrix ulx hradius add lry vradius sub
  translate hradius vradius scale 0 0 1 90 180 arc tMatrix setmatrix
  closepath} bdef
/FRR {MRR stroke } bdef
/PRR {MRR fill } bdef
/MlrRR {/lry xdef /lrx xdef /uly xdef /ulx xdef /rad lry uly sub 2 div def
  newpath tMatrix currentmatrix pop ulx rad add uly rad add translate
  rad rad scale 0 0 1 90 270 arc tMatrix setmatrix lrx rad sub lry rad
  sub translate rad rad scale 0 0 1 270 90 arc tMatrix setmatrix
  closepath} bdef
/FlrRR {MlrRR stroke } bdef
/PlrRR {MlrRR fill } bdef
/MtbRR {/lry xdef /lrx xdef /uly xdef /ulx xdef /rad lrx ulx sub 2 div def
  newpath tMatrix currentmatrix pop ulx rad add uly rad add translate
  rad rad scale 0 0 1 180 360 arc tMatrix setmatrix lrx rad sub lry rad
  sub translate rad rad scale 0 0 1 0 180 arc tMatrix setmatrix
  closepath} bdef
/FtbRR {MtbRR stroke } bdef
/PtbRR {MtbRR fill } bdef
/stri 6 array def /dtri 6 array def
/smat 6 array def /dmat 6 array def
/tmat1 6 array def /tmat2 6 array def /dif 3 array def
/asub {/ind2 exch def /ind1 exch def dup dup
  ind1 get exch ind2 get sub exch } bdef
/tri_to_matrix {
  2 0 asub 3 1 asub 4 0 asub 5 1 asub
  dup 0 get exch 1 get 7 -1 roll astore } bdef
/compute_transform {
  dmat dtri tri_to_matrix tmat1 invertmatrix 
  smat stri tri_to_matrix tmat2 concatmatrix } bdef
/ds {stri astore pop} bdef
/dt {dtri astore pop} bdef
/db {2 copy /cols xdef /rows xdef mul dup 3 mul string
  currentfile 
  3 index 0 eq {/ASCIIHexDecode filter}
  {/ASCII85Decode filter 3 index 2 eq {/RunLengthDecode filter} if }
  ifelse exch readstring pop
  dup 0 3 index getinterval /rbmap xdef
  dup 2 index dup getinterval /gbmap xdef
  1 index dup 2 mul exch getinterval /bbmap xdef pop pop}bdef
/it {gs np dtri aload pop moveto lineto lineto cp c
  cols rows 8 compute_transform 
  rbmap gbmap bbmap true 3 colorimage gr}bdef
/il {newpath moveto lineto stroke}bdef
currentdict end def
%%EndProlog

%%BeginSetup
MathWorks begin

0 cap

end
%%EndSetup

%%Page: 1 1
%%BeginPageSetup
%%PageBoundingBox:   -74   130   686   662
MathWorks begin
bpage
%%EndPageSetup

%%BeginObject: obj1
bplot

/dpi2point 12 def
portraitMode -0888 7944 csm

    0     0  9124  6381 rc
85 dict begin %Colortable dictionary
/c0 { 0.000000 0.000000 0.000000 sr} bdef
/c1 { 1.000000 1.000000 1.000000 sr} bdef
/c2 { 0.900000 0.000000 0.000000 sr} bdef
/c3 { 0.000000 0.820000 0.000000 sr} bdef
/c4 { 0.000000 0.000000 0.800000 sr} bdef
/c5 { 0.910000 0.820000 0.320000 sr} bdef
/c6 { 1.000000 0.260000 0.820000 sr} bdef
/c7 { 0.000000 0.820000 0.820000 sr} bdef
c0
1 j
1 sg
   0    0 9125 6382 rf
6 w
0 5425 8440 0 0 -5425 612 5904 4 MP
PP
-8440 0 0 5425 8440 0 0 -5425 612 5904 5 MP stroke
4 w
DO
0 sg
 612 5904 mt  612  479 L
 612  479 mt  612  479 L
1549 5904 mt 1549  479 L
1549  479 mt 1549  479 L
2487 5904 mt 2487  479 L
2487  479 mt 2487  479 L
3425 5904 mt 3425  479 L
3425  479 mt 3425  479 L
4363 5904 mt 4363  479 L
4363  479 mt 4363  479 L
5300 5904 mt 5300  479 L
5300  479 mt 5300  479 L
6238 5904 mt 6238  479 L
6238  479 mt 6238  479 L
7176 5904 mt 7176  479 L
7176  479 mt 7176  479 L
8114 5904 mt 8114  479 L
8114  479 mt 8114  479 L
9052 5904 mt 9052  479 L
9052  479 mt 9052  479 L
 612 5904 mt 9052 5904 L
9052 5904 mt 9052 5904 L
 612 5361 mt 9052 5361 L
9052 5361 mt 9052 5361 L
 612 4819 mt 9052 4819 L
9052 4819 mt 9052 4819 L
 612 4276 mt 9052 4276 L
9052 4276 mt 9052 4276 L
 612 3734 mt 9052 3734 L
9052 3734 mt 9052 3734 L
 612 3191 mt 9052 3191 L
9052 3191 mt 9052 3191 L
 612 2648 mt 9052 2648 L
9052 2648 mt 9052 2648 L
 612 2106 mt 9052 2106 L
9052 2106 mt 9052 2106 L
 612 1564 mt 9052 1564 L
9052 1564 mt 9052 1564 L
 612 1021 mt 9052 1021 L
9052 1021 mt 9052 1021 L
 612  479 mt 9052  479 L
9052  479 mt 9052  479 L
SO
6 w
 612 5904 mt 9052 5904 L
 612 5904 mt  612  479 L
 612 5904 mt  612 5819 L
%%IncludeResource: font Times-Bold
/Times-Bold /WindowsLatin1Encoding 168 FMSR

 570 6095 mt 
(0) s
1549 5904 mt 1549 5819 L
1433 6095 mt 
(TR) s
2487 5904 mt 2487 5819 L
2364 6095 mt 
(RO) s
3425 5904 mt 3425 5819 L
3314 6095 mt 
(PR) s
4363 5904 mt 4363 5819 L
4256 6095 mt 
(SR) s
5300 5904 mt 5300 5819 L
5174 6095 mt 
(OC) s
6238 5904 mt 6238 5819 L
6122 6095 mt 
(TX) s
7176 5904 mt 7176 5819 L
7064 6095 mt 
(BL) s
8114 5904 mt 8114 5819 L
8007 6095 mt 
(SC) s
9052 5904 mt 9052 5819 L
9010 6095 mt 
(0) s
 612 5904 mt  696 5904 L
 493 5966 mt 
(0) s
 612 5361 mt  696 5361 L
 367 5423 mt 
(0.1) s
 612 4819 mt  696 4819 L
 367 4881 mt 
(0.2) s
 612 4276 mt  696 4276 L
 367 4338 mt 
(0.3) s
 612 3734 mt  696 3734 L
 367 3796 mt 
(0.4) s
 612 3191 mt  696 3191 L
 367 3253 mt 
(0.5) s
 612 2648 mt  696 2648 L
 367 2710 mt 
(0.6) s
 612 2106 mt  696 2106 L
 367 2168 mt 
(0.7) s
 612 1564 mt  696 1564 L
 367 1626 mt 
(0.8) s
 612 1021 mt  696 1021 L
 367 1083 mt 
(0.9) s
 612  479 mt  696  479 L
 493  541 mt 
(1) s
2660  348 mt 
(SM Success Rates for Different Challeges with RSCV/8DOF ) s
gs 612 479 8441 5426 rc
/c8 { 0.000000 0.000000 0.562500 sr} bdef
c8
0 4175 86 0 0 -4175 1185 5904 4 MP
PP
0 sg
-86 0 0 4175 86 0 0 -4175 1185 5904 5 MP stroke
c8
0 3960 85 0 0 -3960 2123 5904 4 MP
PP
0 sg
-85 0 0 3960 85 0 0 -3960 2123 5904 5 MP stroke
c8
0 4476 86 0 0 -4476 3060 5904 4 MP
PP
0 sg
-86 0 0 4476 86 0 0 -4476 3060 5904 5 MP stroke
c8
0 4134 86 0 0 -4134 3998 5904 4 MP
PP
0 sg
-86 0 0 4134 86 0 0 -4134 3998 5904 5 MP stroke
c8
0 1762 86 0 0 -1762 4936 5904 4 MP
PP
0 sg
-86 0 0 1762 86 0 0 -1762 4936 5904 5 MP stroke
c8
0 3263 86 0 0 -3263 5874 5904 4 MP
PP
0 sg
-86 0 0 3263 86 0 0 -3263 5874 5904 5 MP stroke
c8
0 2839 85 0 0 -2839 6812 5904 4 MP
PP
0 sg
-85 0 0 2839 85 0 0 -2839 6812 5904 5 MP stroke
c8
0 5068 86 0 0 -5068 7749 5904 4 MP
PP
0 sg
-86 0 0 5068 86 0 0 -5068 7749 5904 5 MP stroke
8440 0 612 5904 2 MP stroke
/c9 { 0.000000 0.187500 1.000000 sr} bdef
c9
0 3752 86 0 0 -3752 1292 5904 4 MP
PP
0 sg
-86 0 0 3752 86 0 0 -3752 1292 5904 5 MP stroke
c9
0 3461 86 0 0 -3461 2230 5904 4 MP
PP
0 sg
-86 0 0 3461 86 0 0 -3461 2230 5904 5 MP stroke
c9
0 4039 85 0 0 -4039 3168 5904 4 MP
PP
0 sg
-85 0 0 4039 85 0 0 -4039 3168 5904 5 MP stroke
c9
0 3785 86 0 0 -3785 4105 5904 4 MP
PP
0 sg
-86 0 0 3785 86 0 0 -3785 4105 5904 5 MP stroke
c9
0 2154 86 0 0 -2154 5043 5904 4 MP
PP
0 sg
-86 0 0 2154 86 0 0 -2154 5043 5904 5 MP stroke
c9
0 3356 86 0 0 -3356 5981 5904 4 MP
PP
0 sg
-86 0 0 3356 86 0 0 -3356 5981 5904 5 MP stroke
c9
0 2511 85 0 0 -2511 6919 5904 4 MP
PP
0 sg
-85 0 0 2511 85 0 0 -2511 6919 5904 5 MP stroke
c9
0 4690 85 0 0 -4690 7857 5904 4 MP
PP
0 sg
-85 0 0 4690 85 0 0 -4690 7857 5904 5 MP stroke
/c10 { 0.000000 0.875000 1.000000 sr} bdef
c10
0 3807 86 0 0 -3807 1399 5904 4 MP
PP
0 sg
-86 0 0 3807 86 0 0 -3807 1399 5904 5 MP stroke
c10
0 3612 86 0 0 -3612 2337 5904 4 MP
PP
0 sg
-86 0 0 3612 86 0 0 -3612 2337 5904 5 MP stroke
c10
0 3961 86 0 0 -3961 3275 5904 4 MP
PP
0 sg
-86 0 0 3961 86 0 0 -3961 3275 5904 5 MP stroke
c10
0 3653 85 0 0 -3653 4213 5904 4 MP
PP
0 sg
-85 0 0 3653 85 0 0 -3653 4213 5904 5 MP stroke
c10
0 1769 86 0 0 -1769 5150 5904 4 MP
PP
0 sg
-86 0 0 1769 86 0 0 -1769 5150 5904 5 MP stroke
c10
0 4085 86 0 0 -4085 6088 5904 4 MP
PP
0 sg
-86 0 0 4085 86 0 0 -4085 6088 5904 5 MP stroke
c10
0 2673 86 0 0 -2673 7026 5904 4 MP
PP
0 sg
-86 0 0 2673 86 0 0 -2673 7026 5904 5 MP stroke
c10
0 4551 85 0 0 -4551 7964 5904 4 MP
PP
0 sg
-85 0 0 4551 85 0 0 -4551 7964 5904 5 MP stroke
/c11 { 0.562500 1.000000 0.437500 sr} bdef
c11
0 3467 86 0 0 -3467 1506 5904 4 MP
PP
0 sg
-86 0 0 3467 86 0 0 -3467 1506 5904 5 MP stroke
c11
0 2608 86 0 0 -2608 2444 5904 4 MP
PP
0 sg
-86 0 0 2608 86 0 0 -2608 2444 5904 5 MP stroke
c11
0 3187 86 0 0 -3187 3382 5904 4 MP
PP
0 sg
-86 0 0 3187 86 0 0 -3187 3382 5904 5 MP stroke
c11
0 3298 85 0 0 -3298 4320 5904 4 MP
PP
0 sg
-85 0 0 3298 85 0 0 -3298 4320 5904 5 MP stroke
c11
0 1103 85 0 0 -1103 5258 5904 4 MP
PP
0 sg
-85 0 0 1103 85 0 0 -1103 5258 5904 5 MP stroke
c11
0 3365 86 0 0 -3365 6195 5904 4 MP
PP
0 sg
-86 0 0 3365 86 0 0 -3365 6195 5904 5 MP stroke
c11
0 2212 86 0 0 -2212 7133 5904 4 MP
PP
0 sg
-86 0 0 2212 86 0 0 -2212 7133 5904 5 MP stroke
c11
0 4448 86 0 0 -4448 8071 5904 4 MP
PP
0 sg
-86 0 0 4448 86 0 0 -4448 8071 5904 5 MP stroke
/c12 { 1.000000 0.812500 0.000000 sr} bdef
c12
0 4237 85 0 0 -4237 1614 5904 4 MP
PP
0 sg
-85 0 0 4237 85 0 0 -4237 1614 5904 5 MP stroke
c12
0 4212 86 0 0 -4212 2551 5904 4 MP
PP
0 sg
-86 0 0 4212 86 0 0 -4212 2551 5904 5 MP stroke
c12
0 4461 86 0 0 -4461 3489 5904 4 MP
PP
0 sg
-86 0 0 4461 86 0 0 -4461 3489 5904 5 MP stroke
c12
0 4269 86 0 0 -4269 4427 5904 4 MP
PP
0 sg
-86 0 0 4269 86 0 0 -4269 4427 5904 5 MP stroke
c12
0 2213 85 0 0 -2213 5365 5904 4 MP
PP
0 sg
-85 0 0 2213 85 0 0 -2213 5365 5904 5 MP stroke
c12
0 3267 86 0 0 -3267 6302 5904 4 MP
PP
0 sg
-86 0 0 3267 86 0 0 -3267 6302 5904 5 MP stroke
c12
0 2889 86 0 0 -2889 7240 5904 4 MP
PP
0 sg
-86 0 0 2889 86 0 0 -2889 7240 5904 5 MP stroke
c12
0 5218 86 0 0 -5218 8178 5904 4 MP
PP
0 sg
-86 0 0 5218 86 0 0 -5218 8178 5904 5 MP stroke
/c13 { 1.000000 0.125000 0.000000 sr} bdef
c13
0 3134 85 0 0 -3134 1721 5904 4 MP
PP
0 sg
-85 0 0 3134 85 0 0 -3134 1721 5904 5 MP stroke
c13
0 2689 85 0 0 -2689 2659 5904 4 MP
PP
0 sg
-85 0 0 2689 85 0 0 -2689 2659 5904 5 MP stroke
c13
0 3603 86 0 0 -3603 3596 5904 4 MP
PP
0 sg
-86 0 0 3603 86 0 0 -3603 3596 5904 5 MP stroke
c13
0 3408 86 0 0 -3408 4534 5904 4 MP
PP
0 sg
-86 0 0 3408 86 0 0 -3408 4534 5904 5 MP stroke
c13
0 1408 86 0 0 -1408 5472 5904 4 MP
PP
0 sg
-86 0 0 1408 86 0 0 -1408 5472 5904 5 MP stroke
c13
0 3289 85 0 0 -3289 6410 5904 4 MP
PP
0 sg
-85 0 0 3289 85 0 0 -3289 6410 5904 5 MP stroke
c13
0 2464 86 0 0 -2464 7347 5904 4 MP
PP
0 sg
-86 0 0 2464 86 0 0 -2464 7347 5904 5 MP stroke
c13
0 4399 86 0 0 -4399 8285 5904 4 MP
PP
0 sg
-86 0 0 4399 86 0 0 -4399 8285 5904 5 MP stroke
/c14 { 0.500000 0.000000 0.000000 sr} bdef
c14
0 3653 86 0 0 -3653 1828 5904 4 MP
PP
0 sg
-86 0 0 3653 86 0 0 -3653 1828 5904 5 MP stroke
c14
0 3232 85 0 0 -3232 2766 5904 4 MP
PP
0 sg
-85 0 0 3232 85 0 0 -3232 2766 5904 5 MP stroke
c14
0 3926 86 0 0 -3926 3703 5904 4 MP
PP
0 sg
-86 0 0 3926 86 0 0 -3926 3703 5904 5 MP stroke
c14
0 3950 86 0 0 -3950 4641 5904 4 MP
PP
0 sg
-86 0 0 3950 86 0 0 -3950 4641 5904 5 MP stroke
c14
0 1540 86 0 0 -1540 5579 5904 4 MP
PP
0 sg
-86 0 0 1540 86 0 0 -1540 5579 5904 5 MP stroke
c14
0 1667 86 0 0 -1667 6517 5904 4 MP
PP
0 sg
-86 0 0 1667 86 0 0 -1667 6517 5904 5 MP stroke
c14
0 2658 85 0 0 -2658 7455 5904 4 MP
PP
0 sg
-85 0 0 2658 85 0 0 -2658 7455 5904 5 MP stroke
c14
0 4632 86 0 0 -4632 8392 5904 4 MP
PP
0 sg
-86 0 0 4632 86 0 0 -4632 8392 5904 5 MP stroke
gr

4462 6266 mt 
(challenges) s
 276 3670 mt  -90 rotate
(success count) s
90 rotate
%%IncludeResource: font Helvetica
/Helvetica /WindowsLatin1Encoding 120 FMSR

 595 5947 mt 
( ) s
9036  521 mt 
( ) s
1 sg
0 1596 1017 0 0 -1596 6387 2075 4 MP
PP
-1017 0 0 1596 1017 0 0 -1596 6387 2075 5 MP stroke
4 w
DO
SO
6 w
0 sg
6387  479 mt 7404  479 L
6387 2075 mt 7404 2075 L
7404 2075 mt 7404  479 L
6387 2075 mt 6387  479 L
6387 2075 mt 7404 2075 L
6387 2075 mt 6387  479 L
6387  479 mt 7404  479 L
6387 2075 mt 7404 2075 L
7404 2075 mt 7404  479 L
6387 2075 mt 6387  479 L
%%IncludeResource: font Times-Bold
/Times-Bold /WindowsLatin1Encoding 168 FMSR

6855  672 mt 
(FCLK) s
gs 6387 479 1018 1597 rc
c8
-360 0 0 167 360 0 0 -167 6459 694 5 MP
PP
0 sg
0 0 -360 0 0 167 360 0 0 -167 6459 694 6 MP stroke
gr

6855  894 mt 
(ICLK) s
gs 6387 479 1018 1597 rc
c9
-360 0 0 167 360 0 0 -167 6459 916 5 MP
PP
0 sg
0 0 -360 0 0 167 360 0 0 -167 6459 916 6 MP stroke
gr

6855 1116 mt 
(FALK) s
gs 6387 479 1018 1597 rc
c10
-360 0 0 167 360 0 0 -167 6459 1138 5 MP
PP
0 sg
0 0 -360 0 0 167 360 0 0 -167 6459 1138 6 MP stroke
gr

6855 1339 mt 
(IALK) s
gs 6387 479 1018 1597 rc
c11
-360 0 0 167 360 0 0 -167 6459 1360 5 MP
PP
0 sg
0 0 -360 0 0 167 360 0 0 -167 6459 1360 6 MP stroke
gr

6855 1561 mt 
(ESM) s
gs 6387 479 1018 1597 rc
c12
-360 0 0 167 360 0 0 -167 6459 1582 5 MP
PP
0 sg
0 0 -360 0 0 167 360 0 0 -167 6459 1582 6 MP stroke
gr

6855 1783 mt 
(AESM) s
gs 6387 479 1018 1597 rc
c13
-360 0 0 167 360 0 0 -167 6459 1804 5 MP
PP
0 sg
0 0 -360 0 0 167 360 0 0 -167 6459 1804 6 MP stroke
gr

6855 2005 mt 
(NNIC) s
gs 6387 479 1018 1597 rc
c14
-360 0 0 167 360 0 0 -167 6459 2026 5 MP
PP
0 sg
0 0 -360 0 0 167 360 0 0 -167 6459 2026 6 MP stroke
gr


end %%Color Dict

eplot
%%EndObject

epage
end

showpage

%%Trailer
%%EOF
